rtl/communication/spi/agr_spi_bridge/waveforms/wave.vcd
$version Generated by VerilatedVcd $end
$timescale 1ps $end
 $scope module TOP $end
  $var wire 1 9 clk $end
  $var wire 1 : rst_n $end
  $var wire 1 ; spi_csn $end
  $var wire 1 < spi_sck $end
  $var wire 1 = spi_mosi $end
  $var wire 1 > spi_miso $end
  $var wire 1 ? bus_req $end
  $var wire 1 @ bus_we $end
  $var wire 16 A bus_addr [15:0] $end
  $var wire 8 B bus_wdata [7:0] $end
  $var wire 8 C bus_rdata [7:0] $end
  $var wire 1 D bus_ready $end
  $scope module agr_spi_bridge $end
   $var wire 32 G ADDR_W [31:0] $end
   $var wire 32 H DATA_W [31:0] $end
   $var wire 1 9 clk $end
   $var wire 1 : rst_n $end
   $var wire 1 ; spi_csn $end
   $var wire 1 < spi_sck $end
   $var wire 1 = spi_mosi $end
   $var wire 1 > spi_miso $end
   $var wire 1 ? bus_req $end
   $var wire 1 @ bus_we $end
   $var wire 16 A bus_addr [15:0] $end
   $var wire 8 B bus_wdata [7:0] $end
   $var wire 8 C bus_rdata [7:0] $end
   $var wire 1 D bus_ready $end
   $var wire 3 " cs_ff [2:0] $end
   $var wire 3 # sck_ff [2:0] $end
   $var wire 3 2 mosi_ff [2:0] $end
   $var wire 1 $ sck_rise $end
   $var wire 1 % sck_fall $end
   $var wire 1 & cs_fall $end
   $var wire 1 ' cs_rise $end
   $var wire 1 3 mosi_d $end
   $var wire 3 ( bit_cnt [2:0] $end
   $var wire 8 4 rx_shift [7:0] $end
   $var wire 1 5 byte_done $end
   $var wire 8 6 rx_byte [7:0] $end
   $var wire 1 7 rx_valid $end
   $var wire 3 8 state [2:0] $end
   $var wire 8 ) cmd_commit [7:0] $end
   $var wire 16 E addr_reg [15:0] $end
   $var wire 8 F wdata_reg [7:0] $end
   $var wire 1 * commit_raw $end
   $var wire 1 + commit_strobe $end
   $var wire 8 , read_buffer [7:0] $end
   $var wire 1 - read_pending $end
   $var wire 8 . tx_data_reg [7:0] $end
   $var wire 1 / tx_data_valid $end
   $var wire 8 0 tx_shift [7:0] $end
   $var wire 1 1 tx_loaded $end
  $upscope $end
 $upscope $end
$enddefinitions $end


#0
b000 "
b000 #
0$
0%
0&
0'
b000 (
b00000000 )
0*
0+
b00000000 ,
0-
b00000000 .
0/
b00000000 0
01
b000 2
03
b00000000 4
05
b00000000 6
07
b000 8
09
0:
1;
0<
0=
0>
0?
0@
b0000000000000000 A
b00000000 B
b00000000 C
0D
b0000000000000000 E
b00000000 F
b00000000000000000000000000010000 G
b00000000000000000000000000001000 H
#1
b111 "
19
#2
09
#3
19
#4
09
#5
19
#6
09
#7
19
#8
09
#9
19
#10
09
#11
19
#12
09
#13
19
#14
09
#15
19
#16
09
#17
19
#18
09
#19
19
#20
09
1:
#21
19
#22
09
#23
19
#24
09
#25
19
#26
09
#27
19
#28
09
#29
19
#30
09
#31
19
#32
09
#33
19
#34
09
#35
19
#36
09
#37
19
#38
09
#39
19
#40
09
#41
19
#42
09
#43
19
#44
09
#45
19
#46
09
#47
19
#48
09
#49
19
#50
09
#51
19
#52
09
#53
19
#54
09
#55
19
#56
09
#57
19
#58
09
#59
19
#60
09
0;
#61
b110 "
19
#62
09
#63
b100 "
1'
19
#64
09
#65
b000 "
0'
19
#66
09
#67
19
#68
09
#69
19
#70
09
#71
19
#72
09
#73
19
#74
09
#75
19
#76
09
#77
19
#78
09
#79
19
#80
09
#81
19
#82
09
#83
19
#84
09
#85
19
#86
09
#87
19
#88
09
#89
19
#90
09
#91
19
#92
09
#93
19
#94
09
#95
19
#96
09
#97
19
#98
09
#99
19
#100
09
1=
#101
b001 2
19
#102
09
#103
b011 2
19
#104
09
#105
b111 2
13
19
#106
09
#107
19
#108
09
#109
19
#110
09
#111
19
#112
09
#113
19
#114
09
#115
19
#116
09
#117
19
#118
09
#119
19
#120
09
#121
19
#122
09
#123
19
#124
09
#125
19
#126
09
#127
19
#128
09
#129
19
#130
09
#131
19
#132
09
#133
19
#134
09
#135
19
#136
09
#137
19
#138
09
#139
19
#140
09
1<
#141
b001 #
19
#142
09
#143
b011 #
1%
19
#144
09
#145
b111 #
0%
19
#146
09
#147
19
#148
09
#149
19
#150
09
#151
19
#152
09
#153
19
#154
09
#155
19
#156
09
#157
19
#158
09
#159
19
#160
09
#161
19
#162
09
#163
19
#164
09
#165
19
#166
09
#167
19
#168
09
#169
19
#170
09
#171
19
#172
09
#173
19
#174
09
#175
19
#176
09
#177
19
#178
09
#179
19
#180
09
0<
0=
#181
b110 #
b110 2
19
#182
09
#183
b100 #
1$
b100 2
19
#184
09
#185
b000 #
0$
b001 (
b000 2
03
b00000001 4
19
#186
09
#187
19
#188
09
#189
19
#190
09
#191
19
#192
09
#193
19
#194
09
#195
19
#196
09
#197
19
#198
09
#199
19
#200
09
#201
19
#202
09
#203
19
#204
09
#205
19
#206
09
#207
19
#208
09
#209
19
#210
09
#211
19
#212
09
#213
19
#214
09
#215
19
#216
09
#217
19
#218
09
#219
19
#220
09
1<
#221
b001 #
19
#222
09
#223
b011 #
1%
19
#224
09
#225
b111 #
0%
19
#226
09
#227
19
#228
09
#229
19
#230
09
#231
19
#232
09
#233
19
#234
09
#235
19
#236
09
#237
19
#238
09
#239
19
#240
09
#241
19
#242
09
#243
19
#244
09
#245
19
#246
09
#247
19
#248
09
#249
19
#250
09
#251
19
#252
09
#253
19
#254
09
#255
19
#256
09
#257
19
#258
09
#259
19
#260
09
0<
#261
b110 #
19
#262
09
#263
b100 #
1$
19
#264
09
#265
b000 #
0$
b010 (
b00000010 4
19
#266
09
#267
19
#268
09
#269
19
#270
09
#271
19
#272
09
#273
19
#274
09
#275
19
#276
09
#277
19
#278
09
#279
19
#280
09
#281
19
#282
09
#283
19
#284
09
#285
19
#286
09
#287
19
#288
09
#289
19
#290
09
#291
19
#292
09
#293
19
#294
09
#295
19
#296
09
#297
19
#298
09
#299
19
#300
09
1<
#301
b001 #
19
#302
09
#303
b011 #
1%
19
#304
09
#305
b111 #
0%
19
#306
09
#307
19
#308
09
#309
19
#310
09
#311
19
#312
09
#313
19
#314
09
#315
19
#316
09
#317
19
#318
09
#319
19
#320
09
#321
19
#322
09
#323
19
#324
09
#325
19
#326
09
#327
19
#328
09
#329
19
#330
09
#331
19
#332
09
#333
19
#334
09
#335
19
#336
09
#337
19
#338
09
#339
19
#340
09
0<
#341
b110 #
19
#342
09
#343
b100 #
1$
19
#344
09
#345
b000 #
0$
b011 (
b00000100 4
19
#346
09
#347
19
#348
09
#349
19
#350
09
#351
19
#352
09
#353
19
#354
09
#355
19
#356
09
#357
19
#358
09
#359
19
#360
09
#361
19
#362
09
#363
19
#364
09
#365
19
#366
09
#367
19
#368
09
#369
19
#370
09
#371
19
#372
09
#373
19
#374
09
#375
19
#376
09
#377
19
#378
09
#379
19
#380
09
1<
#381
b001 #
19
#382
09
#383
b011 #
1%
19
#384
09
#385
b111 #
0%
19
#386
09
#387
19
#388
09
#389
19
#390
09
#391
19
#392
09
#393
19
#394
09
#395
19
#396
09
#397
19
#398
09
#399
19
#400
09
#401
19
#402
09
#403
19
#404
09
#405
19
#406
09
#407
19
#408
09
#409
19
#410
09
#411
19
#412
09
#413
19
#414
09
#415
19
#416
09
#417
19
#418
09
#419
19
#420
09
0<
#421
b110 #
19
#422
09
#423
b100 #
1$
19
#424
09
#425
b000 #
0$
b100 (
b00001000 4
19
#426
09
#427
19
#428
09
#429
19
#430
09
#431
19
#432
09
#433
19
#434
09
#435
19
#436
09
#437
19
#438
09
#439
19
#440
09
#441
19
#442
09
#443
19
#444
09
#445
19
#446
09
#447
19
#448
09
#449
19
#450
09
#451
19
#452
09
#453
19
#454
09
#455
19
#456
09
#457
19
#458
09
#459
19
#460
09
1<
#461
b001 #
19
#462
09
#463
b011 #
1%
19
#464
09
#465
b111 #
0%
19
#466
09
#467
19
#468
09
#469
19
#470
09
#471
19
#472
09
#473
19
#474
09
#475
19
#476
09
#477
19
#478
09
#479
19
#480
09
#481
19
#482
09
#483
19
#484
09
#485
19
#486
09
#487
19
#488
09
#489
19
#490
09
#491
19
#492
09
#493
19
#494
09
#495
19
#496
09
#497
19
#498
09
#499
19
#500
09
0<
#501
b110 #
19
#502
09
#503
b100 #
1$
19
#504
09
#505
b000 #
0$
b101 (
b00010000 4
19
#506
09
#507
19
#508
09
#509
19
#510
09
#511
19
#512
09
#513
19
#514
09
#515
19
#516
09
#517
19
#518
09
#519
19
#520
09
#521
19
#522
09
#523
19
#524
09
#525
19
#526
09
#527
19
#528
09
#529
19
#530
09
#531
19
#532
09
#533
19
#534
09
#535
19
#536
09
#537
19
#538
09
#539
19
#540
09
1<
#541
b001 #
19
#542
09
#543
b011 #
1%
19
#544
09
#545
b111 #
0%
19
#546
09
#547
19
#548
09
#549
19
#550
09
#551
19
#552
09
#553
19
#554
09
#555
19
#556
09
#557
19
#558
09
#559
19
#560
09
#561
19
#562
09
#563
19
#564
09
#565
19
#566
09
#567
19
#568
09
#569
19
#570
09
#571
19
#572
09
#573
19
#574
09
#575
19
#576
09
#577
19
#578
09
#579
19
#580
09
0<
#581
b110 #
19
#582
09
#583
b100 #
1$
19
#584
09
#585
b000 #
0$
b110 (
b00100000 4
19
#586
09
#587
19
#588
09
#589
19
#590
09
#591
19
#592
09
#593
19
#594
09
#595
19
#596
09
#597
19
#598
09
#599
19
#600
09
#601
19
#602
09
#603
19
#604
09
#605
19
#606
09
#607
19
#608
09
#609
19
#610
09
#611
19
#612
09
#613
19
#614
09
#615
19
#616
09
#617
19
#618
09
#619
19
#620
09
1<
#621
b001 #
19
#622
09
#623
b011 #
1%
19
#624
09
#625
b111 #
0%
19
#626
09
#627
19
#628
09
#629
19
#630
09
#631
19
#632
09
#633
19
#634
09
#635
19
#636
09
#637
19
#638
09
#639
19
#640
09
#641
19
#642
09
#643
19
#644
09
#645
19
#646
09
#647
19
#648
09
#649
19
#650
09
#651
19
#652
09
#653
19
#654
09
#655
19
#656
09
#657
19
#658
09
#659
19
#660
09
0<
#661
b110 #
19
#662
09
#663
b100 #
1$
19
#664
09
#665
b000 #
0$
b111 (
b01000000 4
19
#666
09
#667
19
#668
09
#669
19
#670
09
#671
19
#672
09
#673
19
#674
09
#675
19
#676
09
#677
19
#678
09
#679
19
#680
09
#681
19
#682
09
#683
19
#684
09
#685
19
#686
09
#687
19
#688
09
#689
19
#690
09
#691
19
#692
09
#693
19
#694
09
#695
19
#696
09
#697
19
#698
09
#699
19
#700
09
1<
#701
b001 #
19
#702
09
#703
b011 #
1%
19
#704
09
#705
b111 #
0%
19
#706
09
#707
19
#708
09
#709
19
#710
09
#711
19
#712
09
#713
19
#714
09
#715
19
#716
09
#717
19
#718
09
#719
19
#720
09
#721
19
#722
09
#723
19
#724
09
#725
19
#726
09
#727
19
#728
09
#729
19
#730
09
#731
19
#732
09
#733
19
#734
09
#735
19
#736
09
#737
19
#738
09
#739
19
#740
09
0<
#741
b110 #
19
#742
09
#743
b100 #
1$
15
19
#744
09
#745
b000 #
0$
b000 (
b10000000 4
05
b10000000 6
17
19
#746
09
#747
b10000000 )
07
b001 8
19
#748
09
#749
19
#750
09
#751
19
#752
09
#753
19
#754
09
#755
19
#756
09
#757
19
#758
09
#759
19
#760
09
#761
19
#762
09
#763
19
#764
09
#765
19
#766
09
#767
19
#768
09
#769
19
#770
09
#771
19
#772
09
#773
19
#774
09
#775
19
#776
09
#777
19
#778
09
#779
19
#780
09
1<
#781
b001 #
19
#782
09
#783
b011 #
1%
19
#784
09
#785
b111 #
0%
19
#786
09
#787
19
#788
09
#789
19
#790
09
#791
19
#792
09
#793
19
#794
09
#795
19
#796
09
#797
19
#798
09
#799
19
#800
09
#801
19
#802
09
#803
19
#804
09
#805
19
#806
09
#807
19
#808
09
#809
19
#810
09
#811
19
#812
09
#813
19
#814
09
#815
19
#816
09
#817
19
#818
09
#819
19
#820
09
0<
#821
b110 #
19
#822
09
#823
b100 #
1$
19
#824
09
#825
b000 #
0$
b001 (
b00000000 4
19
#826
09
#827
19
#828
09
#829
19
#830
09
#831
19
#832
09
#833
19
#834
09
#835
19
#836
09
#837
19
#838
09
#839
19
#840
09
#841
19
#842
09
#843
19
#844
09
#845
19
#846
09
#847
19
#848
09
#849
19
#850
09
#851
19
#852
09
#853
19
#854
09
#855
19
#856
09
#857
19
#858
09
#859
19
#860
09
1<
#861
b001 #
19
#862
09
#863
b011 #
1%
19
#864
09
#865
b111 #
0%
19
#866
09
#867
19
#868
09
#869
19
#870
09
#871
19
#872
09
#873
19
#874
09
#875
19
#876
09
#877
19
#878
09
#879
19
#880
09
#881
19
#882
09
#883
19
#884
09
#885
19
#886
09
#887
19
#888
09
#889
19
#890
09
#891
19
#892
09
#893
19
#894
09
#895
19
#896
09
#897
19
#898
09
#899
19
#900
09
0<
#901
b110 #
19
#902
09
#903
b100 #
1$
19
#904
09
#905
b000 #
0$
b010 (
19
#906
09
#907
19
#908
09
#909
19
#910
09
#911
19
#912
09
#913
19
#914
09
#915
19
#916
09
#917
19
#918
09
#919
19
#920
09
#921
19
#922
09
#923
19
#924
09
#925
19
#926
09
#927
19
#928
09
#929
19
#930
09
#931
19
#932
09
#933
19
#934
09
#935
19
#936
09
#937
19
#938
09
#939
19
#940
09
1<
#941
b001 #
19
#942
09
#943
b011 #
1%
19
#944
09
#945
b111 #
0%
19
#946
09
#947
19
#948
09
#949
19
#950
09
#951
19
#952
09
#953
19
#954
09
#955
19
#956
09
#957
19
#958
09
#959
19
#960
09
#961
19
#962
09
#963
19
#964
09
#965
19
#966
09
#967
19
#968
09
#969
19
#970
09
#971
19
#972
09
#973
19
#974
09
#975
19
#976
09
#977
19
#978
09
#979
19
#980
09
0<
1=
#981
b110 #
b001 2
19
#982
09
#983
b100 #
1$
b011 2
19
#984
09
#985
b000 #
0$
b011 (
b111 2
13
19
#986
09
#987
19
#988
09
#989
19
#990
09
#991
19
#992
09
#993
19
#994
09
#995
19
#996
09
#997
19
#998
09
#999
19
#1000
09
#1001
19
#1002
09
#1003
19
#1004
09
#1005
19
#1006
09
#1007
19
#1008
09
#1009
19
#1010
09
#1011
19
#1012
09
#1013
19
#1014
09
#1015
19
#1016
09
#1017
19
#1018
09
#1019
19
#1020
09
1<
#1021
b001 #
19
#1022
09
#1023
b011 #
1%
19
#1024
09
#1025
b111 #
0%
19
#1026
09
#1027
19
#1028
09
#1029
19
#1030
09
#1031
19
#1032
09
#1033
19
#1034
09
#1035
19
#1036
09
#1037
19
#1038
09
#1039
19
#1040
09
#1041
19
#1042
09
#1043
19
#1044
09
#1045
19
#1046
09
#1047
19
#1048
09
#1049
19
#1050
09
#1051
19
#1052
09
#1053
19
#1054
09
#1055
19
#1056
09
#1057
19
#1058
09
#1059
19
#1060
09
0<
0=
#1061
b110 #
b110 2
19
#1062
09
#1063
b100 #
1$
b100 2
19
#1064
09
#1065
b000 #
0$
b100 (
b000 2
03
b00000001 4
19
#1066
09
#1067
19
#1068
09
#1069
19
#1070
09
#1071
19
#1072
09
#1073
19
#1074
09
#1075
19
#1076
09
#1077
19
#1078
09
#1079
19
#1080
09
#1081
19
#1082
09
#1083
19
#1084
09
#1085
19
#1086
09
#1087
19
#1088
09
#1089
19
#1090
09
#1091
19
#1092
09
#1093
19
#1094
09
#1095
19
#1096
09
#1097
19
#1098
09
#1099
19
#1100
09
1<
#1101
b001 #
19
#1102
09
#1103
b011 #
1%
19
#1104
09
#1105
b111 #
0%
19
#1106
09
#1107
19
#1108
09
#1109
19
#1110
09
#1111
19
#1112
09
#1113
19
#1114
09
#1115
19
#1116
09
#1117
19
#1118
09
#1119
19
#1120
09
#1121
19
#1122
09
#1123
19
#1124
09
#1125
19
#1126
09
#1127
19
#1128
09
#1129
19
#1130
09
#1131
19
#1132
09
#1133
19
#1134
09
#1135
19
#1136
09
#1137
19
#1138
09
#1139
19
#1140
09
0<
#1141
b110 #
19
#1142
09
#1143
b100 #
1$
19
#1144
09
#1145
b000 #
0$
b101 (
b00000010 4
19
#1146
09
#1147
19
#1148
09
#1149
19
#1150
09
#1151
19
#1152
09
#1153
19
#1154
09
#1155
19
#1156
09
#1157
19
#1158
09
#1159
19
#1160
09
#1161
19
#1162
09
#1163
19
#1164
09
#1165
19
#1166
09
#1167
19
#1168
09
#1169
19
#1170
09
#1171
19
#1172
09
#1173
19
#1174
09
#1175
19
#1176
09
#1177
19
#1178
09
#1179
19
#1180
09
1<
#1181
b001 #
19
#1182
09
#1183
b011 #
1%
19
#1184
09
#1185
b111 #
0%
19
#1186
09
#1187
19
#1188
09
#1189
19
#1190
09
#1191
19
#1192
09
#1193
19
#1194
09
#1195
19
#1196
09
#1197
19
#1198
09
#1199
19
#1200
09
#1201
19
#1202
09
#1203
19
#1204
09
#1205
19
#1206
09
#1207
19
#1208
09
#1209
19
#1210
09
#1211
19
#1212
09
#1213
19
#1214
09
#1215
19
#1216
09
#1217
19
#1218
09
#1219
19
#1220
09
0<
1=
#1221
b110 #
b001 2
19
#1222
09
#1223
b100 #
1$
b011 2
19
#1224
09
#1225
b000 #
0$
b110 (
b111 2
13
b00000100 4
19
#1226
09
#1227
19
#1228
09
#1229
19
#1230
09
#1231
19
#1232
09
#1233
19
#1234
09
#1235
19
#1236
09
#1237
19
#1238
09
#1239
19
#1240
09
#1241
19
#1242
09
#1243
19
#1244
09
#1245
19
#1246
09
#1247
19
#1248
09
#1249
19
#1250
09
#1251
19
#1252
09
#1253
19
#1254
09
#1255
19
#1256
09
#1257
19
#1258
09
#1259
19
#1260
09
1<
#1261
b001 #
19
#1262
09
#1263
b011 #
1%
19
#1264
09
#1265
b111 #
0%
19
#1266
09
#1267
19
#1268
09
#1269
19
#1270
09
#1271
19
#1272
09
#1273
19
#1274
09
#1275
19
#1276
09
#1277
19
#1278
09
#1279
19
#1280
09
#1281
19
#1282
09
#1283
19
#1284
09
#1285
19
#1286
09
#1287
19
#1288
09
#1289
19
#1290
09
#1291
19
#1292
09
#1293
19
#1294
09
#1295
19
#1296
09
#1297
19
#1298
09
#1299
19
#1300
09
0<
0=
#1301
b110 #
b110 2
19
#1302
09
#1303
b100 #
1$
b100 2
19
#1304
09
#1305
b000 #
0$
b111 (
b000 2
03
b00001001 4
19
#1306
09
#1307
19
#1308
09
#1309
19
#1310
09
#1311
19
#1312
09
#1313
19
#1314
09
#1315
19
#1316
09
#1317
19
#1318
09
#1319
19
#1320
09
#1321
19
#1322
09
#1323
19
#1324
09
#1325
19
#1326
09
#1327
19
#1328
09
#1329
19
#1330
09
#1331
19
#1332
09
#1333
19
#1334
09
#1335
19
#1336
09
#1337
19
#1338
09
#1339
19
#1340
09
1<
#1341
b001 #
19
#1342
09
#1343
b011 #
1%
19
#1344
09
#1345
b111 #
0%
19
#1346
09
#1347
19
#1348
09
#1349
19
#1350
09
#1351
19
#1352
09
#1353
19
#1354
09
#1355
19
#1356
09
#1357
19
#1358
09
#1359
19
#1360
09
#1361
19
#1362
09
#1363
19
#1364
09
#1365
19
#1366
09
#1367
19
#1368
09
#1369
19
#1370
09
#1371
19
#1372
09
#1373
19
#1374
09
#1375
19
#1376
09
#1377
19
#1378
09
#1379
19
#1380
09
0<
#1381
b110 #
19
#1382
09
#1383
b100 #
1$
15
19
#1384
09
#1385
b000 #
0$
b000 (
b00010010 4
05
b00010010 6
17
19
#1386
09
#1387
07
b010 8
19
b0001001000000000 E
#1388
09
#1389
19
#1390
09
#1391
19
#1392
09
#1393
19
#1394
09
#1395
19
#1396
09
#1397
19
#1398
09
#1399
19
#1400
09
#1401
19
#1402
09
#1403
19
#1404
09
#1405
19
#1406
09
#1407
19
#1408
09
#1409
19
#1410
09
#1411
19
#1412
09
#1413
19
#1414
09
#1415
19
#1416
09
#1417
19
#1418
09
#1419
19
#1420
09
1<
#1421
b001 #
19
#1422
09
#1423
b011 #
1%
19
#1424
09
#1425
b111 #
0%
19
#1426
09
#1427
19
#1428
09
#1429
19
#1430
09
#1431
19
#1432
09
#1433
19
#1434
09
#1435
19
#1436
09
#1437
19
#1438
09
#1439
19
#1440
09
#1441
19
#1442
09
#1443
19
#1444
09
#1445
19
#1446
09
#1447
19
#1448
09
#1449
19
#1450
09
#1451
19
#1452
09
#1453
19
#1454
09
#1455
19
#1456
09
#1457
19
#1458
09
#1459
19
#1460
09
0<
#1461
b110 #
19
#1462
09
#1463
b100 #
1$
19
#1464
09
#1465
b000 #
0$
b001 (
b00100100 4
19
#1466
09
#1467
19
#1468
09
#1469
19
#1470
09
#1471
19
#1472
09
#1473
19
#1474
09
#1475
19
#1476
09
#1477
19
#1478
09
#1479
19
#1480
09
#1481
19
#1482
09
#1483
19
#1484
09
#1485
19
#1486
09
#1487
19
#1488
09
#1489
19
#1490
09
#1491
19
#1492
09
#1493
19
#1494
09
#1495
19
#1496
09
#1497
19
#1498
09
#1499
19
#1500
09
1<
#1501
b001 #
19
#1502
09
#1503
b011 #
1%
19
#1504
09
#1505
b111 #
0%
19
#1506
09
#1507
19
#1508
09
#1509
19
#1510
09
#1511
19
#1512
09
#1513
19
#1514
09
#1515
19
#1516
09
#1517
19
#1518
09
#1519
19
#1520
09
#1521
19
#1522
09
#1523
19
#1524
09
#1525
19
#1526
09
#1527
19
#1528
09
#1529
19
#1530
09
#1531
19
#1532
09
#1533
19
#1534
09
#1535
19
#1536
09
#1537
19
#1538
09
#1539
19
#1540
09
0<
1=
#1541
b110 #
b001 2
19
#1542
09
#1543
b100 #
1$
b011 2
19
#1544
09
#1545
b000 #
0$
b010 (
b111 2
13
b01001000 4
19
#1546
09
#1547
19
#1548
09
#1549
19
#1550
09
#1551
19
#1552
09
#1553
19
#1554
09
#1555
19
#1556
09
#1557
19
#1558
09
#1559
19
#1560
09
#1561
19
#1562
09
#1563
19
#1564
09
#1565
19
#1566
09
#1567
19
#1568
09
#1569
19
#1570
09
#1571
19
#1572
09
#1573
19
#1574
09
#1575
19
#1576
09
#1577
19
#1578
09
#1579
19
#1580
09
1<
#1581
b001 #
19
#1582
09
#1583
b011 #
1%
19
#1584
09
#1585
b111 #
0%
19
#1586
09
#1587
19
#1588
09
#1589
19
#1590
09
#1591
19
#1592
09
#1593
19
#1594
09
#1595
19
#1596
09
#1597
19
#1598
09
#1599
19
#1600
09
#1601
19
#1602
09
#1603
19
#1604
09
#1605
19
#1606
09
#1607
19
#1608
09
#1609
19
#1610
09
#1611
19
#1612
09
#1613
19
#1614
09
#1615
19
#1616
09
#1617
19
#1618
09
#1619
19
#1620
09
0<
#1621
b110 #
19
#1622
09
#1623
b100 #
1$
19
#1624
09
#1625
b000 #
0$
b011 (
b10010001 4
19
#1626
09
#1627
19
#1628
09
#1629
19
#1630
09
#1631
19
#1632
09
#1633
19
#1634
09
#1635
19
#1636
09
#1637
19
#1638
09
#1639
19
#1640
09
#1641
19
#1642
09
#1643
19
#1644
09
#1645
19
#1646
09
#1647
19
#1648
09
#1649
19
#1650
09
#1651
19
#1652
09
#1653
19
#1654
09
#1655
19
#1656
09
#1657
19
#1658
09
#1659
19
#1660
09
1<
#1661
b001 #
19
#1662
09
#1663
b011 #
1%
19
#1664
09
#1665
b111 #
0%
19
#1666
09
#1667
19
#1668
09
#1669
19
#1670
09
#1671
19
#1672
09
#1673
19
#1674
09
#1675
19
#1676
09
#1677
19
#1678
09
#1679
19
#1680
09
#1681
19
#1682
09
#1683
19
#1684
09
#1685
19
#1686
09
#1687
19
#1688
09
#1689
19
#1690
09
#1691
19
#1692
09
#1693
19
#1694
09
#1695
19
#1696
09
#1697
19
#1698
09
#1699
19
#1700
09
0<
0=
#1701
b110 #
b110 2
19
#1702
09
#1703
b100 #
1$
b100 2
19
#1704
09
#1705
b000 #
0$
b100 (
b000 2
03
b00100011 4
19
#1706
09
#1707
19
#1708
09
#1709
19
#1710
09
#1711
19
#1712
09
#1713
19
#1714
09
#1715
19
#1716
09
#1717
19
#1718
09
#1719
19
#1720
09
#1721
19
#1722
09
#1723
19
#1724
09
#1725
19
#1726
09
#1727
19
#1728
09
#1729
19
#1730
09
#1731
19
#1732
09
#1733
19
#1734
09
#1735
19
#1736
09
#1737
19
#1738
09
#1739
19
#1740
09
1<
#1741
b001 #
19
#1742
09
#1743
b011 #
1%
19
#1744
09
#1745
b111 #
0%
19
#1746
09
#1747
19
#1748
09
#1749
19
#1750
09
#1751
19
#1752
09
#1753
19
#1754
09
#1755
19
#1756
09
#1757
19
#1758
09
#1759
19
#1760
09
#1761
19
#1762
09
#1763
19
#1764
09
#1765
19
#1766
09
#1767
19
#1768
09
#1769
19
#1770
09
#1771
19
#1772
09
#1773
19
#1774
09
#1775
19
#1776
09
#1777
19
#1778
09
#1779
19
#1780
09
0<
1=
#1781
b110 #
b001 2
19
#1782
09
#1783
b100 #
1$
b011 2
19
#1784
09
#1785
b000 #
0$
b101 (
b111 2
13
b01000110 4
19
#1786
09
#1787
19
#1788
09
#1789
19
#1790
09
#1791
19
#1792
09
#1793
19
#1794
09
#1795
19
#1796
09
#1797
19
#1798
09
#1799
19
#1800
09
#1801
19
#1802
09
#1803
19
#1804
09
#1805
19
#1806
09
#1807
19
#1808
09
#1809
19
#1810
09
#1811
19
#1812
09
#1813
19
#1814
09
#1815
19
#1816
09
#1817
19
#1818
09
#1819
19
#1820
09
1<
#1821
b001 #
19
#1822
09
#1823
b011 #
1%
19
#1824
09
#1825
b111 #
0%
19
#1826
09
#1827
19
#1828
09
#1829
19
#1830
09
#1831
19
#1832
09
#1833
19
#1834
09
#1835
19
#1836
09
#1837
19
#1838
09
#1839
19
#1840
09
#1841
19
#1842
09
#1843
19
#1844
09
#1845
19
#1846
09
#1847
19
#1848
09
#1849
19
#1850
09
#1851
19
#1852
09
#1853
19
#1854
09
#1855
19
#1856
09
#1857
19
#1858
09
#1859
19
#1860
09
0<
0=
#1861
b110 #
b110 2
19
#1862
09
#1863
b100 #
1$
b100 2
19
#1864
09
#1865
b000 #
0$
b110 (
b000 2
03
b10001101 4
19
#1866
09
#1867
19
#1868
09
#1869
19
#1870
09
#1871
19
#1872
09
#1873
19
#1874
09
#1875
19
#1876
09
#1877
19
#1878
09
#1879
19
#1880
09
#1881
19
#1882
09
#1883
19
#1884
09
#1885
19
#1886
09
#1887
19
#1888
09
#1889
19
#1890
09
#1891
19
#1892
09
#1893
19
#1894
09
#1895
19
#1896
09
#1897
19
#1898
09
#1899
19
#1900
09
1<
#1901
b001 #
19
#1902
09
#1903
b011 #
1%
19
#1904
09
#1905
b111 #
0%
19
#1906
09
#1907
19
#1908
09
#1909
19
#1910
09
#1911
19
#1912
09
#1913
19
#1914
09
#1915
19
#1916
09
#1917
19
#1918
09
#1919
19
#1920
09
#1921
19
#1922
09
#1923
19
#1924
09
#1925
19
#1926
09
#1927
19
#1928
09
#1929
19
#1930
09
#1931
19
#1932
09
#1933
19
#1934
09
#1935
19
#1936
09
#1937
19
#1938
09
#1939
19
#1940
09
0<
#1941
b110 #
19
#1942
09
#1943
b100 #
1$
19
#1944
09
#1945
b000 #
0$
b111 (
b00011010 4
19
#1946
09
#1947
19
#1948
09
#1949
19
#1950
09
#1951
19
#1952
09
#1953
19
#1954
09
#1955
19
#1956
09
#1957
19
#1958
09
#1959
19
#1960
09
#1961
19
#1962
09
#1963
19
#1964
09
#1965
19
#1966
09
#1967
19
#1968
09
#1969
19
#1970
09
#1971
19
#1972
09
#1973
19
#1974
09
#1975
19
#1976
09
#1977
19
#1978
09
#1979
19
#1980
09
1<
#1981
b001 #
19
#1982
09
#1983
b011 #
1%
19
#1984
09
#1985
b111 #
0%
19
#1986
09
#1987
19
#1988
09
#1989
19
#1990
09
#1991
19
#1992
09
#1993
19
#1994
09
#1995
19
#1996
09
#1997
19
#1998
09
#1999
19
#2000
09
#2001
19
#2002
09
#2003
19
#2004
09
#2005
19
#2006
09
#2007
19
#2008
09
#2009
19
#2010
09
#2011
19
#2012
09
#2013
19
#2014
09
#2015
19
#2016
09
#2017
19
#2018
09
#2019
19
#2020
09
0<
1=
#2021
b110 #
b001 2
19
#2022
09
#2023
b100 #
1$
b011 2
15
19
#2024
09
#2025
b000 #
0$
b000 (
b111 2
13
b00110100 4
05
b00110100 6
17
19
#2026
09
#2027
07
b011 8
19
b0001001000110100 E
#2028
09
#2029
19
#2030
09
#2031
19
#2032
09
#2033
19
#2034
09
#2035
19
#2036
09
#2037
19
#2038
09
#2039
19
#2040
09
#2041
19
#2042
09
#2043
19
#2044
09
#2045
19
#2046
09
#2047
19
#2048
09
#2049
19
#2050
09
#2051
19
#2052
09
#2053
19
#2054
09
#2055
19
#2056
09
#2057
19
#2058
09
#2059
19
#2060
09
1<
#2061
b001 #
19
#2062
09
#2063
b011 #
1%
19
#2064
09
#2065
b111 #
0%
19
#2066
09
#2067
19
#2068
09
#2069
19
#2070
09
#2071
19
#2072
09
#2073
19
#2074
09
#2075
19
#2076
09
#2077
19
#2078
09
#2079
19
#2080
09
#2081
19
#2082
09
#2083
19
#2084
09
#2085
19
#2086
09
#2087
19
#2088
09
#2089
19
#2090
09
#2091
19
#2092
09
#2093
19
#2094
09
#2095
19
#2096
09
#2097
19
#2098
09
#2099
19
#2100
09
0<
0=
#2101
b110 #
b110 2
19
#2102
09
#2103
b100 #
1$
b100 2
19
#2104
09
#2105
b000 #
0$
b001 (
b000 2
03
b01101001 4
19
#2106
09
#2107
19
#2108
09
#2109
19
#2110
09
#2111
19
#2112
09
#2113
19
#2114
09
#2115
19
#2116
09
#2117
19
#2118
09
#2119
19
#2120
09
#2121
19
#2122
09
#2123
19
#2124
09
#2125
19
#2126
09
#2127
19
#2128
09
#2129
19
#2130
09
#2131
19
#2132
09
#2133
19
#2134
09
#2135
19
#2136
09
#2137
19
#2138
09
#2139
19
#2140
09
1<
