rtl/math/fixed_point/resize/sim/wave.vcd
$version Generated by VerilatedVcd $end
$timescale 1ps $end
 $scope module TOP $end
  $scope module tb_agr_fxp_resize $end
   $var wire 32 " errors [31:0] $end
   $var wire 32 # checks [31:0] $end
   $var wire 32 L D1_IW [31:0] $end
   $var wire 32 M D1_OW [31:0] $end
   $var wire 1 N D1_MODE $end
   $var wire 1 O D1_ALIGN $end
   $var wire 16 $ d1_in [15:0] $end
   $var wire 8 % d1_out [7:0] $end
   $var wire 1 P d1_ovf $end
   $var wire 1 & d1_pl $end
   $var wire 32 L D2_IW [31:0] $end
   $var wire 32 M D2_OW [31:0] $end
   $var wire 1 O D2_MODE $end
   $var wire 1 O D2_ALIGN $end
   $var wire 16 ' d2_in [15:0] $end
   $var wire 8 ( d2_out [7:0] $end
   $var wire 1 P d2_ovf $end
   $var wire 1 ) d2_pl $end
   $var wire 32 L D3_IW [31:0] $end
   $var wire 32 M D3_OW [31:0] $end
   $var wire 1 N D3_MODE $end
   $var wire 1 N D3_ALIGN $end
   $var wire 16 * d3_in [15:0] $end
   $var wire 8 + d3_out [7:0] $end
   $var wire 1 , d3_ovf $end
   $var wire 1 , d3_pl $end
   $var wire 32 L D4_IW [31:0] $end
   $var wire 32 M D4_OW [31:0] $end
   $var wire 1 O D4_MODE $end
   $var wire 1 N D4_ALIGN $end
   $var wire 16 - d4_in [15:0] $end
   $var wire 8 . d4_out [7:0] $end
   $var wire 1 / d4_ovf $end
   $var wire 1 / d4_pl $end
   $var wire 32 M D5_IW [31:0] $end
   $var wire 32 L D5_OW [31:0] $end
   $var wire 1 N D5_MODE $end
   $var wire 1 O D5_ALIGN $end
   $var wire 8 0 d5_in [7:0] $end
   $var wire 16 1 d5_out [15:0] $end
   $var wire 1 P d5_ovf $end
   $var wire 1 P d5_pl $end
   $var wire 32 Q D6_IW [31:0] $end
   $var wire 32 Q D6_OW [31:0] $end
   $var wire 1 O D6_MODE $end
   $var wire 1 N D6_ALIGN $end
   $var wire 10 2 d6_in [9:0] $end
   $var wire 10 2 d6_out [9:0] $end
   $var wire 1 P d6_ovf $end
   $var wire 1 P d6_pl $end
   $var wire 32 R D7_IW [31:0] $end
   $var wire 32 S D7_OW [31:0] $end
   $var wire 1 O D7_MODE $end
   $var wire 1 N D7_ALIGN $end
   $var wire 4 3 d7_in [3:0] $end
   $var wire 1 4 d7_out [0:0] $end
   $var wire 1 5 d7_ovf $end
   $var wire 1 5 d7_pl $end
   $var wire 32 T D8_IW [31:0] $end
   $var wire 32 U D8_OW [31:0] $end
   $var wire 1 N D8_MODE $end
   $var wire 1 O D8_ALIGN $end
   $var wire 13 6 d8_in [12:0] $end
   $var wire 7 7 d8_out [6:0] $end
   $var wire 1 P d8_ovf $end
   $var wire 1 8 d8_pl $end
   $scope module dut1 $end
    $var wire 32 L IN_W [31:0] $end
    $var wire 32 M OUT_W [31:0] $end
    $var wire 1 N MODE $end
    $var wire 1 O ALIGN $end
    $var wire 16 $ in_val [15:0] $end
    $var wire 8 % out_val [7:0] $end
    $var wire 1 P overflow $end
    $var wire 1 & precision_loss $end
    $var wire 1 9 in_sign $end
    $var wire 8 % candidate [7:0] $end
    $var wire 8 V SAT_MAX [7:0] $end
    $var wire 8 W SAT_MIN [7:0] $end
    $scope module gen_reduce_msb $end
     $var wire 32 M DROP_W [31:0] $end
     $var wire 8 : dropped_lsbs [7:0] $end
    $upscope $end
   $upscope $end
   $scope module dut2 $end
    $var wire 32 L IN_W [31:0] $end
    $var wire 32 M OUT_W [31:0] $end
    $var wire 1 O MODE $end
    $var wire 1 O ALIGN $end
    $var wire 16 ' in_val [15:0] $end
    $var wire 8 ( out_val [7:0] $end
    $var wire 1 P overflow $end
    $var wire 1 ) precision_loss $end
    $var wire 1 ; in_sign $end
    $var wire 8 ( candidate [7:0] $end
    $var wire 8 V SAT_MAX [7:0] $end
    $var wire 8 W SAT_MIN [7:0] $end
    $scope module gen_reduce_msb $end
     $var wire 32 M DROP_W [31:0] $end
     $var wire 8 < dropped_lsbs [7:0] $end
    $upscope $end
   $upscope $end
   $scope module dut3 $end
    $var wire 32 L IN_W [31:0] $end
    $var wire 32 M OUT_W [31:0] $end
    $var wire 1 N MODE $end
    $var wire 1 N ALIGN $end
    $var wire 16 * in_val [15:0] $end
    $var wire 8 + out_val [7:0] $end
    $var wire 1 , overflow $end
    $var wire 1 , precision_loss $end
    $var wire 1 = in_sign $end
    $var wire 8 + candidate [7:0] $end
    $var wire 8 V SAT_MAX [7:0] $end
    $var wire 8 W SAT_MIN [7:0] $end
    $scope module gen_reduce_lsb $end
     $var wire 32 M DROP_W [31:0] $end
     $var wire 8 > dropped_msbs [7:0] $end
     $var wire 1 ? kept_sign $end
    $upscope $end
   $upscope $end
   $scope module dut4 $end
    $var wire 32 L IN_W [31:0] $end
    $var wire 32 M OUT_W [31:0] $end
    $var wire 1 O MODE $end
    $var wire 1 N ALIGN $end
    $var wire 16 - in_val [15:0] $end
    $var wire 8 . out_val [7:0] $end
    $var wire 1 / overflow $end
    $var wire 1 / precision_loss $end
    $var wire 1 @ in_sign $end
    $var wire 8 A candidate [7:0] $end
    $var wire 8 V SAT_MAX [7:0] $end
    $var wire 8 W SAT_MIN [7:0] $end
    $scope module gen_reduce_lsb $end
     $var wire 32 M DROP_W [31:0] $end
     $var wire 8 B dropped_msbs [7:0] $end
     $var wire 1 C kept_sign $end
    $upscope $end
   $upscope $end
   $scope module dut5 $end
    $var wire 32 M IN_W [31:0] $end
    $var wire 32 L OUT_W [31:0] $end
    $var wire 1 N MODE $end
    $var wire 1 O ALIGN $end
    $var wire 8 0 in_val [7:0] $end
    $var wire 16 1 out_val [15:0] $end
    $var wire 1 P overflow $end
    $var wire 1 P precision_loss $end
    $var wire 1 D in_sign $end
    $var wire 16 1 candidate [15:0] $end
    $var wire 16 X SAT_MAX [15:0] $end
    $var wire 16 Y SAT_MIN [15:0] $end
    $scope module gen_expand $end
     $var wire 32 M EXT_W [31:0] $end
    $upscope $end
   $upscope $end
   $scope module dut6 $end
    $var wire 32 Q IN_W [31:0] $end
    $var wire 32 Q OUT_W [31:0] $end
    $var wire 1 O MODE $end
    $var wire 1 N ALIGN $end
    $var wire 10 2 in_val [9:0] $end
    $var wire 10 2 out_val [9:0] $end
    $var wire 1 P overflow $end
    $var wire 1 P precision_loss $end
    $var wire 1 E in_sign $end
    $var wire 10 2 candidate [9:0] $end
    $var wire 10 Z SAT_MAX [9:0] $end
    $var wire 10 [ SAT_MIN [9:0] $end
   $upscope $end
   $scope module dut7 $end
    $var wire 32 R IN_W [31:0] $end
    $var wire 32 S OUT_W [31:0] $end
    $var wire 1 O MODE $end
    $var wire 1 N ALIGN $end
    $var wire 4 3 in_val [3:0] $end
    $var wire 1 4 out_val [0:0] $end
    $var wire 1 5 overflow $end
    $var wire 1 5 precision_loss $end
    $var wire 1 F in_sign $end
    $var wire 1 G candidate [0:0] $end
    $var wire 1 \ SAT_MAX [0:0] $end
    $var wire 1 ] SAT_MIN [0:0] $end
    $scope module gen_reduce_lsb $end
     $var wire 32 ^ DROP_W [31:0] $end
     $var wire 3 H dropped_msbs [2:0] $end
     $var wire 1 I kept_sign $end
    $upscope $end
   $upscope $end
   $scope module dut8 $end
    $var wire 32 T IN_W [31:0] $end
    $var wire 32 U OUT_W [31:0] $end
    $var wire 1 N MODE $end
    $var wire 1 O ALIGN $end
    $var wire 13 6 in_val [12:0] $end
    $var wire 7 7 out_val [6:0] $end
    $var wire 1 P overflow $end
    $var wire 1 8 precision_loss $end
    $var wire 1 J in_sign $end
    $var wire 7 7 candidate [6:0] $end
    $var wire 7 _ SAT_MAX [6:0] $end
    $var wire 7 ` SAT_MIN [6:0] $end
    $scope module gen_reduce_msb $end
     $var wire 32 a DROP_W [31:0] $end
     $var wire 6 K dropped_lsbs [5:0] $end
    $upscope $end
   $upscope $end
  $upscope $end
 $upscope $end
$enddefinitions $end


#0
b00000000000000000000000000000000 "
b00000000000000000000000000000000 #
b0000000000000000 $
b00000000 %
0&
b0000000000000000 '
b00000000 (
0)
b0000000000000000 *
b00000000 +
0,
b0000000000000000 -
b00000000 .
0/
b00000000 0
b0000000000000000 1
b0000000000 2
b0000 3
04
05
b0000000000000 6
b0000000 7
08
09
b00000000 :
0;
b00000000 <
0=
b00000000 >
0?
0@
b00000000 A
b00000000 B
0C
0D
0E
0F
0G
b000 H
0I
0J
b000000 K
b00000000000000000000000000010000 L
b00000000000000000000000000001000 M
0N
1O
0P
b00000000000000000000000000001010 Q
b00000000000000000000000000000100 R
b00000000000000000000000000000001 S
b00000000000000000000000000001101 T
b00000000000000000000000000000111 U
b01111111 V
b10000000 W
b0111111111111111 X
b1000000000000000 Y
b0111111111 Z
b1000000000 [
0\
1]
b00000000000000000000000000000011 ^
b0111111 _
b1000000 `
b00000000000000000000000000000110 a
#1
b00000000000000000000000000000001 #
#2
b00000000000000000000000000000010 #
b0000000010000000 $
1&
b10000000 :
#3
b00000000000000000000000000000011 #
b0000000010000000 '
1)
b10000000 <
#4
b00000000000000000000000000000100 #
b0000000010000001 $
b10000001 :
#5
b00000000000000000000000000000101 #
b0000000010000001 '
b10000001 <
#6
b00000000000000000000000000000110 #
b0111111111111111 $
b01111111 %
b11111111 :
#7
b00000000000000000000000000000111 #
b0111111111111111 '
b01111111 (
b11111111 <
#8
b00000000000000000000000000001000 #
b1000000000000000 $
b10000000 %
0&
19
b00000000 :
#9
b00000000000000000000000000001001 #
b1000000000000000 '
b10000000 (
0)
1;
b00000000 <
#10
b00000000000000000000000000001010 #
b1111111111111111 $
b11111111 %
1&
b11111111 :
#11
b00000000000000000000000000001011 #
b1111111111111111 '
b11111111 (
1)
b11111111 <
#12
b00000000000000000000000000001100 #
b0000000010000001 $
b00000000 %
b0000000010000001 '
b00000000 (
09
b10000001 :
0;
b10000001 <
#13
b00000000000000000000000000001101 #
b1000000000000000 $
b10000000 %
0&
b1000000000000000 '
b10000000 (
0)
19
b00000000 :
1;
b00000000 <
#14
b00000000000000000000000000001110 #
b1111111111111111 $
b11111111 %
1&
b1111111111111111 '
b11111111 (
1)
b11111111 :
b11111111 <
#15
b00000000000000000000000000001111 #
#16
b00000000000000000000000000010000 #
#17
b00000000000000000000000000010001 #
b0000000001111111 *
b01111111 +
#18
b00000000000000000000000000010010 #
b0000000001111111 -
b01111111 .
b01111111 A
#19
b00000000000000000000000000010011 #
b0000000010000000 *
b10000000 +
1,
1?
#20
b00000000000000000000000000010100 #
b0000000010000000 -
1/
b10000000 A
1C
#21
b00000000000000000000000000010101 #
b1111111110000000 *
0,
1=
b11111111 >
#22
b00000000000000000000000000010110 #
b1111111110000000 -
b10000000 .
0/
1@
b11111111 B
#23
b00000000000000000000000000010111 #
b1111111101111111 *
b01111111 +
1,
0?
#24
b00000000000000000000000000011000 #
b1111111101111111 -
1/
b01111111 A
0C
#25
b00000000000000000000000000011001 #
b0111111111111111 *
b11111111 +
0=
b01111111 >
1?
#26
b00000000000000000000000000011010 #
b0111111111111111 -
b01111111 .
0@
b11111111 A
b01111111 B
1C
#27
b00000000000000000000000000011011 #
b1000000000000000 *
b00000000 +
1=
b10000000 >
0?
#28
b00000000000000000000000000011100 #
b1000000000000000 -
b10000000 .
1@
b00000000 A
b10000000 B
0C
#29
b00000000000000000000000000011101 #
b0000000000000001 *
b00000001 +
0,
0=
b00000000 >
#30
b00000000000000000000000000011110 #
b0000000000000001 -
b00000001 .
0/
0@
b00000001 A
b00000000 B
#31
b00000000000000000000000000011111 #
b1111111111111111 *
b11111111 +
1=
b11111111 >
1?
#32
b00000000000000000000000000100000 #
b1111111111111111 -
b11111111 .
1@
b11111111 A
b11111111 B
1C
#33
b00000000000000000000000000100001 #
#34
b00000000000000000000000000100010 #
b01111111 0
b0000000001111111 1
#35
b00000000000000000000000000100011 #
b10000000 0
b1111111110000000 1
1D
#36
b00000000000000000000000000100100 #
b11111111 0
b1111111111111111 1
#37
b00000000000000000000000000100101 #
b00000001 0
b0000000000000001 1
0D
#38
b00000000000000000000000000100110 #
#39
b00000000000000000000000000100111 #
b0111111111 2
#40
b00000000000000000000000000101000 #
b1000000000 2
1E
#41
b00000000000000000000000000101001 #
b1111111111 2
#42
b00000000000000000000000000101010 #
b0000000001 2
0E
#43
b00000000000000000000000000101011 #
#44
b00000000000000000000000000101100 #
b0001 3
15
1G
1I
#45
b00000000000000000000000000101101 #
b1111 3
14
05
1F
b111 H
#46
b00000000000000000000000000101110 #
b1000 3
15
0G
b100 H
0I
#47
b00000000000000000000000000101111 #
b0111 3
04
0F
1G
b011 H
1I
#48
b00000000000000000000000000110000 #
#49
b00000000000000000000000000110001 #
b0111111111111 6
b0111111 7
18
b111111 K
#50
b00000000000000000000000000110010 #
b1000000000000 6
b1000000 7
08
1J
b000000 K
#51
b00000000000000000000000000110011 #
b0000001000000 6
b0000001 7
0J
#52
b00000000000000000000000000110100 #
b0000000111111 6
b0000000 7
18
b111111 K
#53
b00000000000000000000000000110101 #
b1110011100010010 $
b11100111 %
b00010010 :
#54
b00000000000000000000000000110110 #
b1110011100010010 '
b11100111 (
b00010010 <
#55
b00000000000000000000000000110111 #
b1110011100010010 *
b00010010 +
1,
b11100111 >
0?
#56
b00000000000000000000000000111000 #
b1110011100010010 -
b10000000 .
1/
b00010010 A
b11100111 B
0C
#57
b00000000000000000000000000111001 #
b00010010 0
b0000000000010010 1
#58
b00000000000000000000000000111010 #
b1100010010 2
1E
#59
b00000000000000000000000000111011 #
b0010 3
0G
b001 H
0I
#60
b00000000000000000000000000111100 #
b0011100010010 6
b0011100 7
b010010 K
#61
b00000000000000000000000000111101 #
b0000110111010111 $
b00001101 %
09
b11010111 :
#62
b00000000000000000000000000111110 #
b0000110111010111 '
b00001101 (
0;
b11010111 <
#63
b00000000000000000000000000111111 #
b0000110111010111 *
b11010111 +
0=
b00001101 >
1?
#64
b00000000000000000000000001000000 #
b0000110111010111 -
b01111111 .
0@
b11010111 A
b00001101 B
1C
#65
b00000000000000000000000001000001 #
b11010111 0
b1111111111010111 1
1D
#66
b00000000000000000000000001000010 #
b0111010111 2
0E
#67
b00000000000000000000000001000011 #
b0111 3
1G
b011 H
1I
#68
b00000000000000000000000001000100 #
b0110111010111 6
b0110111 7
b010111 K
#69
b00000000000000000000000001000101 #
b1100101111111111 $
b11001011 %
19
b11111111 :
#70
b00000000000000000000000001000110 #
b1100101111111111 '
b11001011 (
1;
b11111111 <
#71
b00000000000000000000000001000111 #
b1100101111111111 *
b11111111 +
1=
b11001011 >
#72
b00000000000000000000000001001000 #
b1100101111111111 -
b10000000 .
1@
b11111111 A
b11001011 B
#73
b00000000000000000000000001001001 #
b11111111 0
b1111111111111111 1
#74
b00000000000000000000000001001010 #
b1111111111 2
1E
#75
b00000000000000000000000001001011 #
b1111 3
14
05
1F
b111 H
#76
b00000000000000000000000001001100 #
b0101111111111 6
b0101111 7
b111111 K
#77
b00000000000000000000000001001101 #
b1001001001110010 $
b10010010 %
b01110010 :
#78
b00000000000000000000000001001110 #
b1001001001110010 '
b10010010 (
b01110010 <
#79
b00000000000000000000000001001111 #
b1001001001110010 *
b01110010 +
b10010010 >
0?
#80
b00000000000000000000000001010000 #
b1001001001110010 -
b01110010 A
b10010010 B
0C
#81
b00000000000000000000000001010001 #
b01110010 0
b0000000001110010 1
0D
#82
b00000000000000000000000001010010 #
b1001110010 2
#83
b00000000000000000000000001010011 #
b0010 3
04
15
0F
0G
b001 H
0I
#84
b00000000000000000000000001010100 #
b1001001110010 6
b1001001 7
1J
b110010 K
#85
b00000000000000000000000001010101 #
b0000010011101110 $
b00000100 %
09
b11101110 :
#86
b00000000000000000000000001010110 #
b0000010011101110 '
b00000100 (
0;
b11101110 <
#87
b00000000000000000000000001010111 #
b0000010011101110 *
b11101110 +
0=
b00000100 >
1?
#88
b00000000000000000000000001011000 #
b0000010011101110 -
b01111111 .
0@
b11101110 A
b00000100 B
1C
#89
b00000000000000000000000001011001 #
b11101110 0
b1111111111101110 1
1D
#90
b00000000000000000000000001011010 #
b0011101110 2
0E
#91
b00000000000000000000000001011011 #
b1110 3
14
1F
b111 H
#92
b00000000000000000000000001011100 #
b0010011101110 6
b0010011 7
0J
b101110 K
#93
b00000000000000000000000001011101 #
b0000100100010001 $
b00001001 %
b00010001 :
#94
b00000000000000000000000001011110 #
b0000100100010001 '
b00001001 (
b00010001 <
#95
b00000000000000000000000001011111 #
b0000100100010001 *
b00010001 +
b00001001 >
0?
#96
b00000000000000000000000001100000 #
b0000100100010001 -
b00010001 A
b00001001 B
0C
#97
b00000000000000000000000001100001 #
b00010001 0
b0000000000010001 1
0D
#98
b00000000000000000000000001100010 #
b0100010001 2
#99
b00000000000000000000000001100011 #
b0001 3
04
0F
1G
b000 H
1I
#100
b00000000000000000000000001100100 #
b0100100010001 6
b0100100 7
b010001 K
#101
b00000000000000000000000001100101 #
b0000010001001011 $
b00000100 %
b01001011 :
#102
b00000000000000000000000001100110 #
b0000010001001011 '
b00000100 (
b01001011 <
#103
b00000000000000000000000001100111 #
b0000010001001011 *
b01001011 +
b00000100 >
#104
b00000000000000000000000001101000 #
b0000010001001011 -
b01001011 A
b00000100 B
#105
b00000000000000000000000001101001 #
b01001011 0
b0000000001001011 1
#106
b00000000000000000000000001101010 #
b0001001011 2
#107
b00000000000000000000000001101011 #
b1011 3
14
1F
b101 H
#108
b00000000000000000000000001101100 #
b0010001001011 6
b0010001 7
b001011 K
#109
b00000000000000000000000001101101 #
b0001110110000111 $
b00011101 %
b10000111 :
#110
b00000000000000000000000001101110 #
b0001110110000111 '
b00011101 (
b10000111 <
#111
b00000000000000000000000001101111 #
b0001110110000111 *
b10000111 +
b00011101 >
1?
#112
b00000000000000000000000001110000 #
b0001110110000111 -
b10000111 A
b00011101 B
1C
#113
b00000000000000000000000001110001 #
b10000111 0
b1111111110000111 1
1D
#114
b00000000000000000000000001110010 #
b0110000111 2
#115
b00000000000000000000000001110011 #
b0111 3
04
0F
b011 H
#116
b00000000000000000000000001110100 #
b1110110000111 6
b1110110 7
1J
b000111 K
#117
b00000000000000000000000001110101 #
b0110100100010101 $
b01101001 %
b00010101 :
#118
b00000000000000000000000001110110 #
b0110100100010101 '
b01101001 (
b00010101 <
#119
b00000000000000000000000001110111 #
b0110100100010101 *
b00010101 +
b01101001 >
0?
#120
b00000000000000000000000001111000 #
b0110100100010101 -
b00010101 A
b01101001 B
0C
#121
b00000000000000000000000001111001 #
b00010101 0
b0000000000010101 1
0D
#122
b00000000000000000000000001111010 #
b0100010101 2
#123
b00000000000000000000000001111011 #
b0101 3
b010 H
#124
b00000000000000000000000001111100 #
b0100100010101 6
b0100100 7
0J
b010101 K
#125
b00000000000000000000000001111101 #
b1001110011011000 $
b10011100 %
19
b11011000 :
#126
b00000000000000000000000001111110 #
b1001110011011000 '
b10011100 (
1;
b11011000 <
#127
b00000000000000000000000001111111 #
b1001110011011000 *
b11011000 +
1=
b10011100 >
1?
#128
b00000000000000000000000010000000 #
b1001110011011000 -
b10000000 .
1@
b11011000 A
b10011100 B
1C
#129
b00000000000000000000000010000001 #
b11011000 0
b1111111111011000 1
1D
#130
b00000000000000000000000010000010 #
b0011011000 2
#131
b00000000000000000000000010000011 #
b1000 3
14
1F
0G
b100 H
0I
#132
b00000000000000000000000010000100 #
b1110011011000 6
b1110011 7
1J
b011000 K
#133
b00000000000000000000000010000101 #
b0010001011111110 $
b00100010 %
09
b11111110 :
#134
b00000000000000000000000010000110 #
b0010001011111110 '
b00100010 (
0;
b11111110 <
#135
b00000000000000000000000010000111 #
b0010001011111110 *
b11111110 +
0=
b00100010 >
#136
b00000000000000000000000010001000 #
b0010001011111110 -
b01111111 .
0@
b11111110 A
b00100010 B
#137
b00000000000000000000000010001001 #
b11111110 0
b1111111111111110 1
#138
b00000000000000000000000010001010 #
b1011111110 2
1E
#139
b00000000000000000000000010001011 #
b1110 3
b111 H
#140
b00000000000000000000000010001100 #
b0001011111110 6
b0001011 7
0J
b111110 K
#141
b00000000000000000000000010001101 #
b0010100001001001 $
b00101000 %
b01001001 :
#142
b00000000000000000000000010001110 #
b0010100001001001 '
b00101000 (
b01001001 <
#143
b00000000000000000000000010001111 #
b0010100001001001 *
b01001001 +
b00101000 >
0?
#144
b00000000000000000000000010010000 #
b0010100001001001 -
b01001001 A
b00101000 B
0C
#145
b00000000000000000000000010010001 #
b01001001 0
b0000000001001001 1
0D
#146
b00000000000000000000000010010010 #
b0001001001 2
0E
#147
b00000000000000000000000010010011 #
b1001 3
1G
b100 H
1I
#148
b00000000000000000000000010010100 #
b0100001001001 6
b0100001 7
b001001 K
#149
b00000000000000000000000010010101 #
b0011110110000101 $
b00111101 %
b10000101 :
#150
b00000000000000000000000010010110 #
b0011110110000101 '
b00111101 (
b10000101 <
#151
b00000000000000000000000010010111 #
b0011110110000101 *
b10000101 +
b00111101 >
1?
#152
b00000000000000000000000010011000 #
b0011110110000101 -
b10000101 A
b00111101 B
1C
#153
b00000000000000000000000010011001 #
b10000101 0
b1111111110000101 1
1D
#154
b00000000000000000000000010011010 #
b0110000101 2
#155
b00000000000000000000000010011011 #
b0101 3
04
0F
b010 H
#156
b00000000000000000000000010011100 #
b1110110000101 6
b1110110 7
1J
b000101 K
#157
b00000000000000000000000010011101 #
b0111111101110000 $
b01111111 %
b01110000 :
#158
b00000000000000000000000010011110 #
b0111111101110000 '
b01111111 (
b01110000 <
#159
b00000000000000000000000010011111 #
b0111111101110000 *
b01110000 +
b01111111 >
0?
#160
b00000000000000000000000010100000 #
b0111111101110000 -
b01110000 A
b01111111 B
0C
#161
b00000000000000000000000010100001 #
b01110000 0
b0000000001110000 1
0D
#162
b00000000000000000000000010100010 #
b1101110000 2
1E
#163
b00000000000000000000000010100011 #
b0000 3
05
0G
b000 H
0I
#164
b00000000000000000000000010100100 #
b1111101110000 6
b1111101 7
b110000 K
#165
b00000000000000000000000010100101 #
b1100011110011011 $
b11000111 %
19
b10011011 :
#166
b00000000000000000000000010100110 #
b1100011110011011 '
b11000111 (
1;
b10011011 <
#167
b00000000000000000000000010100111 #
b1100011110011011 *
b10011011 +
1=
b11000111 >
1?
#168
b00000000000000000000000010101000 #
b1100011110011011 -
b10000000 .
1@
b10011011 A
b11000111 B
1C
#169
b00000000000000000000000010101001 #
b10011011 0
b1111111110011011 1
1D
#170
b00000000000000000000000010101010 #
b1110011011 2
#171
b00000000000000000000000010101011 #
b1011 3
14
15
1F
1G
b101 H
1I
#172
b00000000000000000000000010101100 #
b0011110011011 6
b0011110 7
0J
b011011 K
#173
b00000000000000000000000010101101 #
b1100100101001010 $
b11001001 %
b01001010 :
#174
b00000000000000000000000010101110 #
b1100100101001010 '
b11001001 (
b01001010 <
#175
b00000000000000000000000010101111 #
b1100100101001010 *
b01001010 +
b11001001 >
0?
#176
b00000000000000000000000010110000 #
b1100100101001010 -
b01001010 A
b11001001 B
0C
#177
b00000000000000000000000010110001 #
b01001010 0
b0000000001001010 1
0D
#178
b00000000000000000000000010110010 #
b0101001010 2
0E
#179
b00000000000000000000000010110011 #
b1010 3
0G
0I
#180
b00000000000000000000000010110100 #
b0100101001010 6
b0100101 7
b001010 K
#181
b00000000000000000000000010110101 #
b0101000111110100 $
b01010001 %
09
b11110100 :
#182
b00000000000000000000000010110110 #
b0101000111110100 '
b01010001 (
0;
b11110100 <
#183
b00000000000000000000000010110111 #
b0101000111110100 *
b11110100 +
0=
b01010001 >
1?
#184
b00000000000000000000000010111000 #
b0101000111110100 -
b01111111 .
0@
b11110100 A
b01010001 B
1C
#185
b00000000000000000000000010111001 #
b11110100 0
b1111111111110100 1
1D
#186
b00000000000000000000000010111010 #
b0111110100 2
#187
b00000000000000000000000010111011 #
b0100 3
04
0F
b010 H
#188
b00000000000000000000000010111100 #
b1000111110100 6
b1000111 7
1J
b110100 K
#189
b00000000000000000000000010111101 #
b1101000000001111 $
b11010000 %
19
b00001111 :
#190
b00000000000000000000000010111110 #
b1101000000001111 '
b11010000 (
1;
b00001111 <
#191
b00000000000000000000000010111111 #
b1101000000001111 *
b00001111 +
1=
b11010000 >
0?
#192
b00000000000000000000000011000000 #
b1101000000001111 -
b10000000 .
1@
b00001111 A
b11010000 B
0C
#193
b00000000000000000000000011000001 #
b00001111 0
b0000000000001111 1
0D
#194
b00000000000000000000000011000010 #
b0000001111 2
#195
b00000000000000000000000011000011 #
b1111 3
14
05
1F
1G
b111 H
1I
#196
b00000000000000000000000011000100 #
b1000000001111 6
b1000000 7
b001111 K
#197
b00000000000000000000000011000101 #
b0101100010011101 $
b01011000 %
09
b10011101 :
#198
b00000000000000000000000011000110 #
b0101100010011101 '
b01011000 (
0;
b10011101 <
#199
b00000000000000000000000011000111 #
b0101100010011101 *
b10011101 +
0=
b01011000 >
1?
#200
b00000000000000000000000011001000 #
b0101100010011101 -
b01111111 .
0@
b10011101 A
b01011000 B
1C
#201
b00000000000000000000000011001001 #
b10011101 0
b1111111110011101 1
1D
#202
b00000000000000000000000011001010 #
b0010011101 2
#203
b00000000000000000000000011001011 #
b1101 3
15
b110 H
#204
b00000000000000000000000011001100 #
b1100010011101 6
b1100010 7
b011101 K
#205
b00000000000000000000000011001101 #
b1010110000111011 $
b10101100 %
19
b00111011 :
#206
b00000000000000000000000011001110 #
b1010110000111011 '
b10101100 (
1;
b00111011 <
#207
b00000000000000000000000011001111 #
b1010110000111011 *
b00111011 +
1=
b10101100 >
0?
#208
b00000000000000000000000011010000 #
b1010110000111011 -
b10000000 .
1@
b00111011 A
b10101100 B
0C
#209
b00000000000000000000000011010001 #
b00111011 0
b0000000000111011 1
0D
#210
b00000000000000000000000011010010 #
b0000111011 2
#211
b00000000000000000000000011010011 #
b1011 3
b101 H
#212
b00000000000000000000000011010100 #
b0110000111011 6
b0110000 7
0J
b111011 K
#213
b00000000000000000000000011010101 #
b0010111011111001 $
b00101110 %
09
b11111001 :
#214
b00000000000000000000000011010110 #
b0010111011111001 '
b00101110 (
0;
b11111001 <
#215
b00000000000000000000000011010111 #
b0010111011111001 *
b11111001 +
0=
b00101110 >
1?
#216
b00000000000000000000000011011000 #
b0010111011111001 -
b01111111 .
0@
b11111001 A
b00101110 B
1C
#217
b00000000000000000000000011011001 #
b11111001 0
b1111111111111001 1
1D
#218
b00000000000000000000000011011010 #
b1011111001 2
1E
#219
b00000000000000000000000011011011 #
b1001 3
b100 H
#220
b00000000000000000000000011011100 #
b0111011111001 6
b0111011 7
b111001 K
#221
b00000000000000000000000011011101 #
b0101000011101111 $
b01010000 %
b11101111 :
#222
b00000000000000000000000011011110 #
b0101000011101111 '
b01010000 (
b11101111 <
#223
b00000000000000000000000011011111 #
b0101000011101111 *
b11101111 +
b01010000 >
#224
b00000000000000000000000011100000 #
b0101000011101111 -
b11101111 A
b01010000 B
#225
b00000000000000000000000011100001 #
b11101111 0
b1111111111101111 1
#226
b00000000000000000000000011100010 #
b0011101111 2
0E
#227
b00000000000000000000000011100011 #
b1111 3
05
b111 H
#228
b00000000000000000000000011100100 #
b1000011101111 6
b1000011 7
1J
b101111 K
#229
b00000000000000000000000011100101 #
b1010110001001011 $
b10101100 %
19
b01001011 :
#230
b00000000000000000000000011100110 #
b1010110001001011 '
b10101100 (
1;
b01001011 <
#231
b00000000000000000000000011100111 #
b1010110001001011 *
b01001011 +
1=
b10101100 >
0?
#232
b00000000000000000000000011101000 #
b1010110001001011 -
b10000000 .
1@
b01001011 A
b10101100 B
0C
#233
b00000000000000000000000011101001 #
b01001011 0
b0000000001001011 1
0D
#234
b00000000000000000000000011101010 #
b0001001011 2
#235
b00000000000000000000000011101011 #
b1011 3
15
b101 H
#236
b00000000000000000000000011101100 #
b0110001001011 6
b0110001 7
0J
b001011 K
#237
b00000000000000000000000011101101 #
b1110111010101001 $
b11101110 %
b10101001 :
#238
b00000000000000000000000011101110 #
b1110111010101001 '
b11101110 (
b10101001 <
#239
b00000000000000000000000011101111 #
b1110111010101001 *
b10101001 +
b11101110 >
1?
#240
b00000000000000000000000011110000 #
b1110111010101001 -
b10101001 A
b11101110 B
1C
#241
b00000000000000000000000011110001 #
b10101001 0
b1111111110101001 1
1D
#242
b00000000000000000000000011110010 #
b1010101001 2
1E
#243
b00000000000000000000000011110011 #
b1001 3
b100 H
#244
b00000000000000000000000011110100 #
b0111010101001 6
b0111010 7
b101001 K
#245
b00000000000000000000000011110101 #
b1001000011100100 $
b10010000 %
b11100100 :
#246
b00000000000000000000000011110110 #
b1001000011100100 '
b10010000 (
b11100100 <
#247
b00000000000000000000000011110111 #
b1001000011100100 *
b11100100 +
b10010000 >
#248
b00000000000000000000000011111000 #
b1001000011100100 -
b11100100 A
b10010000 B
#249
b00000000000000000000000011111001 #
b11100100 0
b1111111111100100 1
#250
b00000000000000000000000011111010 #
b0011100100 2
0E
#251
b00000000000000000000000011111011 #
b0100 3
04
0F
0G
b010 H
0I
#252
b00000000000000000000000011111100 #
b1000011100100 6
b1000011 7
1J
b100100 K
#253
b00000000000000000000000011111101 #
b0010010111011011 $
b00100101 %
09
b11011011 :
#254
b00000000000000000000000011111110 #
b0010010111011011 '
b00100101 (
0;
b11011011 <
#255
b00000000000000000000000011111111 #
b0010010111011011 *
b11011011 +
0=
b00100101 >
#256
b00000000000000000000000100000000 #
b0010010111011011 -
b01111111 .
0@
b11011011 A
b00100101 B
#257
b00000000000000000000000100000001 #
b11011011 0
b1111111111011011 1
#258
b00000000000000000000000100000010 #
b0111011011 2
#259
b00000000000000000000000100000011 #
b1011 3
14
1F
1G
b101 H
1I
#260
b00000000000000000000000100000100 #
b0010111011011 6
b0010111 7
0J
b011011 K
#261
b00000000000000000000000100000101 #
b0010000000001100 $
b00100000 %
b00001100 :
