rtl/dsp/fft/fft_butterfly/sim/wave.vcd
$version Generated by VerilatedVcd $end
$timescale 1ps $end
 $scope module TOP $end
  $scope module tb_agr_fft_butterfly $end
   $var wire 32 G IN_W [31:0] $end
   $var wire 32 G TW_W [31:0] $end
   $var wire 32 H OUT_W [31:0] $end
   $var wire 8 " ar [7:0] $end
   $var wire 8 # ai [7:0] $end
   $var wire 8 $ br [7:0] $end
   $var wire 8 % bi [7:0] $end
   $var wire 8 & wr [7:0] $end
   $var wire 8 ' wi [7:0] $end
   $var wire 32 3 x0r [31:0] $end
   $var wire 32 4 x0i [31:0] $end
   $var wire 32 5 x1r [31:0] $end
   $var wire 32 6 x1i [31:0] $end
   $var wire 1 I ovf $end
   $var wire 32 ( errors [31:0] $end
   $var wire 32 ) checks [31:0] $end
   $var wire 32 * i [31:0] $end
   $var wire 64 + sr [63:0] $end
   $var wire 64 - si [63:0] $end
   $var wire 64 / dr [63:0] $end
   $var wire 64 1 di [63:0] $end
   $scope module dut $end
    $var wire 32 G IN_W [31:0] $end
    $var wire 32 G TW_W [31:0] $end
    $var wire 32 H OUT_W [31:0] $end
    $var wire 8 " a_real [7:0] $end
    $var wire 8 # a_imag [7:0] $end
    $var wire 8 $ b_real [7:0] $end
    $var wire 8 % b_imag [7:0] $end
    $var wire 8 & w_real [7:0] $end
    $var wire 8 ' w_imag [7:0] $end
    $var wire 32 3 x0_real [31:0] $end
    $var wire 32 4 x0_imag [31:0] $end
    $var wire 32 5 x1_real [31:0] $end
    $var wire 32 6 x1_imag [31:0] $end
    $var wire 1 I overflow $end
    $var wire 32 J SUM_W [31:0] $end
    $var wire 32 K PROD_W [31:0] $end
    $var wire 32 L FULL_W [31:0] $end
    $var wire 9 7 sum_real [8:0] $end
    $var wire 9 8 sum_imag [8:0] $end
    $var wire 9 9 diff_real [8:0] $end
    $var wire 9 : diff_imag [8:0] $end
    $var wire 1 I unused1 $end
    $var wire 1 I unused2 $end
    $var wire 17 ; ac [16:0] $end
    $var wire 17 < bd [16:0] $end
    $var wire 17 = ad [16:0] $end
    $var wire 17 > bc [16:0] $end
    $var wire 18 ? real_full [17:0] $end
    $var wire 18 @ imag_full [17:0] $end
    $var wire 32 5 mult_real [31:0] $end
    $var wire 32 6 mult_imag [31:0] $end
    $var wire 1 M x0_ovf_r $end
    $var wire 1 M x0_ovf_i $end
    $var wire 1 M pl1 $end
    $var wire 1 M pl2 $end
    $var wire 1 I mult_ovf $end
    $scope module gen_expand $end
     $var wire 32 N PAD [31:0] $end
    $upscope $end
    $scope module u_add $end
     $var wire 32 G IN_W [31:0] $end
     $var wire 32 J OUT_W [31:0] $end
     $var wire 1 O USE_SATURATE $end
     $var wire 8 " a_real [7:0] $end
     $var wire 8 # a_imag [7:0] $end
     $var wire 8 $ b_real [7:0] $end
     $var wire 8 % b_imag [7:0] $end
     $var wire 1 I sub $end
     $var wire 9 7 out_real [8:0] $end
     $var wire 9 8 out_imag [8:0] $end
     $var wire 1 I overflow $end
     $var wire 32 J EXT_W [31:0] $end
     $var wire 1 O NEEDS_REDUCE $end
     $var wire 9 A ar_ext [8:0] $end
     $var wire 9 B ai_ext [8:0] $end
     $var wire 9 C br_ext [8:0] $end
     $var wire 9 D bi_ext [8:0] $end
     $var wire 9 7 real_full [8:0] $end
     $var wire 9 8 imag_full [8:0] $end
     $var wire 9 7 real_resized [8:0] $end
     $var wire 9 8 imag_resized [8:0] $end
     $var wire 9 P OUT_MAX [8:0] $end
     $var wire 9 Q OUT_MIN [8:0] $end
     $var wire 1 I overflow_real $end
     $var wire 1 I overflow_imag $end
     $scope module gen_expand $end
      $var wire 32 R PAD_W [31:0] $end
     $upscope $end
    $upscope $end
    $scope module u_res_i $end
     $var wire 32 J IN_W [31:0] $end
     $var wire 32 H OUT_W [31:0] $end
     $var wire 1 O MODE $end
     $var wire 1 S ALIGN $end
     $var wire 9 8 in_val [8:0] $end
     $var wire 32 4 out_val [31:0] $end
     $var wire 1 M overflow $end
     $var wire 1 M precision_loss $end
     $var wire 1 E in_sign $end
     $var wire 32 4 candidate [31:0] $end
     $var wire 32 T SAT_MAX [31:0] $end
     $var wire 32 U SAT_MIN [31:0] $end
     $scope module gen_expand $end
      $var wire 32 V EXT_W [31:0] $end
     $upscope $end
    $upscope $end
    $scope module u_res_r $end
     $var wire 32 J IN_W [31:0] $end
     $var wire 32 H OUT_W [31:0] $end
     $var wire 1 O MODE $end
     $var wire 1 S ALIGN $end
     $var wire 9 7 in_val [8:0] $end
     $var wire 32 3 out_val [31:0] $end
     $var wire 1 M overflow $end
     $var wire 1 M precision_loss $end
     $var wire 1 F in_sign $end
     $var wire 32 3 candidate [31:0] $end
     $var wire 32 T SAT_MAX [31:0] $end
     $var wire 32 U SAT_MIN [31:0] $end
     $scope module gen_expand $end
      $var wire 32 V EXT_W [31:0] $end
     $upscope $end
    $upscope $end
    $scope module u_sub $end
     $var wire 32 G IN_W [31:0] $end
     $var wire 32 J OUT_W [31:0] $end
     $var wire 1 O USE_SATURATE $end
     $var wire 8 " a_real [7:0] $end
     $var wire 8 # a_imag [7:0] $end
     $var wire 8 $ b_real [7:0] $end
     $var wire 8 % b_imag [7:0] $end
     $var wire 1 W sub $end
     $var wire 9 9 out_real [8:0] $end
     $var wire 9 : out_imag [8:0] $end
     $var wire 1 I overflow $end
     $var wire 32 J EXT_W [31:0] $end
     $var wire 1 O NEEDS_REDUCE $end
     $var wire 9 A ar_ext [8:0] $end
     $var wire 9 B ai_ext [8:0] $end
     $var wire 9 C br_ext [8:0] $end
     $var wire 9 D bi_ext [8:0] $end
     $var wire 9 9 real_full [8:0] $end
     $var wire 9 : imag_full [8:0] $end
     $var wire 9 9 real_resized [8:0] $end
     $var wire 9 : imag_resized [8:0] $end
     $var wire 9 P OUT_MAX [8:0] $end
     $var wire 9 Q OUT_MIN [8:0] $end
     $var wire 1 I overflow_real $end
     $var wire 1 I overflow_imag $end
     $scope module gen_expand $end
      $var wire 32 R PAD_W [31:0] $end
     $upscope $end
    $upscope $end
   $upscope $end
  $upscope $end
 $upscope $end
$enddefinitions $end


#0
b00000001 "
b00000000 #
b00000001 $
b00000000 %
b00000001 &
b00000000 '
b00000000000000000000000000000000 (
b00000000000000000000000000000000 )
b00000000000000000000000000000000 *
b0000000000000000000000000000000000000000000000000000000000000000 +
b0000000000000000000000000000000000000000000000000000000000000000 -
b0000000000000000000000000000000000000000000000000000000000000000 /
b0000000000000000000000000000000000000000000000000000000000000000 1
b00000000000000000000000000000010 3
b00000000000000000000000000000000 4
b00000000000000000000000000000000 5
b00000000000000000000000000000000 6
b000000010 7
b000000000 8
b000000000 9
b000000000 :
b00000000000000000 ;
b00000000000000000 <
b00000000000000000 =
b00000000000000000 >
b000000000000000000 ?
b000000000000000000 @
b000000001 A
b000000000 B
b000000001 C
b000000000 D
0E
0F
b00000000000000000000000000001000 G
b00000000000000000000000000100000 H
0I
b00000000000000000000000000001001 J
b00000000000000000000000000010001 K
b00000000000000000000000000010010 L
0M
b00000000000000000000000000001110 N
0O
b011111111 P
b100000000 Q
b00000000000000000000000000000000 R
1S
b01111111111111111111111111111111 T
b10000000000000000000000000000000 U
b00000000000000000000000000010111 V
1W
#1000
b00000010 "
b00000011 #
b00000100 $
b00000101 %
b00000000000000000000000000000100 )
b00000000000000000000000000000110 3
b00000000000000000000000000001000 4
b11111111111111111111111111111110 5
b11111111111111111111111111111110 6
b000000110 7
b000001000 8
b111111110 9
b111111110 :
b11111111111111110 ;
b11111111111111110 >
b111111111111111110 ?
b111111111111111110 @
b000000010 A
b000000011 B
b000000100 C
b000000101 D
#2000
b00000001 "
b00000000 #
b00000000 $
b00000000 %
b00000000 &
b00000001 '
b00000000000000000000000000001000 )
b00000000000000000000000000000001 3
b00000000000000000000000000000000 4
b00000000000000000000000000000000 5
b00000000000000000000000000000001 6
b000000001 7
b000000000 8
b000000001 9
b000000000 :
b00000000000000000 ;
b00000000000000001 =
b00000000000000000 >
b000000000000000000 ?
b000000000000000001 @
b000000001 A
b000000000 B
b000000000 C
b000000000 D
#3000
b00000101 "
b00000011 #
b00000101 $
b00000011 %
b00000001 &
b00000000 '
b00000000000000000000000000001100 )
b00000000000000000000000000001010 3
b00000000000000000000000000000110 4
b00000000000000000000000000000000 6
b000001010 7
b000000110 8
b000000000 9
b00000000000000000 =
b000000000000000000 @
b000000101 A
b000000011 B
b000000101 C
b000000011 D
#4000
b10010010 "
b01010111 #
b01111111 $
b11110010 %
b01101110 &
b10010001 '
b00000000000000000000000000010000 )
b0000000000000000000000000000000000000000000000000000000000010001 +
b0000000000000000000000000000000000000000000000000000000001001001 -
b1111111111111111111111111111111111111111111111111111111100010011 /
b0000000000000000000000000000000000000000000000000000000001100101 1
b00000000000000000000000000010001 3
b00000000000000000000000001001001 4
b11111111111111111100010111110101 5
b00000000000000001001001000101001 6
b000010001 7
b001001001 8
b100010011 9
b001100101 :
b11001101000101010 ;
b11101010000110101 <
b00110011011000011 =
b00010101101100110 >
b111100010111110101 ?
b001001001000101001 @
b110010010 A
b001010111 B
b001111111 C
b111110010 D
#5000
b11001011 "
b00000111 #
b10010101 $
b01011000 %
b01111110 &
b11001001 '
b00000000000000000000000000010100 )
b00000000000000000000000000000001 *
b1111111111111111111111111111111111111111111111111111111101100000 +
b0000000000000000000000000000000000000000000000000000000001011111 -
b0000000000000000000000000000000000000000000000000000000000110110 /
b1111111111111111111111111111111111111111111111111111111110101111 1
b11111111111111111111111101100000 3
b00000000000000000000000001011111 4
b00000000000000000000100100101101 5
b11111111111111111100110010001000 6
b101100000 7
b001011111 8
b000110110 9
b110101111 :
b00001101010010100 ;
b00001000101100111 <
b11111010001100110 =
b11101100000100010 >
b000000100100101101 ?
b111100110010001000 @
b111001011 A
b000000111 B
b110010101 C
b001011000 D
1F
#6000
b00000101 "
b11110000 #
b00011011 $
b11001010 %
b01110100 &
b10001111 '
b00000000000000000000000000011000 )
b00000000000000000000000000000010 *
b0000000000000000000000000000000000000000000000000000000000100000 +
b1111111111111111111111111111111111111111111111111111111110111010 -
b1111111111111111111111111111111111111111111111111111111111101010 /
b0000000000000000000000000000000000000000000000000000000000100110 1
b00000000000000000000000000100000 3
b11111111111111111111111110111010 4
b00000000000000000000011011001110 5
b00000000000000000001101011101110 6
b000100000 7
b110111010 8
b111101010 9
b000100110 :
b11111011000001000 ;
b11110111100111010 <
b00000100110110110 =
b00001000100111000 >
b000000011011001110 ?
b000001101011101110 @
b000000101 A
b111110000 B
b000011011 C
b111001010 D
1E
0F
#7000
b00011101 "
b10111011 #
b01111001 $
b01101111 %
b11001011 &
b00101001 '
b00000000000000000000000000011100 )
b00000000000000000000000000000011 *
b0000000000000000000000000000000000000000000000000000000010010110 +
b0000000000000000000000000000000000000000000000000000000000101010 -
b1111111111111111111111111111111111111111111111111111111110100100 /
b1111111111111111111111111111111111111111111111111111111101001100 1
b00000000000000000000000010010110 3
b00000000000000000000000000101010 4
b00000000000000000010111111100000 5
b00000000000000000001011010001000 6
b010010110 7
b000101010 8
b110100100 9
b101001100 :
b00001001100001100 ;
b11110001100101100 <
b11111000101000100 =
b00010010101000100 >
b000010111111100000 ?
b000001011010001000 @
b000011101 A
b110111011 B
b001111001 C
b001101111 D
0E
#8000
b01100100 "
b01011011 #
b10001100 $
b11101011 %
b00000011 &
b00001001 '
b00000000000000000000000000100000 )
b00000000000000000000000000000100 *
b1111111111111111111111111111111111111111111111111111111111110000 +
b0000000000000000000000000000000000000000000000000000000001000110 -
b0000000000000000000000000000000000000000000000000000000011011000 /
b0000000000000000000000000000000000000000000000000000000001110000 1
b11111111111111111111111111110000 3
b00000000000000000000000001000110 4
b11111111111111111111111010011000 5
b00000000000000000000100011101000 6
b111110000 7
b001000110 8
b011011000 9
b001110000 :
b00000001010001000 ;
b00000001111110000 <
b00000011110011000 =
b00000000101010000 >
b111111111010011000 ?
b000000100011101000 @
b001100100 A
b001011011 B
b110001100 C
b111101011 D
1F
#9000
b00100011 "
b10111011 #
b11100011 $
b10010001 %
b01011101 &
b00011011 '
b00000000000000000000000000100100 )
b00000000000000000000000000000101 *
b0000000000000000000000000000000000000000000000000000000000000110 +
b1111111111111111111111111111111111111111111111111111111101001100 -
b0000000000000000000000000000000000000000000000000000000001000000 /
b0000000000000000000000000000000000000000000000000000000000101010 1
b00000000000000000000000000000110 3
b11111111111111111111111101001100 4
b00000000000000000001001011010010 5
b00000000000000000001011000000010 6
b000000110 7
b101001100 8
b001000000 9
b000101010 :
b00001011101000000 ;
b00000010001101110 <
b00000011011000000 =
b00000111101000010 >
b000001001011010010 ?
b000001011000000010 @
b000100011 A
b110111011 B
b111100011 C
b110010001 D
1E
0F
#10000
b00011110 "
b00010010 #
b01000010 $
b11000101 %
b00101010 &
b10110100 '
b00000000000000000000000000101000 )
b00000000000000000000000000000110 *
b0000000000000000000000000000000000000000000000000000000001100000 +
b1111111111111111111111111111111111111111111111111111111111010111 -
b1111111111111111111111111111111111111111111111111111111111011100 /
b0000000000000000000000000000000000000000000000000000000001001101 1
b00000000000000000000000001100000 3
b11111111111111111111111111010111 4
b00000000000000000001000011110100 5
b00000000000000000001011101010010 6
b001100000 7
b111010111 8
b111011100 9
b001001101 :
b11111101000011000 ;
b11110100100100100 <
b00000101010110000 =
b00000110010100010 >
b000001000011110100 ?
b000001011101010010 @
b000011110 A
b000010010 B
b001000010 C
b111000101 D
#11000
b10010100 "
b00011110 #
b01001100 $
b00110010 %
b01110101 &
b11101100 '
b00000000000000000000000000101100 )
b00000000000000000000000000000111 *
b1111111111111111111111111111111111111111111111111111111111100000 +
b0000000000000000000000000000000000000000000000000000000001010000 -
b1111111111111111111111111111111111111111111111111111111101001000 /
b1111111111111111111111111111111111111111111111111111111111101100 1
b11111111111111111111111111100000 3
b00000000000000000000000001010000 4
b11111111111111111010101001011000 5
b00000000000000000000010100111100 6
b111100000 7
b001010000 8
b101001000 9
b111101100 :
b11010101111101000 ;
b00000000110010000 <
b00000111001100000 =
b11111011011011100 >
b111010101001011000 ?
b000000010100111100 @
b110010100 A
b000011110 B
b001001100 C
b000110010 D
0E
1F
#12000
b00011010 "
b01001111 #
b10100100 $
b11101000 %
b10011110 &
b00010101 '
b00000000000000000000000000110000 )
b00000000000000000000000000001000 *
b1111111111111111111111111111111111111111111111111111111110111110 +
b0000000000000000000000000000000000000000000000000000000000110111 -
b0000000000000000000000000000000000000000000000000000000001110110 /
b0000000000000000000000000000000000000000000000000000000001100111 1
b11111111111111111111111110111110 3
b00000000000000000000000000110111 4
b11111111111111111100101001100001 5
b11111111111111111110001001000000 6
b110111110 7
b000110111 8
b001110110 9
b001100111 :
b11101001011010100 ;
b00000100001110011 <
b00000100110101110 =
b11101100010010010 >
b111100101001100001 ?
b111110001001000000 @
b000011010 A
b001001111 B
b110100100 C
b111101000 D
#13000
b11010101 "
b11100101 #
b00000000 $
b00110001 %
b11010111 &
b00001010 '
b00000000000000000000000000110100 )
b00000000000000000000000000001001 *
b1111111111111111111111111111111111111111111111111111111111010101 +
b0000000000000000000000000000000000000000000000000000000000010110 -
b1111111111111111111111111111111111111111111111111111111111010101 /
b1111111111111111111111111111111111111111111111111111111110110100 1
b11111111111111111111111111010101 3
b00000000000000000000000000010110 4
b00000000000000000000100111011011 5
b00000000000000000000101001111110 6
b111010101 7
b000010110 8
b111010101 9
b110110100 :
b00000011011100011 ;
b11111110100001000 <
b11111111001010010 =
b00000110000101100 >
b000000100111011011 ?
b000000101001111110 @
b111010101 A
b111100101 B
b000000000 C
b000110001 D
#14000
b00000101 "
b11001000 #
b10000011 $
b00000011 %
b01010000 &
b01010000 '
b00000000000000000000000000111000 )
b00000000000000000000000000001010 *
b1111111111111111111111111111111111111111111111111111111110001000 +
b1111111111111111111111111111111111111111111111111111111111001011 -
b0000000000000000000000000000000000000000000000000000000010000010 /
b1111111111111111111111111111111111111111111111111111111111000101 1
b11111111111111111111111110001000 3
b11111111111111111111111111001011 4
b00000000000000000011101100010000 5
b00000000000000000001011000110000 6
b110001000 7
b111001011 8
b010000010 9
b111000101 :
b00010100010100000 ;
b11110110110010000 <
b00010100010100000 =
b11110110110010000 >
b000011101100010000 ?
b000001011000110000 @
b000000101 A
b111001000 B
b110000011 C
b000000011 D
1E
#15000
b00110000 "
b00101010 #
b01011100 $
b01010100 %
b01001111 &
b11001010 '
b00000000000000000000000000111100 )
b00000000000000000000000000001011 *
b0000000000000000000000000000000000000000000000000000000010001100 +
b0000000000000000000000000000000000000000000000000000000001111110 -
b1111111111111111111111111111111111111111111111111111111111010100 /
b1111111111111111111111111111111111111111111111111111111111010110 1
b00000000000000000000000010001100 3
b00000000000000000000000001111110 4
b11111111111111111110100110010000 5
b11111111111111111111110001010010 6
b010001100 7
b001111110 8
b111010100 9
b111010110 :
b11111001001101100 ;
b00000100011011100 <
b00000100101001000 =
b11111001100001010 >
b111110100110010000 ?
b111111110001010010 @
b000110000 A
b000101010 B
b001011100 C
b001010100 D
0E
0F
#16000
b00101011 "
b01000010 #
b01001100 $
b00110010 %
b11110110 &
b01101100 '
b00000000000000000000000001000000 )
b00000000000000000000000000001100 *
b0000000000000000000000000000000000000000000000000000000001110111 +
b0000000000000000000000000000000000000000000000000000000001110100 -
b1111111111111111111111111111111111111111111111111111111111011111 /
b0000000000000000000000000000000000000000000000000000000000010000 1
b00000000000000000000000001110111 3
b00000000000000000000000001110100 4
b11111111111111111111101010001010 5
b11111111111111111111000101110100 6
b001110111 7
b001110100 8
b111011111 9
b000010000 :
b00000000101001010 ;
b00000011011000000 <
b11111001000010100 =
b11111111101100000 >
b111111101010001010 ?
b111111000101110100 @
b000101011 A
b001000010 B
b001001100 C
b000110010 D
#17000
b10011101 "
b00100010 #
b10011100 $
b01100101 %
b10011010 &
b00011111 '
b00000000000000000000000001000100 )
b00000000000000000000000000001101 *
b1111111111111111111111111111111111111111111111111111111100111001 +
b0000000000000000000000000000000000000000000000000000000010000111 -
b0000000000000000000000000000000000000000000000000000000000000001 /
b1111111111111111111111111111111111111111111111111111111110111101 1
b11111111111111111111111100111001 3
b00000000000000000000000010000111 4
b00000000000000000000011110110111 5
b00000000000000000001101011010001 6
b100111001 7
b010000111 8
b000000001 9
b110111101 :
b11111111110011010 ;
b11111011111100011 <
b00000000000011111 =
b00001101010110010 >
b000000011110110111 ?
b000001101011010001 @
b110011101 A
b000100010 B
b110011100 C
b001100101 D
1F
#18000
b11011110 "
b00111100 #
b11011101 $
b01111001 %
b11011111 &
b00000011 '
b00000000000000000000000001001000 )
b00000000000000000000000000001110 *
b1111111111111111111111111111111111111111111111111111111110111011 +
b0000000000000000000000000000000000000000000000000000000010110101 -
b1111111111111111111111111111111111111111111111111111111111000011 1
b11111111111111111111111110111011 3
b00000000000000000000000010110101 4
b00000000000000000000000010010110 5
b00000000000000000000011111100000 6
b110111011 7
b010110101 8
b111000011 :
b11111111111011111 ;
b11111111101001001 <
b00000000000000011 =
b00000011111011101 >
b000000000010010110 ?
b000000011111100000 @
b111011110 A
b000111100 B
b111011101 C
b001111001 D
#19000
b01100111 "
b01111110 #
b10001101 $
b01111010 %
b10000011 &
b00000100 '
b00000000000000000000000001001100 )
b00000000000000000000000000001111 *
b1111111111111111111111111111111111111111111111111111111111110100 +
b0000000000000000000000000000000000000000000000000000000011111000 -
b0000000000000000000000000000000000000000000000000000000011011010 /
b0000000000000000000000000000000000000000000000000000000000000100 1
b11111111111111111111111111110100 3
b00000000000000000000000011111000 4
b11111111111111111001010101111110 5
b00000000000000000000000101110100 6
b111110100 7
b011111000 8
b011011010 9
b000000100 :
b11001010110001110 ;
b00000000000010000 <
b00000001101101000 =
b11111111000001100 >
b111001010101111110 ?
b000000000101110100 @
b001100111 A
b001111110 B
b110001101 C
b001111010 D
#20000
b10000110 "
b01010011 #
b10010100 $
b11100110 %
b11101110 &
b11011110 '
b00000000000000000000000001010000 )
b00000000000000000000000000010000 *
b1111111111111111111111111111111111111111111111111111111100011010 +
b0000000000000000000000000000000000000000000000000000000000111001 -
b1111111111111111111111111111111111111111111111111111111111110010 /
b0000000000000000000000000000000000000000000000000000000001101101 1
b11111111111111111111111100011010 3
b00000000000000000000000000111001 4
b00000000000000000000111101110110 5
b11111111111111111111101000110010 6
b100011010 7
b000111001 8
b111110010 9
b001101101 :
b00000000011111100 ;
b11111000110000110 <
b00000000111011100 =
b11111100001010110 >
b000000111101110110 ?
b111111101000110010 @
b110000110 A
b001010011 B
b110010100 C
b111100110 D
#21000
b00100000 "
b00011100 #
b01011101 $
b10011101 %
b01011110 &
b01000101 '
b00000000000000000000000001010100 )
b00000000000000000000000000010001 *
b0000000000000000000000000000000000000000000000000000000001111101 +
b1111111111111111111111111111111111111111111111111111111110111001 -
b1111111111111111111111111111111111111111111111111111111111000011 /
b0000000000000000000000000000000000000000000000000000000001111111 1
b00000000000000000000000001111101 3
b11111111111111111111111110111001 4
b11111111111111111100011101011111 5
b00000000000000000001111000110001 6
b001111101 7
b110111001 8
b111000011 9
b001111111 :
b11110100110011010 ;
b00010001000111011 <
b11110111110001111 =
b00010111010100010 >
b111100011101011111 ?
b000001111000110001 @
b000100000 A
b000011100 B
b001011101 C
b110011101 D
1E
0F
#22000
b11101100 "
b11111110 #
b11100110 $
b10000110 %
b01001000 &
b11000001 '
b00000000000000000000000001011000 )
b00000000000000000000000000010010 *
b1111111111111111111111111111111111111111111111111111111111010010 +
b1111111111111111111111111111111111111111111111111111111110000100 -
b0000000000000000000000000000000000000000000000000000000000000110 /
b0000000000000000000000000000000000000000000000000000000001111000 1
b11111111111111111111111111010010 3
b11111111111111111111111110000100 4
b00000000000000000001111100111000 5
b00000000000000000010000001000110 6
b111010010 7
b110000100 8
b000000110 9
b001111000 :
b00000000110110000 ;
b11110001001111000 <
b11111111010000110 =
b00010000111000000 >
b000001111100111000 ?
b000010000001000110 @
b111101100 A
b111111110 B
b111100110 C
b110000110 D
1F
#23000
b01111010 "
b01001000 #
b00111000 $
b10010000 %
b11010011 &
b10111011 '
b00000000000000000000000001011100 )
b00000000000000000000000000010011 *
b0000000000000000000000000000000000000000000000000000000010110010 +
b1111111111111111111111111111111111111111111111111111111111011000 -
b0000000000000000000000000000000000000000000000000000000001000010 /
b0000000000000000000000000000000000000000000000000000000010111000 1
b00000000000000000000000010110010 3
b11111111111111111111111111011000 4
b00000000000000000010010111111110 5
b11111111111111111100110111011110 6
b010110010 7
b111011000 8
b001000010 9
b010111000 :
b11111010001100110 ;
b11100111001101000 <
b11110111000110110 =
b11101111110101000 >
b000010010111111110 ?
b111100110111011110 @
b001111010 A
b001001000 B
b000111000 C
b110010000 D
0F
#24000
b11111110 "
b10101000 #
b10011110 $
b10011100 %
b10111001 &
b10110000 '
b00000000000000000000000001100000 )
b00000000000000000000000000010100 *
b1111111111111111111111111111111111111111111111111111111110011100 +
b1111111111111111111111111111111111111111111111111111111101000100 -
b0000000000000000000000000000000000000000000000000000000001100000 /
b0000000000000000000000000000000000000000000000000000000000001100 1
b11111111111111111111111110011100 3
b11111111111111111111111101000100 4
b11111111111111111110100100100000 5
b11111111111111111101111010101100 6
b110011100 7
b101000100 8
b001100000 9
b000001100 :
b11110010101100000 ;
b11111110001000000 <
b11110001000000000 =
b11111110010101100 >
b111110100100100000 ?
b111101111010101100 @
b111111110 A
b110101000 B
b110011110 C
b110011100 D
1F
#25000
b11101100 "
b00001011 #
b10101011 $
b10110101 %
b11101001 &
b11010111 '
b00000000000000000000000001100100 )
b00000000000000000000000000010101 *
b1111111111111111111111111111111111111111111111111111111110010111 +
b1111111111111111111111111111111111111111111111111111111111000000 -
b0000000000000000000000000000000000000000000000000000000001000001 /
b0000000000000000000000000000000000000000000000000000000001010110 1
b11111111111111111111111110010111 3
b11111111111111111111111111000000 4
b00000000000000000000011111101111 5
b11111111111111111110110111011101 6
b110010111 7
b111000000 8
b001000001 9
b001010110 :
b11111101000101001 ;
b11111001000111010 <
b11111010110010111 =
b11111100001000110 >
b000000011111101111 ?
b111110110111011101 @
b111101100 A
b000001011 B
b110101011 C
b110110101 D
#26000
b01000100 "
b11111011 #
b01001011 $
b11011001 %
b10110011 &
b01011010 '
b00000000000000000000000001101000 )
b00000000000000000000000000010110 *
b0000000000000000000000000000000000000000000000000000000010001111 +
b1111111111111111111111111111111111111111111111111111111111010100 -
b1111111111111111111111111111111111111111111111111111111111111001 /
b0000000000000000000000000000000000000000000000000000000000100010 1
b00000000000000000000000010001111 3
b11111111111111111111111111010100 4
b11111111111111111111011000100111 5
b11111111111111111111001101010000 6
b010001111 7
b111010100 8
b111111001 9
b000100010 :
b00000001000011011 ;
b00000101111110100 <
b11111110110001010 =
b11111010111000110 >
b111111011000100111 ?
b111111001101010000 @
b001000100 A
b111111011 B
b001001011 C
b111011001 D
0F
#27000
b01011000 "
b11010111 #
b11111111 $
b10100010 %
b11101000 &
b11000111 '
b00000000000000000000000001101100 )
b00000000000000000000000000010111 *
b0000000000000000000000000000000000000000000000000000000001010111 +
b1111111111111111111111111111111111111111111111111111111101111001 -
b0000000000000000000000000000000000000000000000000000000001011001 /
b0000000000000000000000000000000000000000000000000000000000110101 1
b00000000000000000000000001010111 3
b11111111111111111111111101111001 4
b00000000000000000000001101110101 5
b11111111111111111110011100110111 6
b001010111 7
b101111001 8
b001011001 9
b000110101 :
b11111011110101000 ;
b11111010000110011 <
b11110110000101111 =
b11111101100001000 >
b000000001101110101 ?
b111110011100110111 @
b001011000 A
b111010111 B
b111111111 C
b110100010 D
#28000
b01000100 "
b10100111 #
b11011111 $
b00110011 %
b01110000 &
b10110101 '
b00000000000000000000000001110000 )
b00000000000000000000000000011000 *
b0000000000000000000000000000000000000000000000000000000000100011 +
b1111111111111111111111111111111111111111111111111111111111011010 -
b0000000000000000000000000000000000000000000000000000000001100101 /
b1111111111111111111111111111111111111111111111111111111101110100 1
b00000000000000000000000000100011 3
b11111111111111111111111111011010 4
b00000000000000000000001100101100 5
b11111111111111111010010100101001 6
b000100011 7
b111011010 8
b001100101 9
b101110100 :
b00010110000110000 ;
b00010100100000100 <
b11110001001101001 =
b11100001011000000 >
b000000001100101100 ?
b111010010100101001 @
b001000100 A
b110100111 B
b111011111 C
b000110011 D
#29000
b10100101 "
b10011101 #
b11010000 $
b00110110 %
b10110110 &
b11110010 '
b00000000000000000000000001110100 )
b00000000000000000000000000011001 *
b1111111111111111111111111111111111111111111111111111111101110101 +
b1111111111111111111111111111111111111111111111111111111111010011 -
b1111111111111111111111111111111111111111111111111111111111010101 /
b1111111111111111111111111111111111111111111111111111111101100111 1
b11111111111111111111111101110101 3
b11111111111111111111111111010011 4
b00000000000000000000010000010000 5
b00000000000000000010111010010100 6
b101110101 7
b111010011 8
b111010101 9
b101100111 :
b00000110001101110 ;
b00000100001011110 <
b00000001001011010 =
b00010110000111010 >
b000000010000010000 ?
b000010111010010100 @
b110100101 A
b110011101 B
b111010000 C
b000110110 D
1F
#30000
b00101110 "
b10110000 #
b11000101 $
b00011110 %
b11111111 &
b00010110 '
b00000000000000000000000001111000 )
b00000000000000000000000000011010 *
b1111111111111111111111111111111111111111111111111111111111110011 +
b1111111111111111111111111111111111111111111111111111111111001110 -
b0000000000000000000000000000000000000000000000000000000001101001 /
b1111111111111111111111111111111111111111111111111111111110010010 1
b11111111111111111111111111110011 3
b11111111111111111111111111001110 4
b00000000000000000000100100001011 5
b00000000000000000000100101110100 6
b111110011 7
b111001110 8
b001101001 9
b110010010 :
b11111111110010111 ;
b11111011010001100 <
b00000100100000110 =
b00000000001101110 >
b000000100100001011 ?
b000000100101110100 @
b000101110 A
b110110000 B
b111000101 C
b000011110 D
#31000
b00101101 "
b10100100 #
b00011011 $
b11011011 %
b01111110 &
b00001001 '
b00000000000000000000000001111100 )
b00000000000000000000000000011011 *
b0000000000000000000000000000000000000000000000000000000001001000 +
b1111111111111111111111111111111111111111111111111111111101111111 -
b0000000000000000000000000000000000000000000000000000000000010010 /
b1111111111111111111111111111111111111111111111111111111111001001 1
b00000000000000000000000001001000 3
b11111111111111111111111101111111 4
b00000000000000000000101011001011 5
b11111111111111111110010110010000 6
b001001000 7
b101111111 8
b000010010 9
b111001001 :
b00000100011011100 ;
b11111111000010001 <
b00000000010100010 =
b11110010011101110 >
b000000101011001011 ?
b111110010110010000 @
b000101101 A
b110100100 B
b000011011 C
b111011011 D
0F
#32000
b01010011 "
b01010001 #
b00100010 $
b01111111 %
b10011101 &
b00100110 '
b00000000000000000000000010000000 )
b00000000000000000000000000011100 *
b0000000000000000000000000000000000000000000000000000000001110101 +
b0000000000000000000000000000000000000000000000000000000011010000 -
b0000000000000000000000000000000000000000000000000000000000110001 /
b1111111111111111111111111111111111111111111111111111111111010010 1
b00000000000000000000000001110101 3
b00000000000000000000000011010000 4
b11111111111111111111001111100001 5
b00000000000000000001100100010000 6
b001110101 7
b011010000 8
b000110001 9
b111010010 :
b11110110100001101 ;
b11111100100101100 <
b00000011101000110 =
b00001000111001010 >
b111111001111100001 ?
b000001100100010000 @
b001010011 A
b001010001 B
b000100010 C
b001111111 D
0E
