rtl/dsp/fft/fft_butterfly_scaled/sim/wave.vcd
$version Generated by VerilatedVcd $end
$timescale 1ps $end
 $scope module TOP $end
  $scope module tb_agr_fft_butterfly_scaled $end
   $var wire 32 M IN_W [31:0] $end
   $var wire 32 M TW_W [31:0] $end
   $var wire 32 N OUT_W [31:0] $end
   $var wire 8 " ar [7:0] $end
   $var wire 8 # ai [7:0] $end
   $var wire 8 $ br [7:0] $end
   $var wire 8 % bi [7:0] $end
   $var wire 8 & wr [7:0] $end
   $var wire 8 ' wi [7:0] $end
   $var wire 32 ( x0r [31:0] $end
   $var wire 32 ) x0i [31:0] $end
   $var wire 32 A x1r [31:0] $end
   $var wire 32 B x1i [31:0] $end
   $var wire 1 O ovf $end
   $var wire 32 * errors [31:0] $end
   $var wire 32 + checks [31:0] $end
   $var wire 32 , i [31:0] $end
   $var wire 64 - sr [63:0] $end
   $var wire 64 / si [63:0] $end
   $var wire 64 1 dr [63:0] $end
   $var wire 64 3 di [63:0] $end
   $scope module dut $end
    $var wire 32 M IN_W [31:0] $end
    $var wire 32 M TW_W [31:0] $end
    $var wire 32 N OUT_W [31:0] $end
    $var wire 8 " a_real [7:0] $end
    $var wire 8 # a_imag [7:0] $end
    $var wire 8 $ b_real [7:0] $end
    $var wire 8 % b_imag [7:0] $end
    $var wire 8 & w_real [7:0] $end
    $var wire 8 ' w_imag [7:0] $end
    $var wire 32 ( x0_real [31:0] $end
    $var wire 32 ) x0_imag [31:0] $end
    $var wire 32 A x1_real [31:0] $end
    $var wire 32 B x1_imag [31:0] $end
    $var wire 1 O overflow $end
    $var wire 32 P BUTTER_OUT_W [31:0] $end
    $var wire 18 5 full_x0r [17:0] $end
    $var wire 18 6 full_x0i [17:0] $end
    $var wire 18 C full_x1r [17:0] $end
    $var wire 18 D full_x1i [17:0] $end
    $var wire 1 O butterfly_ovf $end
    $var wire 32 ( scaled_x0r [31:0] $end
    $var wire 32 ) scaled_x0i [31:0] $end
    $var wire 32 A scaled_x1r [31:0] $end
    $var wire 32 B scaled_x1i [31:0] $end
    $var wire 1 7 pl_x0r $end
    $var wire 1 8 pl_x0i $end
    $var wire 1 E pl_x1r $end
    $var wire 1 F pl_x1i $end
    $var wire 1 O trunc_ovf $end
    $scope module u_bfly $end
     $var wire 32 M IN_W [31:0] $end
     $var wire 32 M TW_W [31:0] $end
     $var wire 32 P OUT_W [31:0] $end
     $var wire 8 " a_real [7:0] $end
     $var wire 8 # a_imag [7:0] $end
     $var wire 8 $ b_real [7:0] $end
     $var wire 8 % b_imag [7:0] $end
     $var wire 8 & w_real [7:0] $end
     $var wire 8 ' w_imag [7:0] $end
     $var wire 18 5 x0_real [17:0] $end
     $var wire 18 6 x0_imag [17:0] $end
     $var wire 18 C x1_real [17:0] $end
     $var wire 18 D x1_imag [17:0] $end
     $var wire 1 O overflow $end
     $var wire 32 Q SUM_W [31:0] $end
     $var wire 32 R PROD_W [31:0] $end
     $var wire 32 P FULL_W [31:0] $end
     $var wire 9 9 sum_real [8:0] $end
     $var wire 9 : sum_imag [8:0] $end
     $var wire 9 K diff_real [8:0] $end
     $var wire 9 L diff_imag [8:0] $end
     $var wire 1 O unused1 $end
     $var wire 1 O unused2 $end
     $var wire 17 G ac [16:0] $end
     $var wire 17 H bd [16:0] $end
     $var wire 17 I ad [16:0] $end
     $var wire 17 J bc [16:0] $end
     $var wire 18 C real_full [17:0] $end
     $var wire 18 D imag_full [17:0] $end
     $var wire 18 C mult_real [17:0] $end
     $var wire 18 D mult_imag [17:0] $end
     $var wire 1 S x0_ovf_r $end
     $var wire 1 S x0_ovf_i $end
     $var wire 1 S pl1 $end
     $var wire 1 S pl2 $end
     $var wire 1 O mult_ovf $end
     $scope module gen_expand $end
      $var wire 32 T PAD [31:0] $end
     $upscope $end
     $scope module u_add $end
      $var wire 32 M IN_W [31:0] $end
      $var wire 32 Q OUT_W [31:0] $end
      $var wire 1 U USE_SATURATE $end
      $var wire 8 " a_real [7:0] $end
      $var wire 8 # a_imag [7:0] $end
      $var wire 8 $ b_real [7:0] $end
      $var wire 8 % b_imag [7:0] $end
      $var wire 1 O sub $end
      $var wire 9 9 out_real [8:0] $end
      $var wire 9 : out_imag [8:0] $end
      $var wire 1 O overflow $end
      $var wire 32 Q EXT_W [31:0] $end
      $var wire 1 U NEEDS_REDUCE $end
      $var wire 9 ; ar_ext [8:0] $end
      $var wire 9 < ai_ext [8:0] $end
      $var wire 9 = br_ext [8:0] $end
      $var wire 9 > bi_ext [8:0] $end
      $var wire 9 9 real_full [8:0] $end
      $var wire 9 : imag_full [8:0] $end
      $var wire 9 9 real_resized [8:0] $end
      $var wire 9 : imag_resized [8:0] $end
      $var wire 9 V OUT_MAX [8:0] $end
      $var wire 9 W OUT_MIN [8:0] $end
      $var wire 1 O overflow_real $end
      $var wire 1 O overflow_imag $end
      $scope module gen_expand $end
       $var wire 32 T PAD_W [31:0] $end
      $upscope $end
     $upscope $end
     $scope module u_res_i $end
      $var wire 32 Q IN_W [31:0] $end
      $var wire 32 P OUT_W [31:0] $end
      $var wire 1 U MODE $end
      $var wire 1 X ALIGN $end
      $var wire 9 : in_val [8:0] $end
      $var wire 18 6 out_val [17:0] $end
      $var wire 1 S overflow $end
      $var wire 1 S precision_loss $end
      $var wire 1 ? in_sign $end
      $var wire 18 6 candidate [17:0] $end
      $var wire 18 Y SAT_MAX [17:0] $end
      $var wire 18 Z SAT_MIN [17:0] $end
      $scope module gen_expand $end
       $var wire 32 Q EXT_W [31:0] $end
      $upscope $end
     $upscope $end
     $scope module u_res_r $end
      $var wire 32 Q IN_W [31:0] $end
      $var wire 32 P OUT_W [31:0] $end
      $var wire 1 U MODE $end
      $var wire 1 X ALIGN $end
      $var wire 9 9 in_val [8:0] $end
      $var wire 18 5 out_val [17:0] $end
      $var wire 1 S overflow $end
      $var wire 1 S precision_loss $end
      $var wire 1 @ in_sign $end
      $var wire 18 5 candidate [17:0] $end
      $var wire 18 Y SAT_MAX [17:0] $end
      $var wire 18 Z SAT_MIN [17:0] $end
      $scope module gen_expand $end
       $var wire 32 Q EXT_W [31:0] $end
      $upscope $end
     $upscope $end
     $scope module u_sub $end
      $var wire 32 M IN_W [31:0] $end
      $var wire 32 Q OUT_W [31:0] $end
      $var wire 1 U USE_SATURATE $end
      $var wire 8 " a_real [7:0] $end
      $var wire 8 # a_imag [7:0] $end
      $var wire 8 $ b_real [7:0] $end
      $var wire 8 % b_imag [7:0] $end
      $var wire 1 [ sub $end
      $var wire 9 K out_real [8:0] $end
      $var wire 9 L out_imag [8:0] $end
      $var wire 1 O overflow $end
      $var wire 32 Q EXT_W [31:0] $end
      $var wire 1 U NEEDS_REDUCE $end
      $var wire 9 ; ar_ext [8:0] $end
      $var wire 9 < ai_ext [8:0] $end
      $var wire 9 = br_ext [8:0] $end
      $var wire 9 > bi_ext [8:0] $end
      $var wire 9 K real_full [8:0] $end
      $var wire 9 L imag_full [8:0] $end
      $var wire 9 K real_resized [8:0] $end
      $var wire 9 L imag_resized [8:0] $end
      $var wire 9 V OUT_MAX [8:0] $end
      $var wire 9 W OUT_MIN [8:0] $end
      $var wire 1 O overflow_real $end
      $var wire 1 O overflow_imag $end
      $scope module gen_expand $end
       $var wire 32 T PAD_W [31:0] $end
      $upscope $end
     $upscope $end
    $upscope $end
   $upscope $end
  $upscope $end
 $upscope $end
$enddefinitions $end


#0
b00000001 "
b00000000 #
b00000001 $
b00000000 %
b00000001 &
b00000000 '
b00000000000000000000000000000001 (
b00000000000000000000000000000000 )
b00000000000000000000000000000000 *
b00000000000000000000000000000000 +
b00000000000000000000000000000000 ,
b0000000000000000000000000000000000000000000000000000000000000000 -
b0000000000000000000000000000000000000000000000000000000000000000 /
b0000000000000000000000000000000000000000000000000000000000000000 1
b0000000000000000000000000000000000000000000000000000000000000000 3
b000000000000000010 5
b000000000000000000 6
07
08
b000000010 9
b000000000 :
b000000001 ;
b000000000 <
b000000001 =
b000000000 >
0?
0@
b00000000000000000000000000000000 A
b00000000000000000000000000000000 B
b000000000000000000 C
b000000000000000000 D
0E
0F
b00000000000000000 G
b00000000000000000 H
b00000000000000000 I
b00000000000000000 J
b000000000 K
b000000000 L
b00000000000000000000000000001000 M
b00000000000000000000000000100000 N
0O
b00000000000000000000000000010010 P
b00000000000000000000000000001001 Q
b00000000000000000000000000010001 R
0S
b00000000000000000000000000000000 T
0U
b011111111 V
b100000000 W
1X
b011111111111111111 Y
b100000000000000000 Z
1[
#1000
b00000010 "
b00000011 #
b00000100 $
b00000101 %
b00000000000000000000000000000011 (
b00000000000000000000000000000100 )
b00000000000000000000000000000100 +
b000000000000000110 5
b000000000000001000 6
b000000110 9
b000001000 :
b000000010 ;
b000000011 <
b000000100 =
b000000101 >
b11111111111111111111111111111111 A
b11111111111111111111111111111111 B
b111111111111111110 C
b111111111111111110 D
b11111111111111110 G
b11111111111111110 J
b111111110 K
b111111110 L
#2000
b00000101 "
b00000101 $
b00000011 %
b00000000000000000000000000000101 (
b00000000000000000000000000000011 )
b00000000000000000000000000001000 +
b000000000000001010 5
b000000000000000110 6
b000001010 9
b000000110 :
b000000101 ;
b000000101 =
b000000011 >
b00000000000000000000000000000000 A
b00000000000000000000000000000000 B
b000000000000000000 C
b000000000000000000 D
b00000000000000000 G
b00000000000000000 J
b000000000 K
b000000000 L
#3000
b10010010 "
b01010111 #
b01111111 $
b11110010 %
b01101110 &
b10010001 '
b00000000000000000000000000001000 (
b00000000000000000000000000100100 )
b00000000000000000000000000001100 +
b0000000000000000000000000000000000000000000000000000000000001000 -
b0000000000000000000000000000000000000000000000000000000000100100 /
b1111111111111111111111111111111111111111111111111111111100010011 1
b0000000000000000000000000000000000000000000000000000000001100101 3
b000000000000010001 5
b000000000001001001 6
17
18
b000010001 9
b001001001 :
b110010010 ;
b001010111 <
b001111111 =
b111110010 >
b11111111111111111110001011111010 A
b00000000000000000100100100010100 B
b111100010111110101 C
b001001001000101001 D
1E
1F
b11001101000101010 G
b11101010000110101 H
b00110011011000011 I
b00010101101100110 J
b100010011 K
b001100101 L
#4000
b11001011 "
b00000111 #
b10010101 $
b01011000 %
b01111110 &
b11001001 '
b11111111111111111111111110110000 (
b00000000000000000000000000101111 )
b00000000000000000000000000010000 +
b00000000000000000000000000000001 ,
b1111111111111111111111111111111111111111111111111111111110110000 -
b0000000000000000000000000000000000000000000000000000000000101111 /
b0000000000000000000000000000000000000000000000000000000000110110 1
b1111111111111111111111111111111111111111111111111111111110101111 3
b111111111101100000 5
b000000000001011111 6
07
b101100000 9
b001011111 :
b111001011 ;
b000000111 <
b110010101 =
b001011000 >
1@
b00000000000000000000010010010110 A
b11111111111111111110011001000100 B
b000000100100101101 C
b111100110010001000 D
0F
b00001101010010100 G
b00001000101100111 H
b11111010001100110 I
b11101100000100010 J
b000110110 K
b110101111 L
#5000
b00000101 "
b11110000 #
b00011011 $
b11001010 %
b01110100 &
b10001111 '
b00000000000000000000000000010000 (
b11111111111111111111111111011101 )
b00000000000000000000000000010100 +
b00000000000000000000000000000010 ,
b0000000000000000000000000000000000000000000000000000000000010000 -
b1111111111111111111111111111111111111111111111111111111111011101 /
b1111111111111111111111111111111111111111111111111111111111101010 1
b0000000000000000000000000000000000000000000000000000000000100110 3
b000000000000100000 5
b111111111110111010 6
08
b000100000 9
b110111010 :
b000000101 ;
b111110000 <
b000011011 =
b111001010 >
1?
0@
b00000000000000000000001101100111 A
b00000000000000000000110101110111 B
b000000011011001110 C
b000001101011101110 D
0E
b11111011000001000 G
b11110111100111010 H
b00000100110110110 I
b00001000100111000 J
b111101010 K
b000100110 L
#6000
b00011101 "
b10111011 #
b01111001 $
b01101111 %
b11001011 &
b00101001 '
b00000000000000000000000001001011 (
b00000000000000000000000000010101 )
b00000000000000000000000000011000 +
b00000000000000000000000000000011 ,
b0000000000000000000000000000000000000000000000000000000001001011 -
b0000000000000000000000000000000000000000000000000000000000010101 /
b1111111111111111111111111111111111111111111111111111111110100100 1
b1111111111111111111111111111111111111111111111111111111101001100 3
b000000000010010110 5
b000000000000101010 6
b010010110 9
b000101010 :
b000011101 ;
b110111011 <
b001111001 =
b001101111 >
0?
b00000000000000000001011111110000 A
b00000000000000000000101101000100 B
b000010111111100000 C
b000001011010001000 D
b00001001100001100 G
b11110001100101100 H
b11111000101000100 I
b00010010101000100 J
b110100100 K
b101001100 L
#7000
b01100100 "
b01011011 #
b10001100 $
b11101011 %
b00000011 &
b00001001 '
b11111111111111111111111111111000 (
b00000000000000000000000000100011 )
b00000000000000000000000000011100 +
b00000000000000000000000000000100 ,
b1111111111111111111111111111111111111111111111111111111111111000 -
b0000000000000000000000000000000000000000000000000000000000100011 /
b0000000000000000000000000000000000000000000000000000000011011000 1
b0000000000000000000000000000000000000000000000000000000001110000 3
b111111111111110000 5
b000000000001000110 6
b111110000 9
b001000110 :
b001100100 ;
b001011011 <
b110001100 =
b111101011 >
1@
b11111111111111111111111101001100 A
b00000000000000000000010001110100 B
b111111111010011000 C
b000000100011101000 D
b00000001010001000 G
b00000001111110000 H
b00000011110011000 I
b00000000101010000 J
b011011000 K
b001110000 L
#8000
b00100011 "
b10111011 #
b11100011 $
b10010001 %
b01011101 &
b00011011 '
b00000000000000000000000000000011 (
b11111111111111111111111110100110 )
b00000000000000000000000000100000 +
b00000000000000000000000000000101 ,
b0000000000000000000000000000000000000000000000000000000000000011 -
b1111111111111111111111111111111111111111111111111111111110100110 /
b0000000000000000000000000000000000000000000000000000000001000000 1
b0000000000000000000000000000000000000000000000000000000000101010 3
b000000000000000110 5
b111111111101001100 6
b000000110 9
b101001100 :
b000100011 ;
b110111011 <
b111100011 =
b110010001 >
1?
0@
b00000000000000000000100101101001 A
b00000000000000000000101100000001 B
b000001001011010010 C
b000001011000000010 D
b00001011101000000 G
b00000010001101110 H
b00000011011000000 I
b00000111101000010 J
b001000000 K
b000101010 L
#9000
b00011110 "
b00010010 #
b01000010 $
b11000101 %
b00101010 &
b10110100 '
b00000000000000000000000000110000 (
b11111111111111111111111111101011 )
b00000000000000000000000000100100 +
b00000000000000000000000000000110 ,
b0000000000000000000000000000000000000000000000000000000000110000 -
b1111111111111111111111111111111111111111111111111111111111101011 /
b1111111111111111111111111111111111111111111111111111111111011100 1
b0000000000000000000000000000000000000000000000000000000001001101 3
b000000000001100000 5
b111111111111010111 6
18
b001100000 9
b111010111 :
b000011110 ;
b000010010 <
b001000010 =
b111000101 >
b00000000000000000000100001111010 A
b00000000000000000000101110101001 B
b000001000011110100 C
b000001011101010010 D
b11111101000011000 G
b11110100100100100 H
b00000101010110000 I
b00000110010100010 J
b111011100 K
b001001101 L
#10000
b10010100 "
b00011110 #
b01001100 $
b00110010 %
b01110101 &
b11101100 '
b11111111111111111111111111110000 (
b00000000000000000000000000101000 )
b00000000000000000000000000101000 +
b00000000000000000000000000000111 ,
b1111111111111111111111111111111111111111111111111111111111110000 -
b0000000000000000000000000000000000000000000000000000000000101000 /
b1111111111111111111111111111111111111111111111111111111101001000 1
b1111111111111111111111111111111111111111111111111111111111101100 3
b111111111111100000 5
b000000000001010000 6
08
b111100000 9
b001010000 :
b110010100 ;
b000011110 <
b001001100 =
b000110010 >
0?
1@
b11111111111111111101010100101100 A
b00000000000000000000001010011110 B
b111010101001011000 C
b000000010100111100 D
b11010101111101000 G
b00000000110010000 H
b00000111001100000 I
b11111011011011100 J
b101001000 K
b111101100 L
#11000
b00011010 "
b01001111 #
b10100100 $
b11101000 %
b10011110 &
b00010101 '
b11111111111111111111111111011111 (
b00000000000000000000000000011011 )
b00000000000000000000000000101100 +
b00000000000000000000000000001000 ,
b1111111111111111111111111111111111111111111111111111111111011111 -
b0000000000000000000000000000000000000000000000000000000000011011 /
b0000000000000000000000000000000000000000000000000000000001110110 1
b0000000000000000000000000000000000000000000000000000000001100111 3
b111111111110111110 5
b000000000000110111 6
18
b110111110 9
b000110111 :
b000011010 ;
b001001111 <
b110100100 =
b111101000 >
b11111111111111111110010100110000 A
b11111111111111111111000100100000 B
b111100101001100001 C
b111110001001000000 D
1E
b11101001011010100 G
b00000100001110011 H
b00000100110101110 I
b11101100010010010 J
b001110110 K
b001100111 L
#12000
b11010101 "
b11100101 #
b00000000 $
b00110001 %
b11010111 &
b00001010 '
b11111111111111111111111111101010 (
b00000000000000000000000000001011 )
b00000000000000000000000000110000 +
b00000000000000000000000000001001 ,
b1111111111111111111111111111111111111111111111111111111111101010 -
b0000000000000000000000000000000000000000000000000000000000001011 /
b1111111111111111111111111111111111111111111111111111111111010101 1
b1111111111111111111111111111111111111111111111111111111110110100 3
b111111111111010101 5
b000000000000010110 6
17
08
b111010101 9
b000010110 :
b111010101 ;
b111100101 <
b000000000 =
b000110001 >
b00000000000000000000010011101101 A
b00000000000000000000010100111111 B
b000000100111011011 C
b000000101001111110 D
b00000011011100011 G
b11111110100001000 H
b11111111001010010 I
b00000110000101100 J
b111010101 K
b110110100 L
#13000
b00000101 "
b11001000 #
b10000011 $
b00000011 %
b01010000 &
b01010000 '
b11111111111111111111111111000100 (
b11111111111111111111111111100101 )
b00000000000000000000000000110100 +
b00000000000000000000000000001010 ,
b1111111111111111111111111111111111111111111111111111111111000100 -
b1111111111111111111111111111111111111111111111111111111111100101 /
b0000000000000000000000000000000000000000000000000000000010000010 1
b1111111111111111111111111111111111111111111111111111111111000101 3
b111111111110001000 5
b111111111111001011 6
07
18
b110001000 9
b111001011 :
b000000101 ;
b111001000 <
b110000011 =
b000000011 >
1?
b00000000000000000001110110001000 A
b00000000000000000000101100011000 B
b000011101100010000 C
b000001011000110000 D
0E
b00010100010100000 G
b11110110110010000 H
b00010100010100000 I
b11110110110010000 J
b010000010 K
b111000101 L
#14000
b00110000 "
b00101010 #
b01011100 $
b01010100 %
b01001111 &
b11001010 '
b00000000000000000000000001000110 (
b00000000000000000000000000111111 )
b00000000000000000000000000111000 +
b00000000000000000000000000001011 ,
b0000000000000000000000000000000000000000000000000000000001000110 -
b0000000000000000000000000000000000000000000000000000000000111111 /
b1111111111111111111111111111111111111111111111111111111111010100 1
b1111111111111111111111111111111111111111111111111111111111010110 3
b000000000010001100 5
b000000000001111110 6
08
b010001100 9
b001111110 :
b000110000 ;
b000101010 <
b001011100 =
b001010100 >
0?
0@
b11111111111111111111010011001000 A
b11111111111111111111111000101001 B
b111110100110010000 C
b111111110001010010 D
b11111001001101100 G
b00000100011011100 H
b00000100101001000 I
b11111001100001010 J
b111010100 K
b111010110 L
#15000
b00101011 "
b01000010 #
b01001100 $
b00110010 %
b11110110 &
b01101100 '
b00000000000000000000000000111011 (
b00000000000000000000000000111010 )
b00000000000000000000000000111100 +
b00000000000000000000000000001100 ,
b0000000000000000000000000000000000000000000000000000000000111011 -
b0000000000000000000000000000000000000000000000000000000000111010 /
b1111111111111111111111111111111111111111111111111111111111011111 1
b0000000000000000000000000000000000000000000000000000000000010000 3
b000000000001110111 5
b000000000001110100 6
17
b001110111 9
b001110100 :
b000101011 ;
b001000010 <
b001001100 =
b000110010 >
b11111111111111111111110101000101 A
b11111111111111111111100010111010 B
b111111101010001010 C
b111111000101110100 D
b00000000101001010 G
b00000011011000000 H
b11111001000010100 I
b11111111101100000 J
b111011111 K
b000010000 L
#16000
b10011101 "
b00100010 #
b10011100 $
b01100101 %
b10011010 &
b00011111 '
b11111111111111111111111110011100 (
b00000000000000000000000001000011 )
b00000000000000000000000001000000 +
b00000000000000000000000000001101 ,
b1111111111111111111111111111111111111111111111111111111110011100 -
b0000000000000000000000000000000000000000000000000000000001000011 /
b0000000000000000000000000000000000000000000000000000000000000001 1
b1111111111111111111111111111111111111111111111111111111110111101 3
b111111111100111001 5
b000000000010000111 6
18
b100111001 9
b010000111 :
b110011101 ;
b000100010 <
b110011100 =
b001100101 >
1@
b00000000000000000000001111011011 A
b00000000000000000000110101101000 B
b000000011110110111 C
b000001101011010001 D
1E
1F
b11111111110011010 G
b11111011111100011 H
b00000000000011111 I
b00001101010110010 J
b000000001 K
b110111101 L
#17000
b11011110 "
b00111100 #
b11011101 $
b01111001 %
b11011111 &
b00000011 '
b11111111111111111111111111011101 (
b00000000000000000000000001011010 )
b00000000000000000000000001000100 +
b00000000000000000000000000001110 ,
b1111111111111111111111111111111111111111111111111111111111011101 -
b0000000000000000000000000000000000000000000000000000000001011010 /
b1111111111111111111111111111111111111111111111111111111111000011 3
b111111111110111011 5
b000000000010110101 6
b110111011 9
b010110101 :
b111011110 ;
b000111100 <
b111011101 =
b001111001 >
b00000000000000000000000001001011 A
b00000000000000000000001111110000 B
b000000000010010110 C
b000000011111100000 D
0E
0F
b11111111111011111 G
b11111111101001001 H
b00000000000000011 I
b00000011111011101 J
b111000011 L
#18000
b01100111 "
b01111110 #
b10001101 $
b01111010 %
b10000011 &
b00000100 '
b11111111111111111111111111111010 (
b00000000000000000000000001111100 )
b00000000000000000000000001001000 +
b00000000000000000000000000001111 ,
b1111111111111111111111111111111111111111111111111111111111111010 -
b0000000000000000000000000000000000000000000000000000000001111100 /
b0000000000000000000000000000000000000000000000000000000011011010 1
b0000000000000000000000000000000000000000000000000000000000000100 3
b111111111111110100 5
b000000000011111000 6
07
08
b111110100 9
b011111000 :
b001100111 ;
b001111110 <
b110001101 =
b001111010 >
b11111111111111111100101010111111 A
b00000000000000000000000010111010 B
b111001010101111110 C
b000000000101110100 D
b11001010110001110 G
b00000000000010000 H
b00000001101101000 I
b11111111000001100 J
b011011010 K
b000000100 L
#19000
b10000110 "
b01010011 #
b10010100 $
b11100110 %
b11101110 &
b11011110 '
b11111111111111111111111110001101 (
b00000000000000000000000000011100 )
b00000000000000000000000001001100 +
b00000000000000000000000000010000 ,
b1111111111111111111111111111111111111111111111111111111110001101 -
b0000000000000000000000000000000000000000000000000000000000011100 /
b1111111111111111111111111111111111111111111111111111111111110010 1
b0000000000000000000000000000000000000000000000000000000001101101 3
b111111111100011010 5
b000000000000111001 6
18
b100011010 9
b000111001 :
b110000110 ;
b001010011 <
b110010100 =
b111100110 >
b00000000000000000000011110111011 A
b11111111111111111111110100011001 B
b000000111101110110 C
b111111101000110010 D
b00000000011111100 G
b11111000110000110 H
b00000000111011100 I
b11111100001010110 J
b111110010 K
b001101101 L
#20000
b00100000 "
b00011100 #
b01011101 $
b10011101 %
b01011110 &
b01000101 '
b00000000000000000000000000111110 (
b11111111111111111111111111011100 )
b00000000000000000000000001010000 +
b00000000000000000000000000010001 ,
b0000000000000000000000000000000000000000000000000000000000111110 -
b1111111111111111111111111111111111111111111111111111111111011100 /
b1111111111111111111111111111111111111111111111111111111111000011 1
b0000000000000000000000000000000000000000000000000000000001111111 3
b000000000001111101 5
b111111111110111001 6
17
b001111101 9
b110111001 :
b000100000 ;
b000011100 <
b001011101 =
b110011101 >
1?
0@
b11111111111111111110001110101111 A
b00000000000000000000111100011000 B
b111100011101011111 C
b000001111000110001 D
1E
1F
b11110100110011010 G
b00010001000111011 H
b11110111110001111 I
b00010111010100010 J
b111000011 K
b001111111 L
#21000
b11101100 "
b11111110 #
b11100110 $
b10000110 %
b01001000 &
b11000001 '
b11111111111111111111111111101001 (
b11111111111111111111111111000010 )
b00000000000000000000000001010100 +
b00000000000000000000000000010010 ,
b1111111111111111111111111111111111111111111111111111111111101001 -
b1111111111111111111111111111111111111111111111111111111111000010 /
b0000000000000000000000000000000000000000000000000000000000000110 1
b0000000000000000000000000000000000000000000000000000000001111000 3
b111111111111010010 5
b111111111110000100 6
07
08
b111010010 9
b110000100 :
b111101100 ;
b111111110 <
b111100110 =
b110000110 >
1@
b00000000000000000000111110011100 A
b00000000000000000001000000100011 B
b000001111100111000 C
b000010000001000110 D
0E
0F
b00000000110110000 G
b11110001001111000 H
b11111111010000110 I
b00010000111000000 J
b000000110 K
b001111000 L
#22000
b01111010 "
b01001000 #
b00111000 $
b10010000 %
b11010011 &
b10111011 '
b00000000000000000000000001011001 (
b11111111111111111111111111101100 )
b00000000000000000000000001011000 +
b00000000000000000000000000010011 ,
b0000000000000000000000000000000000000000000000000000000001011001 -
b1111111111111111111111111111111111111111111111111111111111101100 /
b0000000000000000000000000000000000000000000000000000000001000010 1
b0000000000000000000000000000000000000000000000000000000010111000 3
b000000000010110010 5
b111111111111011000 6
b010110010 9
b111011000 :
b001111010 ;
b001001000 <
b000111000 =
b110010000 >
0@
b00000000000000000001001011111111 A
b11111111111111111110011011101111 B
b000010010111111110 C
b111100110111011110 D
b11111010001100110 G
b11100111001101000 H
b11110111000110110 I
b11101111110101000 J
b001000010 K
b010111000 L
#23000
b11111110 "
b10101000 #
b10011110 $
b10011100 %
b10111001 &
b10110000 '
b11111111111111111111111111001110 (
b11111111111111111111111110100010 )
b00000000000000000000000001011100 +
b00000000000000000000000000010100 ,
b1111111111111111111111111111111111111111111111111111111111001110 -
b1111111111111111111111111111111111111111111111111111111110100010 /
b0000000000000000000000000000000000000000000000000000000001100000 1
b0000000000000000000000000000000000000000000000000000000000001100 3
b111111111110011100 5
b111111111101000100 6
b110011100 9
b101000100 :
b111111110 ;
b110101000 <
b110011110 =
b110011100 >
1@
b11111111111111111111010010010000 A
b11111111111111111110111101010110 B
b111110100100100000 C
b111101111010101100 D
b11110010101100000 G
b11111110001000000 H
b11110001000000000 I
b11111110010101100 J
b001100000 K
b000001100 L
#24000
b11101100 "
b00001011 #
b10101011 $
b10110101 %
b11101001 &
b11010111 '
b11111111111111111111111111001011 (
b11111111111111111111111111100000 )
b00000000000000000000000001100000 +
b00000000000000000000000000010101 ,
b1111111111111111111111111111111111111111111111111111111111001011 -
b1111111111111111111111111111111111111111111111111111111111100000 /
b0000000000000000000000000000000000000000000000000000000001000001 1
b0000000000000000000000000000000000000000000000000000000001010110 3
b111111111110010111 5
b111111111111000000 6
17
b110010111 9
b111000000 :
b111101100 ;
b000001011 <
b110101011 =
b110110101 >
b00000000000000000000001111110111 A
b11111111111111111111011011101110 B
b000000011111101111 C
b111110110111011101 D
1E
1F
b11111101000101001 G
b11111001000111010 H
b11111010110010111 I
b11111100001000110 J
b001000001 K
b001010110 L
#25000
b01000100 "
b11111011 #
b01001011 $
b11011001 %
b10110011 &
b01011010 '
b00000000000000000000000001000111 (
b11111111111111111111111111101010 )
b00000000000000000000000001100100 +
b00000000000000000000000000010110 ,
b0000000000000000000000000000000000000000000000000000000001000111 -
b1111111111111111111111111111111111111111111111111111111111101010 /
b1111111111111111111111111111111111111111111111111111111111111001 1
b0000000000000000000000000000000000000000000000000000000000100010 3
b000000000010001111 5
b111111111111010100 6
b010001111 9
b111010100 :
b001000100 ;
b111111011 <
b001001011 =
b111011001 >
0@
b11111111111111111111101100010011 A
b11111111111111111111100110101000 B
b111111011000100111 C
b111111001101010000 D
0F
b00000001000011011 G
b00000101111110100 H
b11111110110001010 I
b11111010111000110 J
b111111001 K
b000100010 L
#26000
b01011000 "
b11010111 #
b11111111 $
b10100010 %
b11101000 &
b11000111 '
b00000000000000000000000000101011 (
b11111111111111111111111110111100 )
b00000000000000000000000001101000 +
b00000000000000000000000000010111 ,
b0000000000000000000000000000000000000000000000000000000000101011 -
b1111111111111111111111111111111111111111111111111111111110111100 /
b0000000000000000000000000000000000000000000000000000000001011001 1
b0000000000000000000000000000000000000000000000000000000000110101 3
b000000000001010111 5
b111111111101111001 6
18
b001010111 9
b101111001 :
b001011000 ;
b111010111 <
b111111111 =
b110100010 >
b00000000000000000000000110111010 A
b11111111111111111111001110011011 B
b000000001101110101 C
b111110011100110111 D
1F
b11111011110101000 G
b11111010000110011 H
b11110110000101111 I
b11111101100001000 J
b001011001 K
b000110101 L
#27000
b01000100 "
b10100111 #
b11011111 $
b00110011 %
b01110000 &
b10110101 '
b00000000000000000000000000010001 (
b11111111111111111111111111101101 )
b00000000000000000000000001101100 +
b00000000000000000000000000011000 ,
b0000000000000000000000000000000000000000000000000000000000010001 -
b1111111111111111111111111111111111111111111111111111111111101101 /
b0000000000000000000000000000000000000000000000000000000001100101 1
b1111111111111111111111111111111111111111111111111111111101110100 3
b000000000000100011 5
b111111111111011010 6
08
b000100011 9
b111011010 :
b001000100 ;
b110100111 <
b111011111 =
b000110011 >
b00000000000000000000000110010110 A
b11111111111111111101001010010100 B
b000000001100101100 C
b111010010100101001 D
0E
b00010110000110000 G
b00010100100000100 H
b11110001001101001 I
b11100001011000000 J
b001100101 K
b101110100 L
#28000
b10100101 "
b10011101 #
b11010000 $
b00110110 %
b10110110 &
b11110010 '
b11111111111111111111111110111010 (
b11111111111111111111111111101001 )
b00000000000000000000000001110000 +
b00000000000000000000000000011001 ,
b1111111111111111111111111111111111111111111111111111111110111010 -
b1111111111111111111111111111111111111111111111111111111111101001 /
b1111111111111111111111111111111111111111111111111111111111010101 1
b1111111111111111111111111111111111111111111111111111111101100111 3
b111111111101110101 5
b111111111111010011 6
18
b101110101 9
b111010011 :
b110100101 ;
b110011101 <
b111010000 =
b000110110 >
1@
b00000000000000000000001000001000 A
b00000000000000000001011101001010 B
b000000010000010000 C
b000010111010010100 D
0F
b00000110001101110 G
b00000100001011110 H
b00000001001011010 I
b00010110000111010 J
b111010101 K
b101100111 L
