rtl/math/fixed_point/addsub/sim/tb_agr_fxp_addsub.vcd
$version Generated by VerilatedVcd $end
$timescale 1ps $end
 $scope module TOP $end
  $scope module tb_agr_fxp_addsub $end
   $var wire 32 3 IN_W [31:0] $end
   $var wire 32 3 OUT_W [31:0] $end
   $var wire 1 " add_sub $end
   $var wire 16 # a [15:0] $end
   $var wire 16 $ b [15:0] $end
   $var wire 16 - result [15:0] $end
   $var wire 1 . overflow $end
   $var wire 32 % test_count [31:0] $end
   $var wire 32 & pass_count [31:0] $end
   $var wire 32 ' fail_count [31:0] $end
   $var wire 17 ( b_eff_ref [16:0] $end
   $var wire 17 ) ref_sum [16:0] $end
   $var wire 1 * ref_ov $end
   $var wire 16 + ref_res [15:0] $end
   $scope module dut $end
    $var wire 32 3 IN_W [31:0] $end
    $var wire 32 3 OUT_W [31:0] $end
    $var wire 1 4 SATURATE $end
    $var wire 1 " add_sub $end
    $var wire 16 # a [15:0] $end
    $var wire 16 $ b [15:0] $end
    $var wire 16 - result [15:0] $end
    $var wire 1 . overflow $end
    $var wire 32 5 EXT_W [31:0] $end
    $var wire 17 , a_ext [16:0] $end
    $var wire 17 / b_ext [16:0] $end
    $var wire 17 0 b_eff [16:0] $end
    $var wire 17 1 sum_ext [16:0] $end
    $var wire 1 2 sign_sum $end
    $var wire 16 6 MAX_VAL [15:0] $end
    $var wire 16 7 MIN_VAL [15:0] $end
   $upscope $end
  $upscope $end
 $upscope $end
$enddefinitions $end


#0
0"
b0000000000000101 #
b0000000000000011 $
b00000000000000000000000000000001 %
b00000000000000000000000000000000 &
b00000000000000000000000000000000 '
b00000000000000000 (
b00000000000000000 )
0*
b0000000000000000 +
b00000000000000101 ,
b0000000000001000 -
0.
b00000000000000011 /
b00000000000000011 0
b00000000000001000 1
02
b00000000000000000000000000010000 3
14
b00000000000000000000000000010001 5
b0111111111111111 6
b1000000000000000 7
#1
1"
b00000000000000000000000000000010 %
b00000000000000000000000000000001 &
b00000000000000011 (
b00000000000001000 )
b0000000000001000 +
b0000000000000010 -
b11111111111111101 0
b00000000000000010 1
#2
0"
b1111111111111011 #
b00000000000000000000000000000011 %
b00000000000000000000000000000010 &
b11111111111111101 (
b00000000000000010 )
b0000000000000010 +
b11111111111111011 ,
b1111111111111110 -
b00000000000000011 0
b11111111111111110 1
12
#3
1"
b1111111111111101 $
b00000000000000000000000000000100 %
b00000000000000000000000000000011 &
b00000000000000011 (
b11111111111111110 )
b1111111111111110 +
b11111111111111101 /
#4
0"
b0000000000000101 #
b0000000000000000 $
b00000000000000000000000000000101 %
b00000000000000000000000000000100 &
b00000000000000101 ,
b0000000000000101 -
b00000000000000000 /
b00000000000000000 0
b00000000000000101 1
02
#5
1"
b00000000000000000000000000000110 %
b00000000000000000000000000000101 &
b00000000000000000 (
b00000000000000101 )
b0000000000000101 +
#6
0"
b0111111111111111 #
b0111111111111111 $
b00000000000000000000000000000111 %
b00000000000000000000000000000110 &
b00111111111111111 ,
b1111111111111110 -
b00111111111111111 /
b00111111111111111 0
b01111111111111110 1
#7
b1000000000000000 #
b1000000000000000 $
b00000000000000000000000000001000 %
b00000000000000000000000000000111 &
b00111111111111111 (
b01111111111111110 )
b1111111111111110 +
b11000000000000000 ,
b0000000000000000 -
b11000000000000000 /
b11000000000000000 0
b10000000000000000 1
12
#8
1"
b0111111111111111 #
b00000000000000000000000000001001 %
b00000000000000000000000000001000 &
b11000000000000000 (
b10000000000000000 )
b0000000000000000 +
b00111111111111111 ,
b1111111111111111 -
b01000000000000000 0
b01111111111111111 1
02
#9
b1000000000000000 #
b0111111111111111 $
b00000000000000000000000000001010 %
b00000000000000000000000000001001 &
b01000000000000000 (
b01111111111111111 )
b1111111111111111 +
b11000000000000000 ,
b0000000000000001 -
b00111111111111111 /
b11000000000000001 0
b10000000000000001 1
12
#10
0"
b0111111111111110 #
b0000000000000001 $
b00000000000000000000000000001011 %
b00000000000000000000000000001010 &
b11000000000000001 (
b10000000000000001 )
b0000000000000001 +
b00111111111111110 ,
b0111111111111111 -
b00000000000000001 /
b00000000000000001 0
b00111111111111111 1
02
#11
b0000000000000010 $
b00000000000000000000000000001100 %
b00000000000000000000000000001011 &
b00000000000000001 (
b00111111111111111 )
b0111111111111111 +
b1000000000000000 -
b00000000000000010 /
b00000000000000010 0
b01000000000000000 1
#12
b0000010011010010 #
b1111101100101110 $
b00000000000000000000000000001101 %
b00000000000000000000000000001100 &
b00000000000000010 (
b01000000000000000 )
b1000000000000000 +
b00000010011010010 ,
b0000000000000000 -
b11111101100101110 /
b11111101100101110 0
b00000000000000000 1
#13
1"
b0000000000000000 $
b00000000000000000000000000001110 %
b00000000000000000000000000001101 &
b11111101100101110 (
b00000000000000000 )
b0000000000000000 +
b0000010011010010 -
b00000000000000000 /
b00000000000000000 0
b00000010011010010 1
#14
b1110011100010010 #
b0000110111010111 $
b00000000000000000000000000001111 %
b00000000000000000000000000001110 &
b00000000000000000 (
b00000010011010010 )
b0000010011010010 +
b11110011100010010 ,
b1101100100111011 -
b00000110111010111 /
b11111001000101001 0
b11101100100111011 1
12
#15
b1001001001110010 #
b0000010011101110 $
b00000000000000000000000000010000 %
b00000000000000000000000000001111 &
b11111001000101001 (
b11101100100111011 )
b1101100100111011 +
b11001001001110010 ,
b1000110110000100 -
b00000010011101110 /
b11111101100010010 0
b11000110110000100 1
#16
b0000010001001011 #
b0001110110000111 $
b00000000000000000000000000010001 %
b00000000000000000000000000010000 &
b11111101100010010 (
b11000110110000100 )
b1000110110000100 +
b00000010001001011 ,
b1110011011000100 -
b00001110110000111 /
b11110001001111001 0
b11110011011000100 1
#17
b1001110011011000 #
b0010001011111110 $
b00000000000000000000000000010010 %
b00000000000000000000000000010001 &
b11110001001111001 (
b11110011011000100 )
b1110011011000100 +
b11001110011011000 ,
b0111100111011010 -
b00010001011111110 /
b11101110100000010 0
b10111100111011010 1
#18
b0011110110000101 #
b0111111101110000 $
b00000000000000000000000000010011 %
b00000000000000000000000000010010 &
b11101110100000010 (
b10111100111011010 )
b0111100111011010 +
b00011110110000101 ,
b1011111000010101 -
b00111111101110000 /
b11000000010010000 0
b11011111000010101 1
#19
b1100100101001010 #
b0101000111110100 $
b00000000000000000000000000010100 %
b00000000000000000000000000010011 &
b11000000010010000 (
b11011111000010101 )
b1011111000010101 +
b11100100101001010 ,
b0111011101010110 -
b00101000111110100 /
b11010111000001100 0
b10111011101010110 1
#20
b0101100010011101 #
b1010110000111011 $
b00000000000000000000000000010101 %
b00000000000000000000000000010100 &
b11010111000001100 (
b10111011101010110 )
b0111011101010110 +
b00101100010011101 ,
b1010110001100010 -
b11010110000111011 /
b00101001111000101 0
b01010110001100010 1
02
#21
b0101000011101111 #
b1010110001001011 $
b00000000000000000000000000010110 %
b00000000000000000000000000010101 &
b00101001111000101 (
b01010110001100010 )
b1010110001100010 +
b00101000011101111 ,
b1010010010100100 -
b11010110001001011 /
b00101001110110101 0
b01010010010100100 1
#22
0"
b1001000011100100 #
b0010010111011011 $
b00000000000000000000000000010111 %
b00000000000000000000000000010110 &
b00101001110110101 (
b01010010010100100 )
b1010010010100100 +
b11001000011100100 ,
b1011011010111111 -
b00010010111011011 /
b00010010111011011 0
b11011011010111111 1
12
#23
1"
b0000011101101011 #
b0100100010000011 $
b00000000000000000000000000011000 %
b00000000000000000000000000010111 &
b00010010111011011 (
b11011011010111111 )
b1011011010111111 +
b00000011101101011 ,
b1011111011101000 -
b00100100010000011 /
b11011011101111101 0
b11011111011101000 1
#24
b1000100110100011 #
b1011011100111011 $
b00000000000000000000000000011001 %
b00000000000000000000000000011000 &
b11011011101111101 (
b11011111011101000 )
b1011111011101000 +
b11000100110100011 ,
b1101001001101000 -
b11011011100111011 /
b00100100011000101 0
b11101001001101000 1
#25
b0110101000010001 #
b0111010111011101 $
b00000000000000000000000000011010 %
b00000000000000000000000000011001 &
b00100100011000101 (
b11101001001101000 )
b1101001001101000 +
b00110101000010001 ,
b1111010000110100 -
b00111010111011101 /
b11000101000100011 0
b11111010000110100 1
#26
0"
b1100010110011110 #
b1000111110010010 $
b00000000000000000000000000011011 %
b00000000000000000000000000011010 &
b11000101000100011 (
b11111010000110100 )
b1111010000110100 +
b11100010110011110 ,
b0101010100110000 -
b11000111110010010 /
b11000111110010010 0
b10101010100110000 1
#27
b1001100101000101 #
b1011010110101010 $
b00000000000000000000000000011100 %
b00000000000000000000000000011011 &
b11000111110010010 (
b10101010100110000 )
b0101010100110000 +
b11001100101000101 ,
b0100111011101111 -
b11011010110101010 /
b11011010110101010 0
b10100111011101111 1
#28
b1111000100010100 #
b0111011110011110 $
b00000000000000000000000000011101 %
b00000000000000000000000000011100 &
b11011010110101010 (
b10100111011101111 )
b0100111011101111 +
b11111000100010100 ,
b0110100010110010 -
b00111011110011110 /
b00111011110011110 0
b00110100010110010 1
02
#29
b1010010110110010 #
b1010101011110101 $
b00000000000000000000000000011110 %
b00000000000000000000000000011101 &
b00111011110011110 (
b00110100010110010 )
b0110100010110010 +
b11010010110110010 ,
b0101000010100111 -
b11010101011110101 /
b11010101011110101 0
b10101000010100111 1
12
#30
b0110010110011010 #
b1001100011001111 $
b00000000000000000000000000011111 %
b00000000000000000000000000011110 &
b11010101011110101 (
b10101000010100111 )
b0101000010100111 +
b00110010110011010 ,
b1111111001101001 -
b11001100011001111 /
b11001100011001111 0
b11111111001101001 1
#31
1"
b1101000101101000 #
b1001100000011110 $
b00000000000000000000000000100000 %
b00000000000000000000000000011111 &
b11001100011001111 (
b11111111001101001 )
b1111111001101001 +
b11101000101101000 ,
b0011100101001010 -
b11001100000011110 /
b00110011111100010 0
b00011100101001010 1
02
#32
0"
b0100111001010101 #
b0010111101100101 $
b00000000000000000000000000100001 %
b00000000000000000000000000100000 &
b00110011111100010 (
b00011100101001010 )
b0011100101001010 +
b00100111001010101 ,
b0111110110111010 -
b00010111101100101 /
b00010111101100101 0
b00111110110111010 1
#33
b1110100110110001 #
b0011010101010111 $
b00000000000000000000000000100010 %
b00000000000000000000000000100001 &
b00010111101100101 (
b00111110110111010 )
b0111110110111010 +
b11110100110110001 ,
b0001111100001000 -
b00011010101010111 /
b00011010101010111 0
b00001111100001000 1
#34
1"
b0110100110000101 #
b0010110101001000 $
b00000000000000000000000000100011 %
b00000000000000000000000000100010 &
b00011010101010111 (
b00001111100001000 )
b0001111100001000 +
b00110100110000101 ,
b0011110000111101 -
b00010110101001000 /
b11101001010111000 0
b00011110000111101 1
#35
0"
b1110100110000011 #
b1111010111010000 $
b00000000000000000000000000100100 %
b00000000000000000000000000100011 &
b11101001010111000 (
b00011110000111101 )
b0011110000111101 +
b11110100110000011 ,
b1101111101010011 -
b11111010111010000 /
b11111010111010000 0
b11101111101010011 1
12
#36
b0100010010110000 #
b0111100010101010 $
b00000000000000000000000000100101 %
b00000000000000000000000000100100 &
b11111010111010000 (
b11101111101010011 )
b1101111101010011 +
b00100010010110000 ,
b1011110101011010 -
b00111100010101010 /
b00111100010101010 0
b01011110101011010 1
02
#37
b1110000011010100 #
b1000000111001111 $
b00000000000000000000000000100110 %
b00000000000000000000000000100101 &
b00111100010101010 (
b01011110101011010 )
b1011110101011010 +
b11110000011010100 ,
b0110001010100011 -
b11000000111001111 /
b11000000111001111 0
b10110001010100011 1
12
#38
b1001100010101011 #
b0001110011000010 $
b00000000000000000000000000100111 %
b00000000000000000000000000100110 &
b11000000111001111 (
b10110001010100011 )
b0110001010100011 +
b11001100010101011 ,
b1011010101101101 -
b00001110011000010 /
b00001110011000010 0
b11011010101101101 1
#39
b0111110010110010 #
b1001011101110110 $
b00000000000000000000000000101000 %
b00000000000000000000000000100111 &
b00001110011000010 (
b11011010101101101 )
b1011010101101101 +
b00111110010110010 ,
b0001010000101000 -
b11001011101110110 /
b11001011101110110 0
b00001010000101000 1
02
#40
b0101000000011101 #
b0011011110100010 $
b00000000000000000000000000101001 %
b00000000000000000000000000101000 &
b11001011101110110 (
b00001010000101000 )
b0001010000101000 +
b00101000000011101 ,
b1000011110111111 -
b00011011110100010 /
b00011011110100010 0
b01000011110111111 1
#41
1"
b1110111111100101 #
b0000011000011010 $
b00000000000000000000000000101010 %
b00000000000000000000000000101001 &
b00011011110100010 (
b01000011110111111 )
b1000011110111111 +
b11110111111100101 ,
b1110100111001011 -
b00000011000011010 /
b11111100111100110 0
b11110100111001011 1
12
#42
b1011110101011110 #
b1001000110111100 $
b00000000000000000000000000101011 %
b00000000000000000000000000101010 &
b11111100111100110 (
b11110100111001011 )
b1110100111001011 +
b11011110101011110 ,
b0010101110100010 -
b11001000110111100 /
b00110111001000100 0
b00010101110100010 1
02
#43
b0000011011111001 #
b1011111001011111 $
b00000000000000000000000000101100 %
b00000000000000000000000000101011 &
b00110111001000100 (
b00010101110100010 )
b0010101110100010 +
b00000011011111001 ,
b0100100010011010 -
b11011111001011111 /
b00100000110100001 0
b00100100010011010 1
#44
b0010000111100111 #
b1100101111111110 $
b00000000000000000000000000101101 %
b00000000000000000000000000101100 &
b00100000110100001 (
b00100100010011010 )
b0100100010011010 +
b00010000111100111 ,
b0101010111101001 -
b11100101111111110 /
b00011010000000010 0
b00101010111101001 1
#45
0"
b1011010111111010 #
b1110100100000011 $
b00000000000000000000000000101110 %
b00000000000000000000000000101101 &
b00011010000000010 (
b00101010111101001 )
b0101010111101001 +
b11011010111111010 ,
b1001111011111101 -
b11110100100000011 /
b11110100100000011 0
b11001111011111101 1
12
#46
b1110110000000110 #
b0101011011010011 $
b00000000000000000000000000101111 %
b00000000000000000000000000101110 &
b11110100100000011 (
b11001111011111101 )
b1001111011111101 +
b11110110000000110 ,
b0100001011011001 -
b00101011011010011 /
b00101011011010011 0
b00100001011011001 1
02
#47
b0111110001100110 #
b0101111001101110 $
b00000000000000000000000000110000 %
b00000000000000000000000000101111 &
b00101011011010011 (
b00100001011011001 )
b0100001011011001 +
b00111110001100110 ,
b1101101011010100 -
b00101111001101110 /
b00101111001101110 0
b01101101011010100 1
#48
1"
b1001100010100000 #
b1100001110011100 $
b00000000000000000000000000110001 %
b00000000000000000000000000110000 &
b00101111001101110 (
b01101101011010100 )
b1101101011010100 +
b11001100010100000 ,
b1101010100000100 -
b11100001110011100 /
b00011110001100100 0
b11101010100000100 1
12
#49
b0011100000011101 #
b0100100111011110 $
b00000000000000000000000000110010 %
b00000000000000000000000000110001 &
b00011110001100100 (
b11101010100000100 )
b1101010100000100 +
b00011100000011101 ,
b1110111000111111 -
b00100100111011110 /
b11011011000100010 0
b11110111000111111 1
#50
0"
b0011010101101100 #
b1100110101111110 $
b00000000000000000000000000110011 %
b00000000000000000000000000110010 &
b11011011000100010 (
b11110111000111111 )
b1110111000111111 +
b00011010101101100 ,
b0000001011101010 -
b11100110101111110 /
b11100110101111110 0
b00000001011101010 1
02
#51
1"
b1101101000000110 #
b0001000011001000 $
b00000000000000000000000000110100 %
b00000000000000000000000000110011 &
b11100110101111110 (
b00000001011101010 )
b0000001011101010 +
b11101101000000110 ,
b1100100100111110 -
b00001000011001000 /
b11110111100111000 0
b11100100100111110 1
12
#52
0"
b1010111111111010 #
b1111000011001000 $
b00000000000000000000000000110101 %
b00000000000000000000000000110100 &
b11110111100111000 (
b11100100100111110 )
b1100100100111110 +
b11010111111111010 ,
b1010000011000010 -
b11111000011001000 /
b11111000011001000 0
b11010000011000010 1
#53
1"
b0001011000010000 #
b1000110101010011 $
b00000000000000000000000000110110 %
b00000000000000000000000000110101 &
b11111000011001000 (
b11010000011000010 )
b1010000011000010 +
b00001011000010000 ,
b1000100010111101 -
b11000110101010011 /
b00111001010101101 0
b01000100010111101 1
02
#54
0"
b0101100001111110 #
b0110011100101000 $
b00000000000000000000000000110111 %
b00000000000000000000000000110110 &
b00111001010101101 (
b01000100010111101 )
b1000100010111101 +
b00101100001111110 ,
b1011111110100110 -
b00110011100101000 /
b00110011100101000 0
b01011111110100110 1
#55
b1001011100011100 #
b0110111100111001 $
b00000000000000000000000000111000 %
b00000000000000000000000000110111 &
b00110011100101000 (
b01011111110100110 )
b1011111110100110 +
b11001011100011100 ,
b0000011001010101 -
b00110111100111001 /
b00110111100111001 0
b00000011001010101 1
#56
1"
b0000100001101100 #
b1000100110001011 $
b00000000000000000000000000111001 %
b00000000000000000000000000111000 &
b00110111100111001 (
b00000011001010101 )
b0000011001010101 +
b00000100001101100 ,
b0111111011100001 -
b11000100110001011 /
b00111011001110101 0
b00111111011100001 1
#57
b0101010000110101 #
b0111000001101001 $
b00000000000000000000000000111010 %
b00000000000000000000000000111001 &
b00111011001110101 (
b00111111011100001 )
b0111111011100001 +
b00101010000110101 ,
b1110001111001100 -
b00111000001101001 /
b11000111110010111 0
b11110001111001100 1
12
#58
b0011100011000100 #
b1101010101111011 $
b00000000000000000000000000111011 %
b00000000000000000000000000111010 &
b11000111110010111 (
b11110001111001100 )
b1110001111001100 +
b00011100011000100 ,
b0110001101001001 -
b11101010101111011 /
b00010101010000101 0
b00110001101001001 1
02
#59
0"
b0101110101011001 #
b0011001000110011 $
b00000000000000000000000000111100 %
b00000000000000000000000000111011 &
b00010101010000101 (
b00110001101001001 )
b0110001101001001 +
b00101110101011001 ,
b1000111110001100 -
b00011001000110011 /
b00011001000110011 0
b01000111110001100 1
#60
1"
b0011011011011000 #
b0000001101010111 $
b00000000000000000000000000111101 %
b00000000000000000000000000111100 &
b00011001000110011 (
b01000111110001100 )
b1000111110001100 +
b00011011011011000 ,
b0011001110000001 -
b00000001101010111 /
b11111110010101001 0
b00011001110000001 1
#61
b0011101000100010 #
b1000101101101000 $
b00000000000000000000000000111110 %
b00000000000000000000000000111101 &
b11111110010101001 (
b00011001110000001 )
b0011001110000001 +
b00011101000100010 ,
b1010111010111010 -
b11000101101101000 /
b00111010010011000 0
b01010111010111010 1
#62
b1011001011000100 #
b0010100100100111 $
b00000000000000000000000000111111 %
b00000000000000000000000000111110 &
b00111010010011000 (
b01010111010111010 )
b1010111010111010 +
b11011001011000100 ,
b1000100110011101 -
b00010100100100111 /
b11101011011011001 0
b11000100110011101 1
12
#63
b0001011110110011 #
b0110000111110000 $
b00000000000000000000000001000000 %
b00000000000000000000000000111111 &
b11101011011011001 (
b11000100110011101 )
b1000100110011101 +
b00001011110110011 ,
b1011010111000011 -
b00110000111110000 /
b11001111000010000 0
b11011010111000011 1
#64
0"
b1101000000100101 #
b1000011000011101 $
b00000000000000000000000001000001 %
b00000000000000000000000001000000 &
b11001111000010000 (
b11011010111000011 )
b1011010111000011 +
b11101000000100101 ,
b0101011001000010 -
b11000011000011101 /
b11000011000011101 0
b10101011001000010 1
#65
b1000011010110110 #
b1000010100110110 $
b00000000000000000000000001000010 %
b00000000000000000000000001000001 &
b11000011000011101 (
b10101011001000010 )
b0101011001000010 +
b11000011010110110 ,
b0000101111101100 -
b11000010100110110 /
b11000010100110110 0
b10000101111101100 1
#66
1"
b1101011110101110 #
b1110110100110000 $
b00000000000000000000000001000011 %
b00000000000000000000000001000010 &
b11000010100110110 (
b10000101111101100 )
b0000101111101100 +
b11101011110101110 ,
b1110101001111110 -
b11110110100110000 /
b00001001011010000 0
b11110101001111110 1
#67
0"
b0100011010011110 #
b0001011001111111 $
b00000000000000000000000001000100 %
b00000000000000000000000001000011 &
b00001001011010000 (
b11110101001111110 )
b1110101001111110 +
b00100011010011110 ,
b0101110100011101 -
b00001011001111111 /
b00001011001111111 0
b00101110100011101 1
02
#68
1"
b0011001110101101 #
b0000001000100100 $
b00000000000000000000000001000101 %
b00000000000000000000000001000100 &
b00001011001111111 (
b00101110100011101 )
b0101110100011101 +
b00011001110101101 ,
b0011000110001001 -
b00000001000100100 /
b11111110111011100 0
b00011000110001001 1
#69
b0000000101011011 #
b0000110111111110 $
b00000000000000000000000001000110 %
b00000000000000000000000001000101 &
b11111110111011100 (
b00011000110001001 )
b0011000110001001 +
b00000000101011011 ,
b1111001101011101 -
b00000110111111110 /
b11111001000000010 0
b11111001101011101 1
12
#70
0"
b1000111111010011 #
b1001000111010001 $
b00000000000000000000000001000111 %
b00000000000000000000000001000110 &
b11111001000000010 (
b11111001101011101 )
b1111001101011101 +
b11000111111010011 ,
b0010000110100100 -
b11001000111010001 /
b11001000111010001 0
b10010000110100100 1
#71
b0000101011111111 #
b0010000000011101 $
b00000000000000000000000001001000 %
b00000000000000000000000001000111 &
b11001000111010001 (
b10010000110100100 )
b0010000110100100 +
b00000101011111111 ,
b0010101100011100 -
b00010000000011101 /
b00010000000011101 0
b00010101100011100 1
02
#72
1"
b0010011111000111 #
b0011000001011111 $
b00000000000000000000000001001001 %
b00000000000000000000000001001000 &
b00010000000011101 (
b00010101100011100 )
b0010101100011100 +
b00010011111000111 ,
b1111011101101000 -
b00011000001011111 /
b11100111110100001 0
b11111011101101000 1
12
#73
b0111110110101111 #
b0010100010011000 $
b00000000000000000000000001001010 %
b00000000000000000000000001001001 &
b11100111110100001 (
b11111011101101000 )
b1111011101101000 +
b00111110110101111 ,
b0101010100010111 -
b00010100010011000 /
b11101011101101000 0
b00101010100010111 1
02
#74
b0000011100000001 #
b0001011011101000 $
b00000000000000000000000001001011 %
b00000000000000000000000001001010 &
b11101011101101000 (
b00101010100010111 )
b0101010100010111 +
b00000011100000001 ,
b1111000000011001 -
b00001011011101000 /
b11110100100011000 0
b11111000000011001 1
12
#75
b1001101111100100 #
b1010000101011110 $
b00000000000000000000000001001100 %
b00000000000000000000000001001011 &
b11110100100011000 (
b11111000000011001 )
b1111000000011001 +
b11001101111100100 ,
b1111101010000110 -
b11010000101011110 /
b00101111010100010 0
b11111101010000110 1
#76
b0111101010101111 #
b1001011001010110 $
b00000000000000000000000001001101 %
b00000000000000000000000001001100 &
b00101111010100010 (
b11111101010000110 )
b1111101010000110 +
b00111101010101111 ,
b1110010001011001 -
b11001011001010110 /
b00110100110101010 0
b01110010001011001 1
02
#77
b0000010001100011 #
b1000101110000101 $
b00000000000000000000000001001110 %
b00000000000000000000000001001101 &
b00110100110101010 (
b01110010001011001 )
b1110010001011001 +
b00000010001100011 ,
b0111100011011110 -
b11000101110000101 /
b00111010001111011 0
b00111100011011110 1
#78
b1110010011101011 #
b1111100100000011 $
b00000000000000000000000001001111 %
b00000000000000000000000001001110 &
b00111010001111011 (
b00111100011011110 )
b0111100011011110 +
b11110010011101011 ,
b1110101111101000 -
b11111100100000011 /
b00000011011111101 0
b11110101111101000 1
12
#79
b0001100101110110 #
b1011111100110101 $
b00000000000000000000000001010000 %
b00000000000000000000000001001111 &
b00000011011111101 (
b11110101111101000 )
b1110101111101000 +
b00001100101110110 ,
b0101101001000001 -
b11011111100110101 /
b00100000011001011 0
b00101101001000001 1
02
#80
0"
b1110000010011100 #
b1001011000000010 $
b00000000000000000000000001010001 %
b00000000000000000000000001010000 &
b00100000011001011 (
b00101101001000001 )
b0101101001000001 +
b11110000010011100 ,
b0111011010011110 -
b11001011000000010 /
b11001011000000010 0
b10111011010011110 1
12
#81
b0011010111110001 #
b1110100001001000 $
b00000000000000000000000001010010 %
b00000000000000000000000001010001 &
b11001011000000010 (
b10111011010011110 )
b0111011010011110 +
b00011010111110001 ,
b0001111000111001 -
b11110100001001000 /
b11110100001001000 0
b00001111000111001 1
02
#82
b0111011101011111 #
b1010001100110101 $
b00000000000000000000000001010011 %
b00000000000000000000000001010010 &
b11110100001001000 (
b00001111000111001 )
b0001111000111001 +
b00111011101011111 ,
b0001101010010100 -
b11010001100110101 /
b11010001100110101 0
b00001101010010100 1
#83
1"
b1000111110001011 #
b1110011101000001 $
b00000000000000000000000001010100 %
b00000000000000000000000001010011 &
b11010001100110101 (
b00001101010010100 )
b0001101010010100 +
b11000111110001011 ,
b1010100001001010 -
b11110011101000001 /
b00001100010111111 0
b11010100001001010 1
12
#84
0"
b1111001101010010 #
b1101111000010000 $
b00000000000000000000000001010101 %
b00000000000000000000000001010100 &
b00001100010111111 (
b11010100001001010 )
b1010100001001010 +
b11111001101010010 ,
b1101000101100010 -
b11101111000010000 /
b11101111000010000 0
b11101000101100010 1
#85
1"
b1111100000100110 #
b0100000011001110 $
b00000000000000000000000001010110 %
b00000000000000000000000001010101 &
b11101111000010000 (
b11101000101100010 )
b1101000101100010 +
b11111100000100110 ,
b1011011101011000 -
b00100000011001110 /
b11011111100110010 0
b11011011101011000 1
#86
b1111000100101101 #
b1001000100101110 $
b00000000000000000000000001010111 %
b00000000000000000000000001010110 &
b11011111100110010 (
b11011011101011000 )
b1011011101011000 +
b11111000100101101 ,
b0101111111111111 -
b11001000100101110 /
b00110111011010010 0
b00101111111111111 1
02
#87
b1010100110001000 #
b0001001010111101 $
b00000000000000000000000001011000 %
b00000000000000000000000001010111 &
b00110111011010010 (
b00101111111111111 )
b0101111111111111 +
b11010100110001000 ,
b1001011011001011 -
b00001001010111101 /
b11110110101000011 0
b11001011011001011 1
12
#88
b0111010111101001 #
b1111001111000100 $
b00000000000000000000000001011001 %
b00000000000000000000000001011000 &
b11110110101000011 (
b11001011011001011 )
b1001011011001011 +
b00111010111101001 ,
b1000001000100101 -
b11111001111000100 /
b00000110000111100 0
b01000001000100101 1
02
#89
b1101000000110111 #
b1110001011111100 $
b00000000000000000000000001011010 %
b00000000000000000000000001011001 &
b00000110000111100 (
b01000001000100101 )
b1000001000100101 +
b11101000000110111 ,
b1110110100111011 -
b11110001011111100 /
b00001110100000100 0
b11110110100111011 1
12
#90
b0110010110111000 #
b1101000101110000 $
b00000000000000000000000001011011 %
b00000000000000000000000001011010 &
b00001110100000100 (
b11110110100111011 )
b1110110100111011 +
b00110010110111000 ,
b1001010001001000 -
b11101000101110000 /
b00010111010010000 0
b01001010001001000 1
02
#91
b1001010011100001 #
b0011100001001001 $
b00000000000000000000000001011100 %
b00000000000000000000000001011011 &
b00010111010010000 (
b01001010001001000 )
b1001010001001000 +
b11001010011100001 ,
b0101110010011000 -
b00011100001001001 /
b11100011110110111 0
b10101110010011000 1
12
#92
0"
b0000110110101111 #
b0110001111011010 $
b00000000000000000000000001011101 %
b00000000000000000000000001011100 &
b11100011110110111 (
b10101110010011000 )
b0101110010011000 +
b00000110110101111 ,
b0111000110001001 -
b00110001111011010 /
b00110001111011010 0
b00111000110001001 1
02
#93
1"
b1111011010101011 #
b0001100101101011 $
b00000000000000000000000001011110 %
b00000000000000000000000001011101 &
b00110001111011010 (
b00111000110001001 )
b0111000110001001 +
b11111011010101011 ,
b1101110101000000 -
b00001100101101011 /
b11110011010010101 0
b11101110101000000 1
12
#94
0"
b1111011110111000 #
b1011111011010111 $
b00000000000000000000000001011111 %
b00000000000000000000000001011110 &
b11110011010010101 (
b11101110101000000 )
b1101110101000000 +
b11111011110111000 ,
b1011011010001111 -
b11011111011010111 /
b11011111011010111 0
b11011011010001111 1
#95
b0011011110001110 #
b0010100000111000 $
b00000000000000000000000001100000 %
b00000000000000000000000001011111 &
b11011111011010111 (
b11011011010001111 )
b1011011010001111 +
b00011011110001110 ,
b0101111111000110 -
b00010100000111000 /
b00010100000111000 0
b00101111111000110 1
02
#96
b0111111010110100 #
b0100000110110111 $
b00000000000000000000000001100001 %
b00000000000000000000000001100000 &
b00010100000111000 (
b00101111111000110 )
b0101111111000110 +
b00111111010110100 ,
b1100000001101011 -
b00100000110110111 /
b00100000110110111 0
b01100000001101011 1
#97
1"
b1000100011101101 #
b1010001000111000 $
b00000000000000000000000001100010 %
b00000000000000000000000001100001 &
b00100000110110111 (
b01100000001101011 )
b1100000001101011 +
b11000100011101101 ,
b1110011010110101 -
b11010001000111000 /
b00101110111001000 0
b11110011010110101 1
12
#98
b0000011000011010 #
b0100000011101000 $
b00000000000000000000000001100011 %
b00000000000000000000000001100010 &
b00101110111001000 (
b11110011010110101 )
b1110011010110101 +
b00000011000011010 ,
b1100010100110010 -
b00100000011101000 /
b11011111100011000 0
b11100010100110010 1
#99
0"
b0101010001001001 #
b1101110101100001 $
b00000000000000000000000001100100 %
b00000000000000000000000001100011 &
b11011111100011000 (
b11100010100110010 )
b1100010100110010 +
b00101010001001001 ,
b0011000110101010 -
b11101110101100001 /
b11101110101100001 0
b00011000110101010 1
02
#100
b0110110010110010 #
b0001000111101100 $
b00000000000000000000000001100101 %
b00000000000000000000000001100100 &
b11101110101100001 (
b00011000110101010 )
b0011000110101010 +
b00110110010110010 ,
b0111111010011110 -
b00001000111101100 /
b00001000111101100 0
b00111111010011110 1
#101
b1010111100000010 #
b0000010000110001 $
b00000000000000000000000001100110 %
b00000000000000000000000001100101 &
b00001000111101100 (
b00111111010011110 )
b0111111010011110 +
b11010111100000010 ,
b1011001100110011 -
b00000010000110001 /
b00000010000110001 0
b11011001100110011 1
12
#102
b0111110110110110 #
b0111111011110011 $
b00000000000000000000000001100111 %
b00000000000000000000000001100110 &
b00000010000110001 (
b11011001100110011 )
b1011001100110011 +
b00111110110110110 ,
b1111110010101001 -
b00111111011110011 /
b00111111011110011 0
b01111110010101001 1
02
#103
1"
b0100010011100010 #
b0111010001001100 $
b00000000000000000000000001101000 %
b00000000000000000000000001100111 &
b00111111011110011 (
b01111110010101001 )
b1111110010101001 +
b00100010011100010 ,
b1101000010010110 -
b00111010001001100 /
b11000101110110100 0
b11101000010010110 1
12
#104
b1100101101011111 #
b1110100011000100 $
b00000000000000000000000001101001 %
b00000000000000000000000001101000 &
b11000101110110100 (
b11101000010010110 )
b1101000010010110 +
b11100101101011111 ,
b1110001010011011 -
b11110100011000100 /
b00001011100111100 0
b11110001010011011 1
#105
0"
b1101011000001000 #
b0100011111110111 $
b00000000000000000000000001101010 %
b00000000000000000000000001101001 &
b00001011100111100 (
b11110001010011011 )
b1110001010011011 +
b11101011000001000 ,
b0001110111111111 -
b00100011111110111 /
b00100011111110111 0
b00001110111111111 1
02
