rtl/math/complex/complex_mult/sim/wave.vcd
$version Generated by VerilatedVcd $end
$timescale 1ps $end
 $scope module TOP $end
  $scope module tb_agr_complex_mult $end
   $var wire 32 L IN_W [31:0] $end
   $var wire 32 M OUT_W [31:0] $end
   $var wire 8 " a_real [7:0] $end
   $var wire 8 # a_imag [7:0] $end
   $var wire 8 $ b_real [7:0] $end
   $var wire 8 % b_imag [7:0] $end
   $var wire 16 = out_real [15:0] $end
   $var wire 16 > out_imag [15:0] $end
   $var wire 1 ? overflow $end
   $var wire 32 & errors [31:0] $end
   $var wire 32 ' checks [31:0] $end
   $var wire 32 ( i [31:0] $end
   $var wire 64 ) ar [63:0] $end
   $var wire 64 + ai [63:0] $end
   $var wire 64 - br [63:0] $end
   $var wire 64 / bi [63:0] $end
   $var wire 64 1 ac [63:0] $end
   $var wire 64 3 bd [63:0] $end
   $var wire 64 5 ad [63:0] $end
   $var wire 64 7 bc [63:0] $end
   $var wire 64 9 full_r [63:0] $end
   $var wire 64 ; full_i [63:0] $end
   $scope module dut $end
    $var wire 32 L IN_W [31:0] $end
    $var wire 32 M OUT_W [31:0] $end
    $var wire 1 N USE_ROUNDING $end
    $var wire 1 O USE_SATURATE $end
    $var wire 8 " a_real [7:0] $end
    $var wire 8 # a_imag [7:0] $end
    $var wire 8 $ b_real [7:0] $end
    $var wire 8 % b_imag [7:0] $end
    $var wire 16 = out_real [15:0] $end
    $var wire 16 > out_imag [15:0] $end
    $var wire 1 ? overflow $end
    $var wire 32 M INTERNAL_FULL_W [31:0] $end
    $var wire 32 P ADD_W [31:0] $end
    $var wire 16 @ ac [15:0] $end
    $var wire 16 A bd [15:0] $end
    $var wire 16 B ad [15:0] $end
    $var wire 16 C bc [15:0] $end
    $var wire 17 D ac_ext [16:0] $end
    $var wire 17 E bd_ext [16:0] $end
    $var wire 17 F ad_ext [16:0] $end
    $var wire 17 G bc_ext [16:0] $end
    $var wire 17 H real_full [16:0] $end
    $var wire 17 I imag_full [16:0] $end
    $var wire 17 H scaled_real_ext [16:0] $end
    $var wire 17 I scaled_imag_ext [16:0] $end
    $var wire 16 Q OUT_MAX [15:0] $end
    $var wire 16 R OUT_MIN [15:0] $end
    $var wire 17 S OUT_MAX_EXT [16:0] $end
    $var wire 17 T OUT_MIN_EXT [16:0] $end
    $var wire 1 J overflow_real $end
    $var wire 1 K overflow_imag $end
    $scope module gen_passthrough_or_expand $end
     $var wire 32 U EXT_W [31:0] $end
    $upscope $end
   $upscope $end
  $upscope $end
 $upscope $end
$enddefinitions $end


#0
b00000001 "
b00000000 #
b00000001 $
b00000000 %
b00000000000000000000000000000000 &
b00000000000000000000000000000000 '
b00000000000000000000000000000000 (
b0000000000000000000000000000000000000000000000000000000000000000 )
b0000000000000000000000000000000000000000000000000000000000000000 +
b0000000000000000000000000000000000000000000000000000000000000000 -
b0000000000000000000000000000000000000000000000000000000000000000 /
b0000000000000000000000000000000000000000000000000000000000000000 1
b0000000000000000000000000000000000000000000000000000000000000000 3
b0000000000000000000000000000000000000000000000000000000000000000 5
b0000000000000000000000000000000000000000000000000000000000000000 7
b0000000000000000000000000000000000000000000000000000000000000000 9
b0000000000000000000000000000000000000000000000000000000000000000 ;
b0000000000000001 =
b0000000000000000 >
0?
b0000000000000001 @
b0000000000000000 A
b0000000000000000 B
b0000000000000000 C
b00000000000000001 D
b00000000000000000 E
b00000000000000000 F
b00000000000000000 G
b00000000000000001 H
b00000000000000000 I
0J
0K
b00000000000000000000000000001000 L
b00000000000000000000000000010000 M
1N
0O
b00000000000000000000000000010001 P
b0111111111111111 Q
b1000000000000000 R
b00111111111111111 S
b11000000000000000 T
b00000000000000000000000000000000 U
#1000
b00000001 #
b00000001 %
b00000000000000000000000000000011 '
b0000000000000000 =
b0000000000000010 >
b0000000000000001 A
b0000000000000001 B
b0000000000000001 C
b00000000000000001 E
b00000000000000001 F
b00000000000000001 G
b00000000000000000 H
b00000000000000010 I
#2000
b00000010 "
b00000011 #
b00000100 $
b00000101 %
b00000000000000000000000000000110 '
b1111111111111001 =
b0000000000010110 >
b0000000000001000 @
b0000000000001111 A
b0000000000001010 B
b0000000000001100 C
b00000000000001000 D
b00000000000001111 E
b00000000000001010 F
b00000000000001100 G
b11111111111111001 H
b00000000000010110 I
#3000
b11111110 "
b00000000000000000000000000001001 '
b1111111111101001 =
b0000000000000010 >
b1111111111111000 @
b1111111111110110 B
b11111111111111000 D
b11111111111110110 F
b11111111111101001 H
b00000000000000010 I
#4000
b01111111 "
b00000000 #
b01111111 $
b00000000 %
b00000000000000000000000000001100 '
b0011111100000001 =
b0000000000000000 >
b0011111100000001 @
b0000000000000000 A
b0000000000000000 B
b0000000000000000 C
b00011111100000001 D
b00000000000000000 E
b00000000000000000 F
b00000000000000000 G
b00011111100000001 H
b00000000000000000 I
#5000
b00000000 "
b00000101 $
b00000101 %
b00000000000000000000000000001111 '
b0000000000000000 =
b0000000000000000 @
b00000000000000000 D
b00000000000000000 H
#6000
b00000101 "
b00000101 #
b00000000 $
b00000000 %
b00000000000000000000000000010010 '
#7000
b00000000 "
b00000000 #
b00000000000000000000000000010101 '
#8000
b11111110 "
b11111101 #
b11111100 $
b11111011 %
b00000000000000000000000000011000 '
b1111111111111001 =
b0000000000010110 >
b0000000000001000 @
b0000000000001111 A
b0000000000001010 B
b0000000000001100 C
b00000000000001000 D
b00000000000001111 E
b00000000000001010 F
b00000000000001100 G
b11111111111111001 H
b00000000000010110 I
#9000
b01111111 "
b01111111 #
b01111111 $
b01111111 %
b00000000000000000000000000011011 '
b0000000000000000 =
b0111111000000010 >
b0011111100000001 @
b0011111100000001 A
b0011111100000001 B
b0011111100000001 C
b00011111100000001 D
b00011111100000001 E
b00011111100000001 F
b00011111100000001 G
b00000000000000000 H
b00111111000000010 I
#10000
b10000000 "
b00000000 #
b10000000 $
b00000000 %
b00000000000000000000000000011110 '
b0100000000000000 =
b0000000000000000 >
b0100000000000000 @
b0000000000000000 A
b0000000000000000 B
b0000000000000000 C
b00100000000000000 D
b00000000000000000 E
b00000000000000000 F
b00000000000000000 G
b00100000000000000 H
b00000000000000000 I
#11000
b10010010 "
b01010111 #
b01111111 $
b11110010 %
b00000000000000000000000000100001 '
b1111111111111111111111111111111111111111111111111111111110010010 )
b0000000000000000000000000000000000000000000000000000000001010111 +
b0000000000000000000000000000000000000000000000000000000001111111 -
b1111111111111111111111111111111111111111111111111111111111110010 /
b1111111111111111111111111111111111111111111111111100100101101110 1
b1111111111111111111111111111111111111111111111111111101100111110 3
b0000000000000000000000000000000000000000000000000000011000000100 5
b0000000000000000000000000000000000000000000000000010101100101001 7
b1111111111111111111111111111111111111111111111111100111000110000 9
b0000000000000000000000000000000000000000000000000011000100101101 ;
b1100111000110000 =
b0011000100101101 >
b1100100101101110 @
b1111101100111110 A
b0000011000000100 B
b0010101100101001 C
b11100100101101110 D
b11111101100111110 E
b00000011000000100 F
b00010101100101001 G
b11100111000110000 H
b00011000100101101 I
#12000
b01101110 "
b10010001 #
b11001011 $
b00000111 %
b00000000000000000000000000100100 '
b00000000000000000000000000000001 (
b0000000000000000000000000000000000000000000000000000000001101110 )
b1111111111111111111111111111111111111111111111111111111110010001 +
b1111111111111111111111111111111111111111111111111111111111001011 -
b0000000000000000000000000000000000000000000000000000000000000111 /
b1111111111111111111111111111111111111111111111111110100100111010 1
b1111111111111111111111111111111111111111111111111111110011110111 3
b0000000000000000000000000000000000000000000000000000001100000010 5
b0000000000000000000000000000000000000000000000000001011011111011 7
b1111111111111111111111111111111111111111111111111110110001000011 9
b0000000000000000000000000000000000000000000000000001100111111101 ;
b1110110001000011 =
b0001100111111101 >
b1110100100111010 @
b1111110011110111 A
b0000001100000010 B
b0001011011111011 C
b11110100100111010 D
b11111110011110111 E
b00000001100000010 F
b00001011011111011 G
b11110110001000011 H
b00001100111111101 I
#13000
b10010101 "
b01011000 #
b01111110 $
b11001001 %
b00000000000000000000000000100111 '
b00000000000000000000000000000010 (
b1111111111111111111111111111111111111111111111111111111110010101 )
b0000000000000000000000000000000000000000000000000000000001011000 +
b0000000000000000000000000000000000000000000000000000000001111110 -
b1111111111111111111111111111111111111111111111111111111111001001 /
b1111111111111111111111111111111111111111111111111100101101010110 1
b1111111111111111111111111111111111111111111111111110110100011000 3
b0000000000000000000000000000000000000000000000000001011011111101 5
b0000000000000000000000000000000000000000000000000010101101010000 7
b1111111111111111111111111111111111111111111111111101111000111110 9
b0000000000000000000000000000000000000000000000000100001001001101 ;
b1101111000111110 =
b0100001001001101 >
b1100101101010110 @
b1110110100011000 A
b0001011011111101 B
b0010101101010000 C
b11100101101010110 D
b11110110100011000 E
b00001011011111101 F
b00010101101010000 G
b11101111000111110 H
b00100001001001101 I
#14000
b00000101 "
b11110000 #
b00011011 $
b11001010 %
b00000000000000000000000000101010 '
b00000000000000000000000000000011 (
b0000000000000000000000000000000000000000000000000000000000000101 )
b1111111111111111111111111111111111111111111111111111111111110000 +
b0000000000000000000000000000000000000000000000000000000000011011 -
b1111111111111111111111111111111111111111111111111111111111001010 /
b0000000000000000000000000000000000000000000000000000000010000111 1
b0000000000000000000000000000000000000000000000000000001101100000 3
b1111111111111111111111111111111111111111111111111111111011110010 5
b1111111111111111111111111111111111111111111111111111111001010000 7
b1111111111111111111111111111111111111111111111111111110100100111 9
b1111111111111111111111111111111111111111111111111111110101000010 ;
b1111110100100111 =
b1111110101000010 >
b0000000010000111 @
b0000001101100000 A
b1111111011110010 B
b1111111001010000 C
b00000000010000111 D
b00000001101100000 E
b11111111011110010 F
b11111111001010000 G
b11111110100100111 H
b11111110101000010 I
#15000
b01110100 "
b10001111 #
b00011101 $
b10111011 %
b00000000000000000000000000101101 '
b00000000000000000000000000000100 (
b0000000000000000000000000000000000000000000000000000000001110100 )
b1111111111111111111111111111111111111111111111111111111110001111 +
b0000000000000000000000000000000000000000000000000000000000011101 -
b1111111111111111111111111111111111111111111111111111111110111011 /
b0000000000000000000000000000000000000000000000000000110100100100 1
b0000000000000000000000000000000000000000000000000001111001110101 3
b1111111111111111111111111111111111111111111111111110000010111100 5
b1111111111111111111111111111111111111111111111111111001100110011 7
b1111111111111111111111111111111111111111111111111110111010101111 9
b1111111111111111111111111111111111111111111111111101001111101111 ;
b1110111010101111 =
b1101001111101111 >
b0000110100100100 @
b0001111001110101 A
b1110000010111100 B
b1111001100110011 C
b00000110100100100 D
b00001111001110101 E
b11110000010111100 F
b11111001100110011 G
b11110111010101111 H
b11101001111101111 I
#16000
b01111001 "
b01101111 #
b11001011 $
b00101001 %
b00000000000000000000000000110000 '
b00000000000000000000000000000101 (
b0000000000000000000000000000000000000000000000000000000001111001 )
b0000000000000000000000000000000000000000000000000000000001101111 +
b1111111111111111111111111111111111111111111111111111111111001011 -
b0000000000000000000000000000000000000000000000000000000000101001 /
b1111111111111111111111111111111111111111111111111110011011110011 1
b0000000000000000000000000000000000000000000000000001000111000111 3
b0000000000000000000000000000000000000000000000000001001101100001 5
b1111111111111111111111111111111111111111111111111110100100000101 7
b1111111111111111111111111111111111111111111111111101010100101100 9
b1111111111111111111111111111111111111111111111111111110001100110 ;
b1101010100101100 =
b1111110001100110 >
b1110011011110011 @
b0001000111000111 A
b0001001101100001 B
b1110100100000101 C
b11110011011110011 D
b00001000111000111 E
b00001001101100001 F
b11110100100000101 G
b11101010100101100 H
b11111110001100110 I
#17000
b01100100 "
b01011011 #
b10001100 $
b11101011 %
b00000000000000000000000000110011 '
b00000000000000000000000000000110 (
b0000000000000000000000000000000000000000000000000000000001100100 )
b0000000000000000000000000000000000000000000000000000000001011011 +
b1111111111111111111111111111111111111111111111111111111110001100 -
b1111111111111111111111111111111111111111111111111111111111101011 /
b1111111111111111111111111111111111111111111111111101001010110000 1
b1111111111111111111111111111111111111111111111111111100010001001 3
b1111111111111111111111111111111111111111111111111111011111001100 5
b1111111111111111111111111111111111111111111111111101011011000100 7
b1111111111111111111111111111111111111111111111111101101000100111 9
b1111111111111111111111111111111111111111111111111100111010010000 ;
b1101101000100111 =
b1100111010010000 >
b1101001010110000 @
b1111100010001001 A
b1111011111001100 B
b1101011011000100 C
b11101001010110000 D
b11111100010001001 E
b11111011111001100 F
b11101011011000100 G
b11101101000100111 H
b11100111010010000 I
#18000
b00000011 "
b00001001 #
b00100011 $
b10111011 %
b00000000000000000000000000110110 '
b00000000000000000000000000000111 (
b0000000000000000000000000000000000000000000000000000000000000011 )
b0000000000000000000000000000000000000000000000000000000000001001 +
b0000000000000000000000000000000000000000000000000000000000100011 -
b1111111111111111111111111111111111111111111111111111111110111011 /
b0000000000000000000000000000000000000000000000000000000001101001 1
b1111111111111111111111111111111111111111111111111111110110010011 3
b1111111111111111111111111111111111111111111111111111111100110001 5
b0000000000000000000000000000000000000000000000000000000100111011 7
b0000000000000000000000000000000000000000000000000000001011010110 9
b0000000000000000000000000000000000000000000000000000000001101100 ;
b0000001011010110 =
b0000000001101100 >
b0000000001101001 @
b1111110110010011 A
b1111111100110001 B
b0000000100111011 C
b00000000001101001 D
b11111110110010011 E
b11111111100110001 F
b00000000100111011 G
b00000001011010110 H
b00000000001101100 I
#19000
b11100011 "
b10010001 #
b01011101 $
b00011011 %
b00000000000000000000000000111001 '
b00000000000000000000000000001000 (
b1111111111111111111111111111111111111111111111111111111111100011 )
b1111111111111111111111111111111111111111111111111111111110010001 +
b0000000000000000000000000000000000000000000000000000000001011101 -
b0000000000000000000000000000000000000000000000000000000000011011 /
b1111111111111111111111111111111111111111111111111111010101110111 1
b1111111111111111111111111111111111111111111111111111010001001011 3
b1111111111111111111111111111111111111111111111111111110011110001 5
b1111111111111111111111111111111111111111111111111101011110101101 7
b0000000000000000000000000000000000000000000000000000000100101100 9
b1111111111111111111111111111111111111111111111111101010010011110 ;
b0000000100101100 =
b1101010010011110 >
b1111010101110111 @
b1111010001001011 A
b1111110011110001 B
b1101011110101101 C
b11111010101110111 D
b11111010001001011 E
b11111110011110001 F
b11101011110101101 G
b00000000100101100 H
b11101010010011110 I
#20000
b00011110 "
b00010010 #
b01000010 $
b11000101 %
b00000000000000000000000000111100 '
b00000000000000000000000000001001 (
b0000000000000000000000000000000000000000000000000000000000011110 )
b0000000000000000000000000000000000000000000000000000000000010010 +
b0000000000000000000000000000000000000000000000000000000001000010 -
b1111111111111111111111111111111111111111111111111111111111000101 /
b0000000000000000000000000000000000000000000000000000011110111100 1
b1111111111111111111111111111111111111111111111111111101111011010 3
b1111111111111111111111111111111111111111111111111111100100010110 5
b0000000000000000000000000000000000000000000000000000010010100100 7
b0000000000000000000000000000000000000000000000000000101111100010 9
b1111111111111111111111111111111111111111111111111111110110111010 ;
b0000101111100010 =
b1111110110111010 >
b0000011110111100 @
b1111101111011010 A
b1111100100010110 B
b0000010010100100 C
b00000011110111100 D
b11111101111011010 E
b11111100100010110 F
b00000010010100100 G
b00000101111100010 H
b11111110110111010 I
#21000
b00101010 "
b10110100 #
b10010100 $
b00011110 %
b00000000000000000000000000111111 '
b00000000000000000000000000001010 (
b0000000000000000000000000000000000000000000000000000000000101010 )
b1111111111111111111111111111111111111111111111111111111110110100 +
b1111111111111111111111111111111111111111111111111111111110010100 -
b0000000000000000000000000000000000000000000000000000000000011110 /
b1111111111111111111111111111111111111111111111111110111001001000 1
b1111111111111111111111111111111111111111111111111111011100011000 3
b0000000000000000000000000000000000000000000000000000010011101100 5
b0000000000000000000000000000000000000000000000000010000000010000 7
b1111111111111111111111111111111111111111111111111111011100110000 9
b0000000000000000000000000000000000000000000000000010010011111100 ;
b1111011100110000 =
b0010010011111100 >
b1110111001001000 @
b1111011100011000 A
b0000010011101100 B
b0010000000010000 C
b11110111001001000 D
b11111011100011000 E
b00000010011101100 F
b00010000000010000 G
b11111011100110000 H
b00010010011111100 I
#22000
b01001100 "
b00110010 #
b01110101 $
b11101100 %
b00000000000000000000000001000010 '
b00000000000000000000000000001011 (
b0000000000000000000000000000000000000000000000000000000001001100 )
b0000000000000000000000000000000000000000000000000000000000110010 +
b0000000000000000000000000000000000000000000000000000000001110101 -
b1111111111111111111111111111111111111111111111111111111111101100 /
b0000000000000000000000000000000000000000000000000010001010111100 1
b1111111111111111111111111111111111111111111111111111110000011000 3
b1111111111111111111111111111111111111111111111111111101000010000 5
b0000000000000000000000000000000000000000000000000001011011011010 7
b0000000000000000000000000000000000000000000000000010011010100100 9
b0000000000000000000000000000000000000000000000000001000011101010 ;
b0010011010100100 =
b0001000011101010 >
b0010001010111100 @
b1111110000011000 A
b1111101000010000 B
b0001011011011010 C
b00010001010111100 D
b11111110000011000 E
b11111101000010000 F
b00001011011011010 G
b00010011010100100 H
b00001000011101010 I
#23000
b00011010 "
b01001111 #
b10100100 $
b11101000 %
b00000000000000000000000001000101 '
b00000000000000000000000000001100 (
b0000000000000000000000000000000000000000000000000000000000011010 )
b0000000000000000000000000000000000000000000000000000000001001111 +
b1111111111111111111111111111111111111111111111111111111110100100 -
b1111111111111111111111111111111111111111111111111111111111101000 /
b1111111111111111111111111111111111111111111111111111011010101000 1
b1111111111111111111111111111111111111111111111111111100010011000 3
b1111111111111111111111111111111111111111111111111111110110010000 5
b1111111111111111111111111111111111111111111111111110001110011100 7
b1111111111111111111111111111111111111111111111111111111000010000 9
b1111111111111111111111111111111111111111111111111110000100101100 ;
b1111111000010000 =
b1110000100101100 >
b1111011010101000 @
b1111100010011000 A
b1111110110010000 B
b1110001110011100 C
b11111011010101000 D
b11111100010011000 E
b11111110110010000 F
b11110001110011100 G
b11111111000010000 H
b11110000100101100 I
#24000
b10011110 "
b00010101 #
b11010101 $
b11100101 %
b00000000000000000000000001001000 '
b00000000000000000000000000001101 (
b1111111111111111111111111111111111111111111111111111111110011110 )
b0000000000000000000000000000000000000000000000000000000000010101 +
b1111111111111111111111111111111111111111111111111111111111010101 -
b1111111111111111111111111111111111111111111111111111111111100101 /
b0000000000000000000000000000000000000000000000000001000001110110 1
b1111111111111111111111111111111111111111111111111111110111001001 3
b0000000000000000000000000000000000000000000000000000101001010110 5
b1111111111111111111111111111111111111111111111111111110001111001 7
b0000000000000000000000000000000000000000000000000001001010101101 9
b0000000000000000000000000000000000000000000000000000011011001111 ;
b0001001010101101 =
b0000011011001111 >
b0001000001110110 @
b1111110111001001 A
b0000101001010110 B
b1111110001111001 C
b00001000001110110 D
b11111110111001001 E
b00000101001010110 F
b11111110001111001 G
b00001001010101101 H
b00000011011001111 I
#25000
b00000000 "
b00110001 #
b11010111 $
b00001010 %
b00000000000000000000000001001011 '
b00000000000000000000000000001110 (
b0000000000000000000000000000000000000000000000000000000000000000 )
b0000000000000000000000000000000000000000000000000000000000110001 +
b1111111111111111111111111111111111111111111111111111111111010111 -
b0000000000000000000000000000000000000000000000000000000000001010 /
b0000000000000000000000000000000000000000000000000000000000000000 1
b0000000000000000000000000000000000000000000000000000000111101010 3
b0000000000000000000000000000000000000000000000000000000000000000 5
b1111111111111111111111111111111111111111111111111111100000100111 7
b1111111111111111111111111111111111111111111111111111111000010110 9
b1111111111111111111111111111111111111111111111111111100000100111 ;
b1111111000010110 =
b1111100000100111 >
b0000000000000000 @
b0000000111101010 A
b0000000000000000 B
b1111100000100111 C
b00000000000000000 D
b00000000111101010 E
b00000000000000000 F
b11111100000100111 G
b11111111000010110 H
b11111100000100111 I
#26000
b00000101 "
b11001000 #
b10000011 $
b00000011 %
b00000000000000000000000001001110 '
b00000000000000000000000000001111 (
b0000000000000000000000000000000000000000000000000000000000000101 )
b1111111111111111111111111111111111111111111111111111111111001000 +
b1111111111111111111111111111111111111111111111111111111110000011 -
b0000000000000000000000000000000000000000000000000000000000000011 /
b1111111111111111111111111111111111111111111111111111110110001111 1
b1111111111111111111111111111111111111111111111111111111101011000 3
b0000000000000000000000000000000000000000000000000000000000001111 5
b0000000000000000000000000000000000000000000000000001101101011000 7
b1111111111111111111111111111111111111111111111111111111000110111 9
b0000000000000000000000000000000000000000000000000001101101100111 ;
b1111111000110111 =
b0001101101100111 >
b1111110110001111 @
b1111111101011000 A
b0000000000001111 B
b0001101101011000 C
b11111110110001111 D
b11111111101011000 E
b00000000000001111 F
b00001101101011000 G
b11111111000110111 H
b00001101101100111 I
#27000
b01010000 "
b01010000 #
b00110000 $
b00101010 %
b00000000000000000000000001010001 '
b00000000000000000000000000010000 (
b0000000000000000000000000000000000000000000000000000000001010000 )
b0000000000000000000000000000000000000000000000000000000001010000 +
b0000000000000000000000000000000000000000000000000000000000110000 -
b0000000000000000000000000000000000000000000000000000000000101010 /
b0000000000000000000000000000000000000000000000000000111100000000 1
b0000000000000000000000000000000000000000000000000000110100100000 3
b0000000000000000000000000000000000000000000000000000110100100000 5
b0000000000000000000000000000000000000000000000000000111100000000 7
b0000000000000000000000000000000000000000000000000000000111100000 9
b0000000000000000000000000000000000000000000000000001110000100000 ;
b0000000111100000 =
b0001110000100000 >
b0000111100000000 @
b0000110100100000 A
b0000110100100000 B
b0000111100000000 C
b00000111100000000 D
b00000110100100000 E
b00000110100100000 F
b00000111100000000 G
b00000000111100000 H
b00001110000100000 I
#28000
b01011100 "
b01010100 #
b01001111 $
b11001010 %
b00000000000000000000000001010100 '
b00000000000000000000000000010001 (
b0000000000000000000000000000000000000000000000000000000001011100 )
b0000000000000000000000000000000000000000000000000000000001010100 +
b0000000000000000000000000000000000000000000000000000000001001111 -
b1111111111111111111111111111111111111111111111111111111111001010 /
b0000000000000000000000000000000000000000000000000001110001100100 1
b1111111111111111111111111111111111111111111111111110111001001000 3
b1111111111111111111111111111111111111111111111111110110010011000 5
b0000000000000000000000000000000000000000000000000001100111101100 7
b0000000000000000000000000000000000000000000000000010111000011100 9
b0000000000000000000000000000000000000000000000000000011010000100 ;
b0010111000011100 =
b0000011010000100 >
b0001110001100100 @
b1110111001001000 A
b1110110010011000 B
b0001100111101100 C
b00001110001100100 D
b11110111001001000 E
b11110110010011000 F
b00001100111101100 G
b00010111000011100 H
b00000011010000100 I
#29000
b00101011 "
b01000010 #
b01001100 $
b00110010 %
b00000000000000000000000001010111 '
b00000000000000000000000000010010 (
b0000000000000000000000000000000000000000000000000000000000101011 )
b0000000000000000000000000000000000000000000000000000000001000010 +
b0000000000000000000000000000000000000000000000000000000001001100 -
b0000000000000000000000000000000000000000000000000000000000110010 /
b0000000000000000000000000000000000000000000000000000110011000100 1
b0000000000000000000000000000000000000000000000000000110011100100 3
b0000000000000000000000000000000000000000000000000000100001100110 5
b0000000000000000000000000000000000000000000000000001001110011000 7
b1111111111111111111111111111111111111111111111111111111111100000 9
b0000000000000000000000000000000000000000000000000001101111111110 ;
b1111111111100000 =
b0001101111111110 >
b0000110011000100 @
b0000110011100100 A
b0000100001100110 B
b0001001110011000 C
b00000110011000100 D
b00000110011100100 E
b00000100001100110 F
b00001001110011000 G
b11111111111100000 H
b00001101111111110 I
#30000
b11110110 "
b01101100 #
b10011101 $
b00100010 %
b00000000000000000000000001011010 '
b00000000000000000000000000010011 (
b1111111111111111111111111111111111111111111111111111111111110110 )
b0000000000000000000000000000000000000000000000000000000001101100 +
b1111111111111111111111111111111111111111111111111111111110011101 -
b0000000000000000000000000000000000000000000000000000000000100010 /
b0000000000000000000000000000000000000000000000000000001111011110 1
b0000000000000000000000000000000000000000000000000000111001011000 3
b1111111111111111111111111111111111111111111111111111111010101100 5
b1111111111111111111111111111111111111111111111111101011000111100 7
b1111111111111111111111111111111111111111111111111111010110000110 9
b1111111111111111111111111111111111111111111111111101010011101000 ;
b1111010110000110 =
b1101010011101000 >
b0000001111011110 @
b0000111001011000 A
b1111111010101100 B
b1101011000111100 C
b00000001111011110 D
b00000111001011000 E
b11111111010101100 F
b11101011000111100 G
b11111010110000110 H
b11101010011101000 I
#31000
b10011100 "
b01100101 #
b10011010 $
b00011111 %
b00000000000000000000000001011101 '
b00000000000000000000000000010100 (
b1111111111111111111111111111111111111111111111111111111110011100 )
b0000000000000000000000000000000000000000000000000000000001100101 +
b1111111111111111111111111111111111111111111111111111111110011010 -
b0000000000000000000000000000000000000000000000000000000000011111 /
b0000000000000000000000000000000000000000000000000010011111011000 1
b0000000000000000000000000000000000000000000000000000110000111011 3
b1111111111111111111111111111111111111111111111111111001111100100 5
b1111111111111111111111111111111111111111111111111101011111000010 7
b0000000000000000000000000000000000000000000000000001101110011101 9
b1111111111111111111111111111111111111111111111111100101110100110 ;
b0001101110011101 =
b1100101110100110 >
b0010011111011000 @
b0000110000111011 A
b1111001111100100 B
b1101011111000010 C
b00010011111011000 D
b00000110000111011 E
b11111001111100100 F
b11101011111000010 G
b00001101110011101 H
b11100101110100110 I
#32000
b11011110 "
b00111100 #
b11011101 $
b01111001 %
b00000000000000000000000001100000 '
b00000000000000000000000000010101 (
b1111111111111111111111111111111111111111111111111111111111011110 )
b0000000000000000000000000000000000000000000000000000000000111100 +
b1111111111111111111111111111111111111111111111111111111111011101 -
b0000000000000000000000000000000000000000000000000000000001111001 /
b0000000000000000000000000000000000000000000000000000010010100110 1
b0000000000000000000000000000000000000000000000000001110001011100 3
b1111111111111111111111111111111111111111111111111110111111101110 5
b1111111111111111111111111111111111111111111111111111011111001100 7
b1111111111111111111111111111111111111111111111111110100001001010 9
b1111111111111111111111111111111111111111111111111110011110111010 ;
b1110100001001010 =
b1110011110111010 >
b0000010010100110 @
b0001110001011100 A
b1110111111101110 B
b1111011111001100 C
b00000010010100110 D
b00001110001011100 E
b11110111111101110 F
b11111011111001100 G
b11110100001001010 H
b11110011110111010 I
#33000
b11011111 "
b00000011 #
b01100111 $
b01111110 %
b00000000000000000000000001100011 '
b00000000000000000000000000010110 (
b1111111111111111111111111111111111111111111111111111111111011111 )
b0000000000000000000000000000000000000000000000000000000000000011 +
b0000000000000000000000000000000000000000000000000000000001100111 -
b0000000000000000000000000000000000000000000000000000000001111110 /
b1111111111111111111111111111111111111111111111111111001010111001 1
b0000000000000000000000000000000000000000000000000000000101111010 3
b1111111111111111111111111111111111111111111111111110111111000010 5
b0000000000000000000000000000000000000000000000000000000100110101 7
b1111111111111111111111111111111111111111111111111111000100111111 9
b1111111111111111111111111111111111111111111111111111000011110111 ;
b1111000100111111 =
b1111000011110111 >
b1111001010111001 @
b0000000101111010 A
b1110111111000010 B
b0000000100110101 C
b11111001010111001 D
b00000000101111010 E
b11110111111000010 F
b00000000100110101 G
b11111000100111111 H
b11111000011110111 I
#34000
b10001101 "
b01111010 #
b10000011 $
b00000100 %
b00000000000000000000000001100110 '
b00000000000000000000000000010111 (
b1111111111111111111111111111111111111111111111111111111110001101 )
b0000000000000000000000000000000000000000000000000000000001111010 +
b1111111111111111111111111111111111111111111111111111111110000011 -
b0000000000000000000000000000000000000000000000000000000000000100 /
b0000000000000000000000000000000000000000000000000011100000100111 1
b0000000000000000000000000000000000000000000000000000000111101000 3
b1111111111111111111111111111111111111111111111111111111000110100 5
b1111111111111111111111111111111111111111111111111100010001101110 7
b0000000000000000000000000000000000000000000000000011011000111111 9
b1111111111111111111111111111111111111111111111111100001010100010 ;
b0011011000111111 =
b1100001010100010 >
b0011100000100111 @
b0000000111101000 A
b1111111000110100 B
b1100010001101110 C
b00011100000100111 D
b00000000111101000 E
b11111111000110100 F
b11100010001101110 G
b00011011000111111 H
b11100001010100010 I
#35000
b10000110 "
b01010011 #
b10010100 $
b11100110 %
b00000000000000000000000001101001 '
b00000000000000000000000000011000 (
b1111111111111111111111111111111111111111111111111111111110000110 )
b0000000000000000000000000000000000000000000000000000000001010011 +
b1111111111111111111111111111111111111111111111111111111110010100 -
b1111111111111111111111111111111111111111111111111111111111100110 /
b0000000000000000000000000000000000000000000000000011001101111000 1
b1111111111111111111111111111111111111111111111111111011110010010 3
b0000000000000000000000000000000000000000000000000000110001100100 5
b1111111111111111111111111111111111111111111111111101110011111100 7
b0000000000000000000000000000000000000000000000000011101111100110 9
b1111111111111111111111111111111111111111111111111110100101100000 ;
b0011101111100110 =
b1110100101100000 >
b0011001101111000 @
b1111011110010010 A
b0000110001100100 B
b1101110011111100 C
b00011001101111000 D
b11111011110010010 E
b00000110001100100 F
b11101110011111100 G
b00011101111100110 H
b11110100101100000 I
#36000
b11101110 "
b11011110 #
b00100000 $
b00011100 %
b00000000000000000000000001101100 '
b00000000000000000000000000011001 (
b1111111111111111111111111111111111111111111111111111111111101110 )
b1111111111111111111111111111111111111111111111111111111111011110 +
b0000000000000000000000000000000000000000000000000000000000100000 -
b0000000000000000000000000000000000000000000000000000000000011100 /
b1111111111111111111111111111111111111111111111111111110111000000 1
b1111111111111111111111111111111111111111111111111111110001001000 3
b1111111111111111111111111111111111111111111111111111111000001000 5
b1111111111111111111111111111111111111111111111111111101111000000 7
b0000000000000000000000000000000000000000000000000000000101111000 9
b1111111111111111111111111111111111111111111111111111100111001000 ;
b0000000101111000 =
b1111100111001000 >
b1111110111000000 @
b1111110001001000 A
b1111111000001000 B
b1111101111000000 C
b11111110111000000 D
b11111110001001000 E
b11111111000001000 F
b11111101111000000 G
b00000000101111000 H
b11111100111001000 I
