rtl/dsp/fft/twiddle_rom/sim/wave.vcd
$version Generated by VerilatedVcd $end
$timescale 1ps $end
 $scope module TOP $end
  $scope module tb_agr_twiddle_rom $end
   $var real 64 Q PI $end
   $var wire 32 S N8 [31:0] $end
   $var wire 32 T TW_W8 [31:0] $end
   $var wire 32 U FRAC_W8 [31:0] $end
   $var wire 32 V SCALE8 [31:0] $end
   $var wire 2 : addr8 [1:0] $end
   $var wire 16 ; w8_real [15:0] $end
   $var wire 16 < w8_imag [15:0] $end
   $var wire 32 T N16 [31:0] $end
   $var wire 32 T TW_W16 [31:0] $end
   $var wire 32 U FRAC_W16 [31:0] $end
   $var wire 32 V SCALE16 [31:0] $end
   $var wire 3 = addr16 [2:0] $end
   $var wire 16 > w16_real [15:0] $end
   $var wire 16 ? w16_imag [15:0] $end
   $var wire 32 @ errors [31:0] $end
   $var wire 32 A checks [31:0] $end
   $var wire 64 B err [63:0] $end
   $var wire 64 D r1 [63:0] $end
   $var wire 64 F i1 [63:0] $end
   $var wire 64 H mag2 [63:0] $end
   $var wire 64 J ideal [63:0] $end
   $var wire 64 L verify_entry__Vstatic__gr [63:0] $end
   $var wire 64 N verify_entry__Vstatic__gi [63:0] $end
   $var wire 32 P k [31:0] $end
   $scope module dut16 $end
    $var wire 32 T N [31:0] $end
    $var wire 32 T TW_W [31:0] $end
    $var wire 32 U FRAC_W [31:0] $end
    $var wire 1 W PIPELINE $end
    $var wire 1 X clk $end
    $var wire 3 = addr [2:0] $end
    $var wire 16 > w_real [15:0] $end
    $var wire 16 ? w_imag [15:0] $end
    $var wire 16 " rom_real[0] [15:0] $end
    $var wire 16 # rom_real[1] [15:0] $end
    $var wire 16 $ rom_real[2] [15:0] $end
    $var wire 16 % rom_real[3] [15:0] $end
    $var wire 16 & rom_real[4] [15:0] $end
    $var wire 16 ' rom_real[5] [15:0] $end
    $var wire 16 ( rom_real[6] [15:0] $end
    $var wire 16 ) rom_real[7] [15:0] $end
    $var wire 16 * rom_imag[0] [15:0] $end
    $var wire 16 + rom_imag[1] [15:0] $end
    $var wire 16 , rom_imag[2] [15:0] $end
    $var wire 16 - rom_imag[3] [15:0] $end
    $var wire 16 . rom_imag[4] [15:0] $end
    $var wire 16 / rom_imag[5] [15:0] $end
    $var wire 16 0 rom_imag[6] [15:0] $end
    $var wire 16 1 rom_imag[7] [15:0] $end
    $var wire 16 > rom_rdata_real [15:0] $end
    $var wire 16 ? rom_rdata_imag [15:0] $end
   $upscope $end
   $scope module dut8 $end
    $var wire 32 S N [31:0] $end
    $var wire 32 T TW_W [31:0] $end
    $var wire 32 U FRAC_W [31:0] $end
    $var wire 1 W PIPELINE $end
    $var wire 1 X clk $end
    $var wire 2 : addr [1:0] $end
    $var wire 16 ; w_real [15:0] $end
    $var wire 16 < w_imag [15:0] $end
    $var wire 16 2 rom_real[0] [15:0] $end
    $var wire 16 3 rom_real[1] [15:0] $end
    $var wire 16 4 rom_real[2] [15:0] $end
    $var wire 16 5 rom_real[3] [15:0] $end
    $var wire 16 6 rom_imag[0] [15:0] $end
    $var wire 16 7 rom_imag[1] [15:0] $end
    $var wire 16 8 rom_imag[2] [15:0] $end
    $var wire 16 9 rom_imag[3] [15:0] $end
    $var wire 16 ; rom_rdata_real [15:0] $end
    $var wire 16 < rom_rdata_imag [15:0] $end
   $upscope $end
  $upscope $end
 $upscope $end
$enddefinitions $end


#0
b0100000000000000 "
b0011101100100000 #
b0010110101000001 $
b0001100001111101 %
b0000000000000000 &
b1110011110000011 '
b1101001010111111 (
b1100010011100000 )
b0000000000000000 *
b1110011110000011 +
b1101001010111111 ,
b1100010011100000 -
b1100000000000000 .
b1100010011100000 /
b1101001010111111 0
b1110011110000011 1
b0100000000000000 2
b0010110101000001 3
b0000000000000000 4
b1101001010111111 5
b0000000000000000 6
b1101001010111111 7
b1100000000000000 8
b1101001010111111 9
b00 :
b0100000000000000 ;
b0000000000000000 <
b000 =
b0100000000000000 >
b0000000000000000 ?
b00000000000000000000000000000000 @
b00000000000000000000000000000000 A
b0000000000000000000000000000000000000000000000000000000000000000 B
b0000000000000000000000000000000000000000000000000000000000000000 D
b0000000000000000000000000000000000000000000000000000000000000000 F
b0000000000000000000000000000000000000000000000000000000000000000 H
b0000000000000000000000000000000000000000000000000000000000000000 J
b0000000000000000000000000000000000000000000000000000000000000000 L
b0000000000000000000000000000000000000000000000000000000000000000 N
b00000000000000000000000000000000 P
r3.141592653589793 Q
b00000000000000000000000000001000 S
b00000000000000000000000000010000 T
b00000000000000000000000000001110 U
b00000000000000000100000000000000 V
0W
0X
#1000
b01 :
b0010110101000001 ;
b1101001010111111 <
b00000000000000000000000000000010 A
b0000000000000000000000000000000000000000000000000100000000000000 L
b00000000000000000000000000000001 P
#2000
b10 :
b0000000000000000 ;
b1100000000000000 <
b00000000000000000000000000000100 A
b0000000000000000000000000000000000000000000000000010110101000001 L
b1111111111111111111111111111111111111111111111111101001010111111 N
b00000000000000000000000000000010 P
#3000
b11 :
b1101001010111111 ;
b1101001010111111 <
b00000000000000000000000000000110 A
b0000000000000000000000000000000000000000000000000000000000000000 L
b1111111111111111111111111111111111111111111111111100000000000000 N
b00000000000000000000000000000011 P
#4000
b00 :
b0100000000000000 ;
b0000000000000000 <
b00000000000000000000000000001000 A
b1111111111111111111111111111111111111111111111111101001010111111 L
b1111111111111111111111111111111111111111111111111101001010111111 N
b00000000000000000000000000000100 P
#5000
b10 :
b0000000000000000 ;
b1100000000000000 <
#6000
b00000000000000000000000000000000 P
#7000
b001 =
b0011101100100000 >
b1110011110000011 ?
b00000000000000000000000000001010 A
b0000000000000000000000000000000000000000000000000100000000000000 L
b0000000000000000000000000000000000000000000000000000000000000000 N
b00000000000000000000000000000001 P
#8000
b010 =
b0010110101000001 >
b1101001010111111 ?
b00000000000000000000000000001100 A
b0000000000000000000000000000000000000000000000000011101100100000 L
b1111111111111111111111111111111111111111111111111110011110000011 N
b00000000000000000000000000000010 P
#9000
b011 =
b0001100001111101 >
b1100010011100000 ?
b00000000000000000000000000001110 A
b0000000000000000000000000000000000000000000000000010110101000001 L
b1111111111111111111111111111111111111111111111111101001010111111 N
b00000000000000000000000000000011 P
#10000
b100 =
b0000000000000000 >
b1100000000000000 ?
b00000000000000000000000000010000 A
b0000000000000000000000000000000000000000000000000001100001111101 L
b1111111111111111111111111111111111111111111111111100010011100000 N
b00000000000000000000000000000100 P
#11000
b101 =
b1110011110000011 >
b1100010011100000 ?
b00000000000000000000000000010010 A
b0000000000000000000000000000000000000000000000000000000000000000 L
b1111111111111111111111111111111111111111111111111100000000000000 N
b00000000000000000000000000000101 P
#12000
b110 =
b1101001010111111 >
b1101001010111111 ?
b00000000000000000000000000010100 A
b1111111111111111111111111111111111111111111111111110011110000011 L
b1111111111111111111111111111111111111111111111111100010011100000 N
b00000000000000000000000000000110 P
#13000
b111 =
b1100010011100000 >
b1110011110000011 ?
b00000000000000000000000000010110 A
b1111111111111111111111111111111111111111111111111101001010111111 L
b1111111111111111111111111111111111111111111111111101001010111111 N
b00000000000000000000000000000111 P
#14000
b000 =
b0100000000000000 >
b0000000000000000 ?
b00000000000000000000000000011000 A
b1111111111111111111111111111111111111111111111111100010011100000 L
b1111111111111111111111111111111111111111111111111110011110000011 N
b00000000000000000000000000001000 P
#15000
b100 =
b0000000000000000 >
b1100000000000000 ?
#16000
b001 =
b0011101100100000 >
b1110011110000011 ?
b00000000000000000000000000000001 P
#17000
b111 =
b1100010011100000 >
b0000000000000000000000000000000000000000000000000011101100100000 D
b1111111111111111111111111111111111111111111111111110011110000011 F
#18000
b010 =
b0010110101000001 >
b1101001010111111 ?
b00000000000000000000000000000010 P
#19000
b110 =
b1101001010111111 >
b0000000000000000000000000000000000000000000000000010110101000001 D
b1111111111111111111111111111111111111111111111111101001010111111 F
#20000
b011 =
b0001100001111101 >
b1100010011100000 ?
b00000000000000000000000000000011 P
#21000
b101 =
b1110011110000011 >
b0000000000000000000000000000000000000000000000000001100001111101 D
b1111111111111111111111111111111111111111111111111100010011100000 F
#22000
b100 =
b0000000000000000 >
b1100000000000000 ?
b00000000000000000000000000000100 P
#23000
b0000000000000000000000000000000000000000000000000000000000000000 D
b1111111111111111111111111111111111111111111111111100000000000000 F
#24000
b101 =
b1110011110000011 >
b1100010011100000 ?
b00000000000000000000000000000101 P
#25000
b011 =
b0001100001111101 >
b1111111111111111111111111111111111111111111111111110011110000011 D
b1111111111111111111111111111111111111111111111111100010011100000 F
#26000
b110 =
b1101001010111111 >
b1101001010111111 ?
b00000000000000000000000000000110 P
#27000
b010 =
b0010110101000001 >
b1111111111111111111111111111111111111111111111111101001010111111 D
b1111111111111111111111111111111111111111111111111101001010111111 F
#28000
b111 =
b1100010011100000 >
b1110011110000011 ?
b00000000000000000000000000000111 P
#29000
b001 =
b0011101100100000 >
b1111111111111111111111111111111111111111111111111100010011100000 D
b1111111111111111111111111111111111111111111111111110011110000011 F
#30000
b00 :
b0100000000000000 ;
b0000000000000000 <
b00000000000000000000000000000000 P
#31000
b01 :
b0010110101000001 ;
b1101001010111111 <
b0000000000000000000000000000000000010000000000000000000000000000 H
b0000000000000000000000000000000000010000000000000000000000000000 J
b00000000000000000000000000000001 P
#32000
b10 :
b0000000000000000 ;
b1100000000000000 <
b0000000000000000000000000000000000000000000000000010101011111110 B
b0000000000000000000000000000000000001111111111111101010100000010 H
b00000000000000000000000000000010 P
#33000
b11 :
b1101001010111111 ;
b1101001010111111 <
b0000000000000000000000000000000000000000000000000000000000000000 B
b0000000000000000000000000000000000010000000000000000000000000000 H
b00000000000000000000000000000011 P
#34000
b00 :
b0100000000000000 ;
b0000000000000000 <
b0000000000000000000000000000000000000000000000000010101011111110 B
b0000000000000000000000000000000000001111111111111101010100000010 H
b00000000000000000000000000000100 P
