rtl/math/fixed_point/mac/sim/wave.vcd
$version Generated by VerilatedVcd $end
$timescale 1ps $end
 $scope module TOP $end
  $scope module tb_agr_fxp_mac $end
   $var wire 32 " errors [31:0] $end
   $var wire 32 # checks [31:0] $end
   $var wire 32 Y D_AW [31:0] $end
   $var wire 32 Y D_BW [31:0] $end
   $var wire 32 Y D_ACCW [31:0] $end
   $var wire 8 $ d1_a [7:0] $end
   $var wire 8 % d1_b [7:0] $end
   $var wire 8 & d1_acc [7:0] $end
   $var wire 8 : d1_accn [7:0] $end
   $var wire 1 ; d1_ovf $end
   $var wire 8 ' d2_a [7:0] $end
   $var wire 8 ( d2_b [7:0] $end
   $var wire 8 ) d2_acc [7:0] $end
   $var wire 8 < d2_accn [7:0] $end
   $var wire 1 = d2_ovf $end
   $var wire 8 * d4_a [7:0] $end
   $var wire 8 + d4_b [7:0] $end
   $var wire 8 , d4_acc [7:0] $end
   $var wire 8 > d4_accn [7:0] $end
   $var wire 1 ? d4_ovf $end
   $var wire 8 - d5_a [7:0] $end
   $var wire 8 . d5_b [7:0] $end
   $var wire 8 / d5_acc [7:0] $end
   $var wire 8 U d5_accn [7:0] $end
   $var wire 1 V d5_ovf $end
   $var wire 64 0 random_regression__Vstatic__av [63:0] $end
   $var wire 64 2 random_regression__Vstatic__bv [63:0] $end
   $var wire 64 4 random_regression__Vstatic__accv [63:0] $end
   $scope module dut1 $end
    $var wire 32 Y IN_A_W [31:0] $end
    $var wire 32 Y IN_B_W [31:0] $end
    $var wire 32 Y ACC_W [31:0] $end
    $var wire 1 Z USE_ROUNDING $end
    $var wire 1 Z USE_SATURATE $end
    $var wire 1 [ ALIGN $end
    $var wire 8 $ a [7:0] $end
    $var wire 8 % b [7:0] $end
    $var wire 8 & acc [7:0] $end
    $var wire 8 : acc_next [7:0] $end
    $var wire 1 ; overflow $end
    $var wire 32 \ INTERNAL_FULL_W [31:0] $end
    $var wire 16 @ mult_full [15:0] $end
    $var wire 9 A scaled_ext [8:0] $end
    $var wire 1 ] resize_overflow $end
    $var wire 9 6 acc_ext [8:0] $end
    $var wire 9 B acc_sum_ext [8:0] $end
    $var wire 8 ^ ACC_MAX [7:0] $end
    $var wire 8 _ ACC_MIN [7:0] $end
    $var wire 9 ` ACC_MAX_EXT [8:0] $end
    $var wire 9 a ACC_MIN_EXT [8:0] $end
    $var wire 1 ; acc_overflow $end
    $scope module gen_reduce_msb $end
     $var wire 32 Y DROP_W [31:0] $end
     $var wire 8 C candidate [7:0] $end
     $var wire 1 ] round_carry $end
     $var wire 9 A candidate_ext [8:0] $end
     $var wire 9 b round_inc [8:0] $end
    $upscope $end
   $upscope $end
   $scope module dut2 $end
    $var wire 32 Y IN_A_W [31:0] $end
    $var wire 32 Y IN_B_W [31:0] $end
    $var wire 32 Y ACC_W [31:0] $end
    $var wire 1 Z USE_ROUNDING $end
    $var wire 1 [ USE_SATURATE $end
    $var wire 1 [ ALIGN $end
    $var wire 8 ' a [7:0] $end
    $var wire 8 ( b [7:0] $end
    $var wire 8 ) acc [7:0] $end
    $var wire 8 < acc_next [7:0] $end
    $var wire 1 = overflow $end
    $var wire 32 \ INTERNAL_FULL_W [31:0] $end
    $var wire 16 D mult_full [15:0] $end
    $var wire 9 E scaled_ext [8:0] $end
    $var wire 1 ] resize_overflow $end
    $var wire 9 7 acc_ext [8:0] $end
    $var wire 9 F acc_sum_ext [8:0] $end
    $var wire 8 ^ ACC_MAX [7:0] $end
    $var wire 8 _ ACC_MIN [7:0] $end
    $var wire 9 ` ACC_MAX_EXT [8:0] $end
    $var wire 9 a ACC_MIN_EXT [8:0] $end
    $var wire 1 = acc_overflow $end
    $scope module gen_reduce_msb $end
     $var wire 32 Y DROP_W [31:0] $end
     $var wire 8 G candidate [7:0] $end
     $var wire 1 ] round_carry $end
     $var wire 9 E candidate_ext [8:0] $end
     $var wire 9 b round_inc [8:0] $end
    $upscope $end
   $upscope $end
   $scope module dut4 $end
    $var wire 32 Y IN_A_W [31:0] $end
    $var wire 32 Y IN_B_W [31:0] $end
    $var wire 32 Y ACC_W [31:0] $end
    $var wire 1 [ USE_ROUNDING $end
    $var wire 1 [ USE_SATURATE $end
    $var wire 1 [ ALIGN $end
    $var wire 8 * a [7:0] $end
    $var wire 8 + b [7:0] $end
    $var wire 8 , acc [7:0] $end
    $var wire 8 > acc_next [7:0] $end
    $var wire 1 ? overflow $end
    $var wire 32 \ INTERNAL_FULL_W [31:0] $end
    $var wire 16 H mult_full [15:0] $end
    $var wire 9 I scaled_ext [8:0] $end
    $var wire 1 ] resize_overflow $end
    $var wire 9 8 acc_ext [8:0] $end
    $var wire 9 J acc_sum_ext [8:0] $end
    $var wire 8 ^ ACC_MAX [7:0] $end
    $var wire 8 _ ACC_MIN [7:0] $end
    $var wire 9 ` ACC_MAX_EXT [8:0] $end
    $var wire 9 a ACC_MIN_EXT [8:0] $end
    $var wire 1 ? acc_overflow $end
    $scope module gen_reduce_msb $end
     $var wire 32 Y DROP_W [31:0] $end
     $var wire 8 K candidate [7:0] $end
     $var wire 1 L round_carry $end
     $var wire 9 M candidate_ext [8:0] $end
     $var wire 9 N round_inc [8:0] $end
     $scope module gen_round_on $end
      $var wire 8 c HALF [7:0] $end
      $var wire 8 O drop_bits [7:0] $end
     $upscope $end
    $upscope $end
   $upscope $end
   $scope module dut5 $end
    $var wire 32 Y IN_A_W [31:0] $end
    $var wire 32 Y IN_B_W [31:0] $end
    $var wire 32 Y ACC_W [31:0] $end
    $var wire 1 Z USE_ROUNDING $end
    $var wire 1 Z USE_SATURATE $end
    $var wire 1 Z ALIGN $end
    $var wire 8 - a [7:0] $end
    $var wire 8 . b [7:0] $end
    $var wire 8 / acc [7:0] $end
    $var wire 8 U acc_next [7:0] $end
    $var wire 1 V overflow $end
    $var wire 32 \ INTERNAL_FULL_W [31:0] $end
    $var wire 16 P mult_full [15:0] $end
    $var wire 9 Q scaled_ext [8:0] $end
    $var wire 1 R resize_overflow $end
    $var wire 9 9 acc_ext [8:0] $end
    $var wire 9 W acc_sum_ext [8:0] $end
    $var wire 8 ^ ACC_MAX [7:0] $end
    $var wire 8 _ ACC_MIN [7:0] $end
    $var wire 9 ` ACC_MAX_EXT [8:0] $end
    $var wire 9 a ACC_MIN_EXT [8:0] $end
    $var wire 1 X acc_overflow $end
    $scope module gen_reduce_lsb $end
     $var wire 32 Y DROP_W [31:0] $end
     $var wire 8 S dropped_msbs [7:0] $end
     $var wire 1 T kept_sign $end
    $upscope $end
   $upscope $end
  $upscope $end
 $upscope $end
$enddefinitions $end


#0
b00000000000000000000000000000000 "
b00000000000000000000000000000000 #
b00000000 $
b00000000 %
b00000000 &
b00000000 '
b00000000 (
b00000000 )
b00000000 *
b00000000 +
b00000000 ,
b00000000 -
b00000000 .
b00000000 /
b0000000000000000000000000000000000000000000000000000000000000000 0
b0000000000000000000000000000000000000000000000000000000000000000 2
b0000000000000000000000000000000000000000000000000000000000000000 4
b000000000 6
b000000000 7
b000000000 8
b000000000 9
b00000000 :
0;
b00000000 <
0=
b00000000 >
0?
b0000000000000000 @
b000000000 A
b000000000 B
b00000000 C
b0000000000000000 D
b000000000 E
b000000000 F
b00000000 G
b0000000000000000 H
b000000000 I
b000000000 J
b00000000 K
0L
b000000000 M
b000000000 N
b00000000 O
b0000000000000000 P
b000000000 Q
0R
b00000000 S
0T
b00000000 U
0V
b000000000 W
0X
b00000000000000000000000000001000 Y
0Z
1[
b00000000000000000000000000010000 \
0]
b01111111 ^
b10000000 _
b001111111 `
b110000000 a
b000000000 b
b10000000 c
#1000
b00000000000000000000000000000001 #
#2000
b00000000000000000000000000000010 #
#3000
b00000000000000000000000000000011 #
#4000
b00000000000000000000000000000100 #
b00000101 $
b00000011 %
b0000000000001111 @
#5000
b00000000000000000000000000000101 #
b00000101 '
b00000011 (
b0000000000001111 D
#6000
b00000000000000000000000000000110 #
b00000101 *
b00000011 +
b0000000000001111 H
b00001111 O
#7000
b00000000000000000000000000000111 #
b01111111 $
b01111111 %
b00111111 :
b0011111100000001 @
b000111111 A
b000111111 B
b00111111 C
#8000
b00000000000000000000000000001000 #
b01111111 '
b01111111 (
b00111111 <
b0011111100000001 D
b000111111 E
b000111111 F
b00111111 G
#9000
b00000000000000000000000000001001 #
b01111111 *
b01111111 +
b00111111 >
b0011111100000001 H
b000111111 I
b000111111 J
b00111111 K
b000111111 M
b00000001 O
#10000
b00000000000000000000000000001010 #
b10000000 $
b10000000 %
b01000000 :
b0100000000000000 @
b001000000 A
b001000000 B
b01000000 C
#11000
b00000000000000000000000000001011 #
b10000000 '
b10000000 (
b01000000 <
b0100000000000000 D
b001000000 E
b001000000 F
b01000000 G
#12000
b00000000000000000000000000001100 #
b10000000 *
b10000000 +
b01000000 >
b0100000000000000 H
b001000000 I
b001000000 J
b01000000 K
b001000000 M
b00000000 O
#13000
b00000000000000000000000000001101 #
b00010010 $
b11010111 %
b11111111 &
b0101000100011111000101011010011111011101110100111110011100010010 0
b1010010110000110001111100111100110100010111001010000110111010111 2
b1010010001001110101110010111000110101000001100011100101111111111 4
b111111111 6
b11111100 :
b1111110100011110 @
b111111101 A
b111111100 B
b11111101 C
#14000
b00000000000000000000000000001110 #
b00010010 '
b11010111 (
b11111111 )
b111111111 7
b11111100 <
b1111110100011110 D
b111111101 E
b111111100 F
b11111101 G
#15000
b00000000000000000000000000001111 #
b00010010 *
b11010111 +
b11111111 ,
b111111111 8
b11111100 >
b1111110100011110 H
b111111101 I
b111111100 J
b11111101 K
b111111101 M
b00011110 O
#16000
b00000000000000000000000000010000 #
b00010010 -
b11010111 .
b11111111 /
b111111111 9
b1111110100011110 P
b000011110 Q
1R
b11111101 S
b00011101 U
1V
b000011101 W
#17000
b00000000000000000000000000010001 #
b01110010 $
b11101110 %
b00010001 &
b0110100101010101101101011001001001000000111101101001001001110010 0
b0111000001010001111010000111011110001100101011000000010011101110 2
b1101101011110111011011010110100010001111000100110000100100010001 4
b000010001 6
b00001000 :
b1111011111111100 @
b111110111 A
b000001000 B
b11110111 C
#18000
b00000000000000000000000000010010 #
b01110010 '
b11101110 (
b00010001 )
b000010001 7
b00001000 <
b1111011111111100 D
b111110111 E
b000001000 F
b11110111 G
#19000
b00000000000000000000000000010011 #
b01110010 *
b11101110 +
b00010001 ,
b000010001 8
b00001001 >
b1111011111111100 H
b111111000 I
b000001001 J
b11110111 K
1L
b111110111 M
b000000001 N
b11111100 O
#20000
b00000000000000000000000000010100 #
b01110010 -
b11101110 .
b00010001 /
b000010001 9
b1111011111111100 P
b111111100 Q
b11110111 S
1T
b00001101 U
b000001101 W
#21000
b00000000000000000000000000010101 #
b01001011 $
b10000111 %
b00010101 &
b1001000011101001010000000110101111011101111001000000010001001011 0
b1010111110101100000110110100000001000011101000110001110110000111 2
b0010011111100110100101011100111101010001011000000110100100010101 4
b000010101 6
b11110001 :
b1101110010001101 @
b111011100 A
b111110001 B
b11011100 C
#22000
b00000000000000000000000000010110 #
b01001011 '
b10000111 (
b00010101 )
b000010101 7
b11110001 <
b1101110010001101 D
b111011100 E
b111110001 F
b11011100 G
#23000
b00000000000000000000000000010111 #
b01001011 *
b10000111 +
b00010101 ,
b000010101 8
b11110010 >
b1101110010001101 H
b111011101 I
b111110010 J
b11011100 K
b111011100 M
b10001101 O
#24000
b00000000000000000000000000011000 #
b01001011 -
b10000111 .
b00010101 /
b000010101 9
b1101110010001101 P
b110001101 Q
b11011100 S
b10100010 U
b110100010 W
#25000
b00000000000000000000000000011001 #
b11011000 $
b11111110 %
b01001001 &
b0011011011111010010001101111100011110110010011101001110011011000 0
b0100010100011000101110111001011111000000010010110010001011111110 2
b0111010000001010011111100001000010001110110010000010100001001001 4
b001001001 6
b01001001 :
b0000000001010000 @
b000000000 A
b001001001 B
b00000000 C
#26000
b00000000000000000000000000011010 #
b11011000 '
b11111110 (
b01001001 )
b001001001 7
b01001001 <
b0000000001010000 D
b000000000 E
b001001001 F
b00000000 G
#27000
b00000000000000000000000000011011 #
b11011000 *
b11111110 +
b01001001 ,
b001001001 8
b01001001 >
b0000000001010000 H
b000000000 I
b001001001 J
b00000000 K
0L
b000000000 M
b000000000 N
b01010000 O
#28000
b00000000000000000000000000011100 #
b11011000 -
b11111110 .
b01001001 /
b001001001 9
b0000000001010000 P
b001010000 Q
0R
b00000000 S
0T
b10011001 U
b010011001 W
1X
#29000
b00000000000000000000000000011101 #
b10000101 $
b01110000 %
b10011011 &
b0010001100011110000000110100111000010010000000000011110110000101 0
b0100100000100011111011001101100101000000110110100111111101110000 2
b1111101000001001101010000111101100001110110011111100011110011011 4
b110011011 6
b01100101 :
1;
b1100101000110000 @
b111001010 A
b101100101 B
b11001010 C
#30000
b00000000000000000000000000011110 #
b10000101 '
b01110000 (
b10011011 )
b110011011 7
b10000000 <
1=
b1100101000110000 D
b111001010 E
b101100101 F
b11001010 G
#31000
b00000000000000000000000000011111 #
b10000101 *
b01110000 +
b10011011 ,
b110011011 8
b10000000 >
1?
b1100101000110000 H
b111001010 I
b101100101 J
b11001010 K
b111001010 M
b00110000 O
#32000
b00000000000000000000000000100000 #
b10000101 -
b01110000 .
b10011011 /
b110011011 9
b1100101000110000 P
b000110000 Q
1R
b11001010 S
b11001011 U
b111001011 W
0X
#33000
b00000000000000000000000000100001 #
b01001010 $
b11110100 %
b00001111 &
b0000000110110100001100011001001110000101001111011100100101001010 0
b1111111000000001010101010110111101100111101000000101000111110100 2
b0010111110011110100011011001000000010001110011111101000000001111 4
b000001111 6
b00001011 :
0;
b1111110010001000 @
b111111100 A
b000001011 B
b11111100 C
#34000
b00000000000000000000000000100010 #
b01001010 '
b11110100 (
b00001111 )
b000001111 7
b00001011 <
0=
b1111110010001000 D
b111111100 E
b000001011 F
b11111100 G
#35000
b00000000000000000000000000100011 #
b01001010 *
b11110100 +
b00001111 ,
b000001111 8
b00001100 >
0?
b1111110010001000 H
b111111101 I
b000001100 J
b11111100 K
1L
b111111100 M
b000000001 N
b10001000 O
#36000
b00000000000000000000000000100100 #
b01001010 -
b11110100 .
b00001111 /
b000001111 9
b1111110010001000 P
b110001000 Q
b11111100 S
1T
b10010111 U
b110010111 W
#37000
b00000000000000000000000000100101 #
b10011101 $
b00111011 %
b11111001 &
b0010010101110100110000011100100011100111100011110101100010011101 0
b0011000001111111010010000100000101110111101001001010110000111011 2
b1111110111101011010100111010101001011100101000010010111011111001 4
b111111001 6
b11100010 :
b1110100100101111 @
b111101001 A
b111100010 B
b11101001 C
#38000
b00000000000000000000000000100110 #
b10011101 '
b00111011 (
b11111001 )
b111111001 7
b11100010 <
b1110100100101111 D
b111101001 E
b111100010 F
b11101001 G
#39000
b00000000000000000000000000100111 #
b10011101 *
b00111011 +
b11111001 ,
b111111001 8
b11100010 >
b1110100100101111 H
b111101001 I
b111100010 J
b11101001 K
0L
b111101001 M
b000000000 N
b00101111 O
#40000
b00000000000000000000000000101000 #
b10011101 -
b00111011 .
b11111001 /
b111111001 9
b1110100100101111 P
b000101111 Q
b11101001 S
0T
b00101000 U
b000101000 W
#41000
b00000000000000000000000000101001 #
b11101111 $
b01001011 %
b10101001 &
b0001001111101001010010101111111111100111100011100101000011101111 0
b0100100001011110110100101110011101111111110010111010110001001011 2
b1001011101010110110101111000011100100100010100001110111010101001 4
b110101001 6
b10100100 :
b1111101100000101 @
b111111011 A
b110100100 B
b11111011 C
#42000
b00000000000000000000000000101010 #
b11101111 '
b01001011 (
b10101001 )
b110101001 7
b10100100 <
b1111101100000101 D
b111111011 E
b110100100 F
b11111011 G
#43000
b00000000000000000000000000101011 #
b11101111 *
b01001011 +
b10101001 ,
b110101001 8
b10100100 >
b1111101100000101 H
b111111011 I
b110100100 J
b11111011 K
b111111011 M
b00000101 O
#44000
b00000000000000000000000000101100 #
b11101111 -
b01001011 .
b10101001 /
b110101001 9
b1111101100000101 P
b000000101 Q
b11111011 S
b10101110 U
b110101110 W
#45000
b00000000000000000000000000101101 #
b11100100 $
b11011011 %
b00001100 &
b0000000000111011010111100010000001110111111101111001000011100100 0
b0111101111010100110001000100000101011010011010100010010111011011 2
b0111111110010000111010101101101000101011001110100010000000001100 4
b000001100 6
b00010000 :
b0000010000001100 @
b000000100 A
b000010000 B
b00000100 C
#46000
b00000000000000000000000000101110 #
b11100100 '
b11011011 (
b00001100 )
b000001100 7
b00010000 <
b0000010000001100 D
b000000100 E
b000010000 F
b00000100 G
#47000
b00000000000000000000000000101111 #
b11100100 *
b11011011 +
b00001100 ,
b000001100 8
b00010000 >
b0000010000001100 H
b000000100 I
b000010000 J
b00000100 K
b000000100 M
b00001100 O
#48000
b00000000000000000000000000110000 #
b11100100 -
b11011011 .
b00001100 /
b000001100 9
b0000010000001100 P
b000001100 Q
b00000100 S
b00011000 U
b000011000 W
#49000
b00000000000000000000000000110001 #
b01101011 $
b10000011 %
b10001001 &
b1101010000111101010101100110110001100100011111110000011101101011 0
b1110111011000011000001100011110111011000011101010100100010000011 2
b1111001001111110000111111100101011001001101111000000111110001001 4
b110001001 6
b01010100 :
1;
b1100101111000001 @
b111001011 A
b101010100 B
b11001011 C
#50000
b00000000000000000000000000110010 #
b01101011 '
b10000011 (
b10001001 )
b110001001 7
b10000000 <
1=
b1100101111000001 D
b111001011 E
b101010100 F
b11001011 G
#51000
b00000000000000000000000000110011 #
b01101011 *
b10000011 +
b10001001 ,
b110001001 8
b10000000 >
1?
b1100101111000001 H
b111001100 I
b101010101 J
b11001011 K
1L
b111001011 M
b000000001 N
b11000001 O
#52000
b00000000000000000000000000110100 #
b01101011 -
b10000011 .
b10001001 /
b110001001 9
b1100101111000001 P
b111000001 Q
b11001011 S
1T
b01001010 U
b101001010 W
1X
#53000
b00000000000000000000000000110101 #
b10100011 $
b00111011 %
b01100011 &
b0011011011011000110011111000010001011110011011001000100110100011 0
b0110010001010100010011101010000011111001100000111011011100111011 2
b1000101111001011101111111111100101011011111000001000100101100011 4
b001100011 6
b01001101 :
0;
b1110101010010001 @
b111101010 A
b001001101 B
b11101010 C
#54000
b00000000000000000000000000110110 #
b10100011 '
b00111011 (
b01100011 )
b001100011 7
b01001101 <
0=
b1110101010010001 D
b111101010 E
b001001101 F
b11101010 G
#55000
b00000000000000000000000000110111 #
b10100011 *
b00111011 +
b01100011 ,
b001100011 8
b01001110 >
0?
b1110101010010001 H
b111101011 I
b001001110 J
b11101010 K
b111101010 M
b10010001 O
#56000
b00000000000000000000000000111000 #
b10100011 -
b00111011 .
b01100011 /
b001100011 9
b1110101010010001 P
b110010001 Q
b11101010 S
b11110100 U
b111110100 W
0X
#57000
b00000000000000000000000000111001 #
b00010001 $
b11011101 %
b10011011 &
b0101100101100111000011000000110010010110001000000110101000010001 0
b0011001101000000010110000110000010011111001001010111010111011101 2
b0101011100111111011001110010011011101110101100101101110110011011 4
b110011011 6
b10011000 :
b1111110110101101 @
b111111101 A
b110011000 B
b11111101 C
#58000
b00000000000000000000000000111010 #
b00010001 '
b11011101 (
b10011011 )
b110011011 7
b10011000 <
b1111110110101101 D
b111111101 E
b110011000 F
b11111101 G
#59000
b00000000000000000000000000111011 #
b00010001 *
b11011101 +
b10011011 ,
b110011011 8
b10011001 >
b1111110110101101 H
b111111110 I
b110011001 J
b11111101 K
b111111101 M
b10101101 O
#60000
b00000000000000000000000000111100 #
b00010001 -
b11011101 .
b10011011 /
b110011011 9
b1111110110101101 P
b110101101 Q
b11111101 S
b01001000 U
b101001000 W
1X
#61000
b00000000000000000000000000111101 #
b10011110 $
b10010010 %
b11000010 &
b1110001100101101100011111010001000101001100111011100010110011110 0
b1110101111110111011001011110101100011001000001011000111110010010 2
b1010101000101111100111101010001111100001000011111101110111000010 4
b111000010 6
b11101100 :
b0010101000011100 @
b000101010 A
b111101100 B
b00101010 C
#62000
b00000000000000000000000000111110 #
b10011110 '
b10010010 (
b11000010 )
b111000010 7
b11101100 <
b0010101000011100 D
b000101010 E
b111101100 F
b00101010 G
#63000
b00000000000000000000000000111111 #
b10011110 *
b10010010 +
b11000010 ,
b111000010 8
b11101100 >
b0010101000011100 H
b000101010 I
b111101100 J
b00101010 K
0L
b000101010 M
b000000000 N
b00011100 O
#64000
b00000000000000000000000001000000 #
b10011110 -
b10010010 .
b11000010 /
b111000010 9
b0010101000011100 P
b000011100 Q
b00101010 S
0T
b11011110 U
b111011110 W
0X
#65000
b00000000000000000000000001000001 #
b01000101 $
b10101010 %
b00110100 &
b0000011100001000100001001111111100100000000011001001100101000101 0
b1011000011111111001011111001011110011110110110001011010110101010 2
b1011001000110011110001001001101001011010100110110011000100110100 4
b000110100 6
b00011100 :
b1110100011010010 @
b111101000 A
b000011100 B
b11101000 C
#66000
b00000000000000000000000001000010 #
b01000101 '
b10101010 (
b00110100 )
b000110100 7
b00011100 <
b1110100011010010 D
b111101000 E
b000011100 F
b11101000 G
#67000
b00000000000000000000000001000011 #
b01000101 *
b10101010 +
b00110100 ,
b000110100 8
b00011101 >
b1110100011010010 H
b111101001 I
b000011101 J
b11101000 K
1L
b111101000 M
b000000001 N
b11010010 O
#68000
b00000000000000000000000001000100 #
b01000101 -
b10101010 .
b00110100 /
b000110100 9
b1110100011010010 P
b111010010 Q
b11101000 S
1T
b00000110 U
b000000110 W
#69000
b00000000000000000000000001000101 #
b00010100 $
b10011110 %
b11001100 &
b0101001001110111100101001100101000000001000100111111000100010100 0
b0010010001011001001001100001000000000011000011110111011110011110 2
b1111000001010000111010111000011011001101110000001111000111001100 4
b111001100 6
b11000100 :
b1111100001011000 @
b111111000 A
b111000100 B
b11111000 C
#70000
b00000000000000000000000001000110 #
b00010100 '
b10011110 (
b11001100 )
b111001100 7
b11000100 <
b1111100001011000 D
b111111000 E
b111000100 F
b11111000 G
#71000
b00000000000000000000000001000111 #
b00010100 *
b10011110 +
b11001100 ,
b111001100 8
b11000100 >
b1111100001011000 H
b111111000 I
b111000100 J
b11111000 K
0L
b111111000 M
b000000000 N
b01011000 O
#72000
b00000000000000000000000001001000 #
b00010100 -
b10011110 .
b11001100 /
b111001100 9
b1111100001011000 P
b001011000 Q
b11111000 S
0T
b00100100 U
b000100100 W
#73000
b00000000000000000000000001001001 #
b10110010 $
b11110101 %
b01101100 &
b0001000110011000110001000111001011010010100010101010010110110010 0
b0100110111010010000100100001101001010110011010001010101011110101 2
b0011100000011101101010011010000101111100000110100011110001101100 4
b001101100 6
b01101111 :
b0000001101011010 @
b000000011 A
b001101111 B
b00000011 C
#74000
b00000000000000000000000001001010 #
b10110010 '
b11110101 (
b01101100 )
b001101100 7
b01101111 <
b0000001101011010 D
b000000011 E
b001101111 F
b00000011 G
#75000
b00000000000000000000000001001011 #
b10110010 *
b11110101 +
b01101100 ,
b001101100 8
b01101111 >
b0000001101011010 H
b000000011 I
b001101111 J
b00000011 K
b000000011 M
b01011010 O
#76000
b00000000000000000000000001001100 #
b10110010 -
b11110101 .
b01101100 /
b001101100 9
b0000001101011010 P
b001011010 Q
b00000011 S
b11000110 U
b011000110 W
1X
#77000
b00000000000000000000000001001101 #
b10011010 $
b11001111 %
b00100100 &
b1101000100101011000110101101001011111001011101010110010110011010 0
b1100001001110101101000010100001001010110001100101001100011001111 2
b0000000011011000110101011001111011100010001100000100010000100100 4
b000100100 6
b00110111 :
b0001001110000110 @
b000010011 A
b000110111 B
b00010011 C
#78000
b00000000000000000000000001001110 #
b10011010 '
b11001111 (
b00100100 )
b000100100 7
b00110111 <
b0001001110000110 D
b000010011 E
b000110111 F
b00010011 G
#79000
b00000000000000000000000001001111 #
b10011010 *
b11001111 +
b00100100 ,
b000100100 8
b00111000 >
b0001001110000110 H
b000010100 I
b000111000 J
b00010011 K
1L
b000010011 M
b000000001 N
b10000110 O
#80000
b00000000000000000000000001010000 #
b10011010 -
b11001111 .
b00100100 /
b000100100 9
b0001001110000110 P
b110000110 Q
b00010011 S
1T
b10101010 U
b110101010 W
0X
#81000
b00000000000000000000000001010001 #
b01101000 $
b00011110 %
b10010101 &
b0010010010010111011001111010111100110001101100001101000101101000 0
b0010100011111000011001011100001111001101011111111001100000011110 2
b0100001011000110101101000100010001001111011101011011110010010101 4
b110010101 6
b10100001 :
b0000110000110000 @
b000001100 A
b110100001 B
b00001100 C
#82000
b00000000000000000000000001010010 #
b01101000 '
b00011110 (
b10010101 )
b110010101 7
b10100001 <
b0000110000110000 D
b000001100 E
b110100001 F
b00001100 G
#83000
b00000000000000000000000001010011 #
b01101000 *
b00011110 +
b10010101 ,
b110010101 8
b10100001 >
b0000110000110000 H
b000001100 I
b110100001 J
b00001100 K
0L
b000001100 M
b000000000 N
b00110000 O
#84000
b00000000000000000000000001010100 #
b01101000 -
b00011110 .
b10010101 /
b110010101 9
b0000110000110000 P
b000110000 Q
b00001100 S
0T
b11000101 U
b111000101 W
#85000
b00000000000000000000000001010101 #
b01010101 $
b01100101 %
b10000000 &
b0010000110110100101111100000000100001010110011110100111001010101 0
b1110101001000011101101100110100110000010111111110010111101100101 2
b0000010100000011100110101101011011101001010101001111110110000000 4
b110000000 6
b0010000110001001 @
b000100001 A
b00100001 C
#86000
b00000000000000000000000001010110 #
b01010101 '
b01100101 (
b10000000 )
b110000000 7
b0010000110001001 D
b000100001 E
b00100001 G
#87000
b00000000000000000000000001010111 #
b01010101 *
b01100101 +
b10000000 ,
b110000000 8
b10100010 >
b0010000110001001 H
b000100010 I
b110100010 J
b00100001 K
1L
b000100001 M
b000000001 N
b10001001 O
#88000
b00000000000000000000000001011000 #
b01010101 -
b01100101 .
b10000000 /
b110000000 9
b0010000110001001 P
b110001001 Q
b00100001 S
1T
b00001001 U
b100001001 W
1X
#89000
b00000000000000000000000001011001 #
b10110001 $
b01010111 %
b10001010 &
b0000000100111010011100011101010101101001000011001110100110110001 0
b1000011110111100011001001111110011100100000100010011010101010111 2
b0000011000100001101001001000111110011110101110001101001010001010 4
b110001010 6
b01101111 :
1;
b1110010100100111 @
b111100101 A
b101101111 B
b11100101 C
#90000
b00000000000000000000000001011010 #
b10110001 '
b01010111 (
b10001010 )
b110001010 7
b10000000 <
1=
b1110010100100111 D
b111100101 E
b101101111 F
b11100101 G
#91000
b00000000000000000000000001011011 #
b10110001 *
b01010111 +
b10001010 ,
b110001010 8
b10000000 >
1?
b1110010100100111 H
b111100101 I
b101101111 J
b11100101 K
0L
b111100101 M
b000000000 N
b00100111 O
#92000
b00000000000000000000000001011100 #
b10110001 -
b01010111 .
b10001010 /
b110001010 9
b1110010100100111 P
b000100111 Q
b11100101 S
0T
b10110001 U
b110110001 W
0X
#93000
b00000000000000000000000001011101 #
b10000101 $
b01001000 %
b00000011 &
b0101011000001010001001011001100111111111110100110110100110000101 0
b1110011011001000011001010011101000100101001010010010110101001000 2
b0100101100001111010010111111000111011110000100011110001000000011 4
b000000011 6
b11100000 :
0;
b1101110101101000 @
b111011101 A
b111100000 B
b11011101 C
#94000
b00000000000000000000000001011110 #
b10000101 '
b01001000 (
b00000011 )
b000000011 7
b11100000 <
0=
b1101110101101000 D
b111011101 E
b111100000 F
b11011101 G
#95000
b00000000000000000000000001011111 #
b10000101 *
b01001000 +
b00000011 ,
b000000011 8
b11100000 >
0?
b1101110101101000 H
b111011101 I
b111100000 J
b11011101 K
b111011101 M
b01101000 O
#96000
b00000000000000000000000001100000 #
b10000101 -
b01001000 .
b00000011 /
b000000011 9
b1101110101101000 P
b001101000 Q
b11011101 S
b01101011 U
b001101011 W
#97000
b00000000000000000000000001100001 #
b10000011 $
b11010000 %
b11010000 &
b1110111000001101100110110100001010010101110100011110100110000011 0
b1100001100111111100010000010001010101000111101011111010111010000 2
b0011010111011100001110011011110110001001011100111100100111010000 4
b111010000 6
b11100111 :
b0001011101110000 @
b000010111 A
b111100111 B
b00010111 C
#98000
b00000000000000000000000001100010 #
b10000011 '
b11010000 (
b11010000 )
b111010000 7
b11100111 <
b0001011101110000 D
b000010111 E
b111100111 F
b00010111 G
#99000
b00000000000000000000000001100011 #
b10000011 *
b11010000 +
b11010000 ,
b111010000 8
b11100111 >
b0001011101110000 H
b000010111 I
b111100111 J
b00010111 K
b000010111 M
b01110000 O
#100000
b00000000000000000000000001100100 #
b10000011 -
b11010000 .
b11010000 /
b111010000 9
b0001011101110000 P
b001110000 Q
b00010111 S
b01000000 U
b001000000 W
#101000
b00000000000000000000000001100101 #
b10110000 $
b10101010 %
b11011100 &
b0011010100010101110100111010001101000000010111100100010010110000 0
b0000000100101111101001111101010101101110010101110111100010101010 2
b0010110011010001110111001110010110101110101111000101000011011100 4
b111011100 6
b11110110 :
b0001101011100000 @
b000011010 A
b111110110 B
b00011010 C
#102000
b00000000000000000000000001100110 #
b10110000 '
b10101010 (
b11011100 )
b111011100 7
b11110110 <
b0001101011100000 D
b000011010 E
b111110110 F
b00011010 G
#103000
b00000000000000000000000001100111 #
b10110000 *
b10101010 +
b11011100 ,
b111011100 8
b11110111 >
b0001101011100000 H
b000011011 I
b111110111 J
b00011010 K
1L
b000011010 M
b000000001 N
b11100000 O
#104000
b00000000000000000000000001101000 #
b10110000 -
b10101010 .
b11011100 /
b111011100 9
b0001101011100000 P
b111100000 Q
b00011010 S
1T
b10111100 U
b110111100 W
#105000
b00000000000000000000000001101001 #
b11010100 $
b11001111 %
b01001010 &
b0110010101101110100101010000101011111110111011001110000011010100 0
b1101110100011110011100010011001000011000001000001000000111001111 2
b1001011001011010001111001111101010010101110111111010110001001010 4
b001001010 6
b01010010 :
b0000100001101100 @
b000001000 A
b001010010 B
b00001000 C
#106000
b00000000000000000000000001101010 #
b11010100 '
b11001111 (
b01001010 )
b001001010 7
b01010010 <
b0000100001101100 D
b000001000 E
b001010010 F
b00001000 G
