rtl/math/fixed_point/mult/sim/wave.vcd
$version Generated by VerilatedVcd $end
$timescale 1ps $end
 $scope module TOP $end
  $scope module tb_agr_fxp_mult $end
   $var wire 32 " errors [31:0] $end
   $var wire 32 # checks [31:0] $end
   $var wire 32 8 A_AW [31:0] $end
   $var wire 32 8 A_BW [31:0] $end
   $var wire 32 8 A_OW [31:0] $end
   $var wire 1 9 A_TM $end
   $var wire 8 $ a_a [7:0] $end
   $var wire 8 % a_b [7:0] $end
   $var wire 16 & a_full [15:0] $end
   $var wire 8 ' a_res [7:0] $end
   $var wire 1 ( a_ovf $end
   $var wire 32 : B_AW [31:0] $end
   $var wire 32 ; B_BW [31:0] $end
   $var wire 32 < B_OW [31:0] $end
   $var wire 1 = B_TM $end
   $var wire 12 ) b_a [11:0] $end
   $var wire 20 * b_b [19:0] $end
   $var wire 32 1 b_full [31:0] $end
   $var wire 16 2 b_res [15:0] $end
   $var wire 1 3 b_ovf $end
   $var wire 32 > C_AW [31:0] $end
   $var wire 32 > C_BW [31:0] $end
   $var wire 32 < C_OW [31:0] $end
   $var wire 1 9 C_TM $end
   $var wire 6 + c_a [5:0] $end
   $var wire 6 , c_b [5:0] $end
   $var wire 12 4 c_full [11:0] $end
   $var wire 16 5 c_res [15:0] $end
   $var wire 1 ? c_ovf $end
   $var wire 32 @ D_AW [31:0] $end
   $var wire 32 @ D_BW [31:0] $end
   $var wire 32 8 D_OW [31:0] $end
   $var wire 1 9 D_TM $end
   $var wire 4 - d_a [3:0] $end
   $var wire 4 . d_b [3:0] $end
   $var wire 8 / d_full [7:0] $end
   $var wire 8 / d_res [7:0] $end
   $var wire 1 ? d_ovf $end
   $scope module dut_a $end
    $var wire 32 8 IN_A_W [31:0] $end
    $var wire 32 8 IN_B_W [31:0] $end
    $var wire 32 8 OUT_W [31:0] $end
    $var wire 1 9 SIGNED $end
    $var wire 1 9 TRUNCATE_MSB $end
    $var wire 8 $ a [7:0] $end
    $var wire 8 % b [7:0] $end
    $var wire 16 & result_full [15:0] $end
    $var wire 8 ' result [7:0] $end
    $var wire 1 ( overflow $end
    $var wire 32 < OUT_FULL_W [31:0] $end
    $scope module gen_trunc_msb $end
     $var wire 32 8 DROP_W [31:0] $end
     $var wire 8 0 dropped_lsbs [7:0] $end
    $upscope $end
   $upscope $end
   $scope module dut_b $end
    $var wire 32 : IN_A_W [31:0] $end
    $var wire 32 ; IN_B_W [31:0] $end
    $var wire 32 < OUT_W [31:0] $end
    $var wire 1 9 SIGNED $end
    $var wire 1 = TRUNCATE_MSB $end
    $var wire 12 ) a [11:0] $end
    $var wire 20 * b [19:0] $end
    $var wire 32 1 result_full [31:0] $end
    $var wire 16 2 result [15:0] $end
    $var wire 1 3 overflow $end
    $var wire 32 A OUT_FULL_W [31:0] $end
    $scope module gen_trunc_lsb $end
     $var wire 32 < DROP_W [31:0] $end
     $var wire 16 6 dropped_msbs [15:0] $end
     $var wire 1 7 kept_sign $end
    $upscope $end
   $upscope $end
   $scope module dut_c $end
    $var wire 32 > IN_A_W [31:0] $end
    $var wire 32 > IN_B_W [31:0] $end
    $var wire 32 < OUT_W [31:0] $end
    $var wire 1 9 SIGNED $end
    $var wire 1 9 TRUNCATE_MSB $end
    $var wire 6 + a [5:0] $end
    $var wire 6 , b [5:0] $end
    $var wire 12 4 result_full [11:0] $end
    $var wire 16 5 result [15:0] $end
    $var wire 1 ? overflow $end
    $var wire 32 : OUT_FULL_W [31:0] $end
    $scope module gen_extend $end
     $var wire 32 @ EXT_W [31:0] $end
    $upscope $end
   $upscope $end
   $scope module dut_d $end
    $var wire 32 @ IN_A_W [31:0] $end
    $var wire 32 @ IN_B_W [31:0] $end
    $var wire 32 8 OUT_W [31:0] $end
    $var wire 1 9 SIGNED $end
    $var wire 1 9 TRUNCATE_MSB $end
    $var wire 4 - a [3:0] $end
    $var wire 4 . b [3:0] $end
    $var wire 8 / result_full [7:0] $end
    $var wire 8 / result [7:0] $end
    $var wire 1 ? overflow $end
    $var wire 32 8 OUT_FULL_W [31:0] $end
   $upscope $end
  $upscope $end
 $upscope $end
$enddefinitions $end


#0
b00000000000000000000000000000000 "
b00000000000000000000000000000000 #
b00000000 $
b00000000 %
b0000000000000000 &
b00000000 '
0(
b000000000000 )
b00000000000000000000 *
b000000 +
b000000 ,
b0000 -
b0000 .
b00000000 /
b00000000 0
b00000000000000000000000000000000 1
b0000000000000000 2
03
b000000000000 4
b0000000000000000 5
b0000000000000000 6
07
b00000000000000000000000000001000 8
19
b00000000000000000000000000001100 :
b00000000000000000000000000010100 ;
b00000000000000000000000000010000 <
0=
b00000000000000000000000000000110 >
0?
b00000000000000000000000000000100 @
b00000000000000000000000000100000 A
#1
b00000000000000000000000000000001 #
b00000001 $
b00000001 %
b0000000000000001 &
1(
b00000001 0
#2
b00000000000000000000000000000010 #
b11111111 $
b11111111 %
#3
b00000000000000000000000000000011 #
b00000001 %
b1111111111111111 &
b11111111 '
b11111111 0
#4
b00000000000000000000000000000100 #
b00000001 $
b11111111 %
#5
b00000000000000000000000000000101 #
b01111111 $
b01111111 %
b0011111100000001 &
b00111111 '
b00000001 0
#6
b00000000000000000000000000000110 #
b10000000 $
b10000000 %
b0100000000000000 &
b01000000 '
0(
b00000000 0
#7
b00000000000000000000000000000111 #
b01111111 %
b1100000010000000 &
b11000000 '
1(
b10000000 0
#8
b00000000000000000000000000001000 #
b11111111 %
b0000000010000000 &
b00000000 '
#9
b00000000000000000000000000001001 #
b01111111 $
b1111111110000001 &
b11111111 '
b10000001 0
#10
b00000000000000000000000000001010 #
#11
b00000000000000000000000000001011 #
b000000000001 )
b00000000000000000001 *
b00000000000000000000000000000001 1
b0000000000000001 2
#12
b00000000000000000000000000001100 #
b111111111111 )
b11111111111111111111 *
#13
b00000000000000000000000000001101 #
b00000000000000000001 *
b11111111111111111111111111111111 1
b1111111111111111 2
b1111111111111111 6
17
#14
b00000000000000000000000000001110 #
b011111111111 )
b01111111111111111111 *
b00111111111101111111100000000001 1
b1111100000000001 2
13
b0011111111110111 6
#15
b00000000000000000000000000001111 #
b100000000000 )
b10000000000000000000 *
b01000000000000000000000000000000 1
b0000000000000000 2
b0100000000000000 6
07
#16
b00000000000000000000000000010000 #
b01111111111111111111 *
b11000000000000000000100000000000 1
b0000100000000000 2
b1100000000000000 6
#17
b00000000000000000000000000010001 #
b11111111111111111111 *
b00000000000000000000100000000000 1
03
b0000000000000000 6
#18
b00000000000000000000000000010010 #
b011111111111 )
b11111111111111111111100000000001 1
b1111100000000001 2
b1111111111111111 6
17
#19
b00000000000000000000000000010011 #
b000000000010 )
b00000000000000000011 *
b00000000000000000000000000000110 1
b0000000000000110 2
b0000000000000000 6
07
#20
b00000000000000000000000000010100 #
#21
b00000000000000000000000000010101 #
b011111 +
b011111 ,
b001111000001 4
b0000001111000001 5
#22
b00000000000000000000000000010110 #
b100000 +
b100000 ,
b010000000000 4
b0000010000000000 5
#23
b00000000000000000000000000010111 #
b011111 ,
b110000100000 4
b1111110000100000 5
#24
b00000000000000000000000000011000 #
b111111 +
b000001 ,
b111111111111 4
b1111111111111111 5
#25
b00000000000000000000000000011001 #
#26
b00000000000000000000000000011010 #
b0111 -
b0111 .
b00110001 /
#27
b00000000000000000000000000011011 #
b1000 -
b1000 .
b01000000 /
#28
b00000000000000000000000000011100 #
b0111 .
b11001000 /
#29
b00000000000000000000000000011101 #
b1111 -
b0001 .
b11111111 /
#30
b00000000000000000000000000011110 #
b00000001 $
b00000001 %
b0000000000000001 &
b00000000 '
b00000001 0
#31
b00000000000000000000000000011111 #
b10000000 $
b10000000 %
b0100000000000000 &
b01000000 '
0(
b00000000 0
#32
b00000000000000000000000000100000 #
b01000000 $
b00000010 %
b0000000010000000 &
b00000000 '
1(
b10000000 0
#33
b00000000000000000000000000100001 #
b01000001 $
b0000000010000010 &
b10000010 0
#34
b00000000000000000000000000100010 #
b000000000001 )
b00000000000000000001 *
b00000000000000000000000000000001 1
b0000000000000001 2
#35
b00000000000000000000000000100011 #
b011111111111 )
b01111111111111111111 *
b00111111111101111111100000000001 1
b1111100000000001 2
13
b0011111111110111 6
17
#36
b00000000000000000000000000100100 #
b111111111111 )
b00000111111111111111 *
b11111111111111111000000000000001 1
b1000000000000001 2
03
b1111111111111111 6
#37
b00000000000000000000000000100101 #
b11111000000000000000 *
b00000000000000001000000000000000 1
b1000000000000000 2
13
b0000000000000000 6
#38
b00000000000000000000000000100110 #
b11010111 $
b00010010 %
b1111110100011110 &
b11111101 '
b00011110 0
#39
b00000000000000000000000000100111 #
b001001110010 )
b00011100101111111111 *
b00000100011001001101010110001110 1
b1101010110001110 2
b0000010001100100 6
#40
b00000000000000000000000000101000 #
b010001 +
b101110 ,
b111011001110 4
b1111111011001110 5
#41
b00000000000000000000000000101001 #
b0111 -
b1011 .
b11011101 /
#42
b00000000000000000000000000101010 #
b11011000 $
b00010101 %
b1111110010111000 &
b11111100 '
b10111000 0
#43
b00000000000000000000000000101011 #
b100001001001 )
b10110010001011111110 *
b00100101100001010000101001101110 1
b0000101001101110 2
b0010010110000101 6
07
#44
b00000000000000000000000000101100 #
b110000 +
b000101 ,
b111110110000 4
b1111111110110000 5
#45
b00000000000000000000000000101101 #
b1010 -
b00011110 /
#46
b00000000000000000000000000101110 #
b00001111 $
b11110100 %
b1111111101001100 &
b11111111 '
b01001100 0
#47
b00000000000000000000000000101111 #
b110000111011 )
b11110101100010011101 *
b00000010011101101111100000101111 1
b1111100000101111 2
b0000001001110110 6
17
#48
b00000000000000000000000000110000 #
b101111 +
b111001 ,
b000001110111 4
b0000000001110111 5
#49
b00000000000000000000000000110001 #
b1001 -
b00100011 /
#50
b00000000000000000000000000110010 #
b11011011 $
b11100100 %
b0000010000001100 &
b00000100 '
b00001100 0
#51
b00000000000000000000000000110011 #
b011101101011 )
b10100010000000001100 *
b11010100011010111011100100000100 1
b1011100100000100 2
b1101010001101011 6
#52
b00000000000000000000000000110100 #
b001001 +
b000011 ,
b000000011011 4
b0000000000011011 5
#53
b00000000000000000000000000110101 #
b1011 -
b0011 .
b11110001 /
#54
b00000000000000000000000000110110 #
b00010001 $
b01100011 %
b0000011010010011 &
b00000110 '
b10010011 0
#55
b00000000000000000000000000110111 #
b110110011011 )
b01010111010111011101 *
b11110010111011001100010111001111 1
b1100010111001111 2
b1111001011101100 6
#56
b00000000000000000000000000111000 #
b010010 +
b011110 ,
b001000011100 4
b0000001000011100 5
#57
b00000000000000000000000000111001 #
b0101 -
b0010 .
b00001010 /
#58
b00000000000000000000000000111010 #
b00110100 $
b10101010 %
b1110111010001000 &
b11101110 '
b10001000 0
#59
b00000000000000000000000000111011 #
b011110011110 )
b00111111000100010100 *
b00011110000001100101011001011000 1
b0101011001011000 2
b0001111000000110 6
07
#60
b00000000000000000000000000111100 #
b110010 +
b001100 ,
b111101011000 4
b1111111101011000 5
#61
b00000000000000000000000000111101 #
b1100 -
b0101 .
b11101100 /
#62
b00000000000000000000000000111110 #
b11001111 $
b10011010 %
b0001001110000110 &
b00010011 '
b10000110 0
#63
b00000000000000000000000000111111 #
b000101101000 )
b00000100010000100100 *
b00000000010111111101001010100000 1
b1101001010100000 2
b0000000001011111 6
17
#64
b00000000000000000000000001000000 #
b010101 +
b011110 ,
b001001110110 4
b0000001001110110 5
#65
b00000000000000000000000001000001 #
b0101 -
b00011001 /
#66
b00000000000000000000000001000010 #
b10110001 $
b10000000 %
b0010011110000000 &
b00100111 '
b10000000 0
#67
b00000000000000000000000001000011 #
b001010001010 )
b00010011010101010111 *
b00000011000100010110111011100110 1
b0110111011100110 2
b0000001100010001 6
07
#68
b00000000000000000000000001000100 #
b001000 +
b000101 ,
b000000101000 4
b0000000000101000 5
#69
b00000000000000000000000001000101 #
b0011 -
b0011 .
b00001001 /
#70
b00000000000000000000000001000110 #
b11010000 $
b11010000 %
b0000100100000000 &
b00001001 '
0(
b00000000 0
#71
b00000000000000000000000001000111 #
b100010101010 )
b11100100010010110000 *
b00001100101101000001110011100000 1
b0001110011100000 2
b0000110010110100 6
#72
b00000000000000000000000001001000 #
b010100 +
b011100 ,
b001000110000 4
b0000001000110000 5
#73
b00000000000000000000000001001001 #
b1010 -
b1111 .
b00000110 /
#74
b00000000000000000000000001001010 #
b11000010 $
b10101011 %
b0001010010010110 &
b00010100 '
1(
b10010110 0
#75
b00000000000000000000000001001011 #
b110010110010 )
b01001011000111001100 *
b11110000011111000110111111011000 1
b0110111111011000 2
b1111000001111100 6
#76
b00000000000000000000000001001100 #
b101100 +
b110110 ,
b000011001000 4
b0000000011001000 5
#77
b00000000000000000000000001001101 #
b0010 -
b1101 .
b11111010 /
#78
b00000000000000000000000001001110 #
b11100101 $
b00011100 %
b1111110100001100 &
b11111101 '
b00001100 0
#79
b00000000000000000000000001001111 #
b001010011111 )
b01000000011000011010 *
b00001010100010111111111000100110 1
b1111111000100110 2
b0000101010001011 6
17
#80
b00000000000000000000000001010000 #
b111100 +
b011110 ,
b111110001000 4
b1111111110001000 5
#81
b00000000000000000000000001010001 #
b1001 -
b00010101 /
#82
b00000000000000000000000001010010 #
b10000011 $
b01011111 %
b1101000110011101 &
b11010001 '
b10011101 0
#83
b00000000000000000000000001010011 #
b101111111110 )
b00110010000111100111 *
b11110011011100100010000000110010 1
b0010000000110010 2
b1111001101110010 6
07
#84
b00000000000000000000000001010100 #
b111010 +
b001101 ,
b111110110010 4
b1111111110110010 5
#85
b00000000000000000000000001010101 #
b0100 -
b0011 .
b00001100 /
#86
b00000000000000000000000001010110 #
b11010011 $
b00000110 %
b1111111011110010 &
b11111110 '
b11110010 0
#87
b00000000000000000000000001010111 #
b110001100110 )
b01001110110000010100 *
b11101110010001011011111111111000 1
b1011111111111000 2
b1110111001000101 6
17
#88
b00000000000000000000000001011000 #
b011110 +
b101110 ,
b110111100100 4
b1111110111100100 5
#89
b00000000000000000000000001011001 #
b1100 -
b0000 .
b00000000 /
#90
b00000000000000000000000001011010 #
b00011101 $
b11011101 %
b1111110000001001 &
b11111100 '
b00001001 0
#91
b00000000000000000000000001011011 #
b110111000101 )
b10010100100111011110 *
b00001110111110000011110111010110 1
b0011110111010110 2
b0000111011111000 6
07
#92
b00000000000000000000000001011100 #
b111110 +
b101100 ,
b000000101000 4
b0000000000101000 5
#93
b00000000000000000000000001011101 #
b0110 -
b0110 .
b00100100 /
#94
b00000000000000000000000001011110 #
b01000001 $
b11001000 %
b1111000111001000 &
b11110001 '
b11001000 0
#95
b00000000000000000000000001011111 #
b000011001000 )
b00101010111111111010 *
b00000010000110010111101101010000 1
b0111101101010000 2
b0000001000011001 6
#96
b00000000000000000000000001100000 #
b010000 +
b111000 ,
b111110000000 4
b1111111110000000 5
#97
b00000000000000000000000001100001 #
b1011 -
b0011 .
b11110001 /
#98
b00000000000000000000000001100010 #
b00101000 $
b01111110 %
b0001001110110000 &
b00010011 '
b10110000 0
#99
b00000000000000000000000001100011 #
b011100011100 )
b00011011110100011110 *
b00001100010111001000000101001000 1
b1000000101001000 2
b0000110001011100 6
17
#100
b00000000000000000000000001100100 #
b110000 +
b111001 ,
b000001110000 4
b0000000001110000 5
#101
b00000000000000000000000001100101 #
b1100 .
b00010100 /
#102
b00000000000000000000000001100110 #
b00110101 $
b00101011 %
b0000100011100111 &
b00001000 '
b11100111 0
#103
b00000000000000000000000001100111 #
b011001010111 )
b11010111000001101001 *
b11101111110000111010100110101111 1
b1010100110101111 2
b1110111111000011 6
#104
b00000000000000000000000001101000 #
b111011 +
b000100 ,
b111111101100 4
b1111111111101100 5
#105
b00000000000000000000000001101001 #
b1001 -
b1011 .
b00100011 /
#106
b00000000000000000000000001101010 #
b11011010 $
b00110011 %
b1111100001101110 &
b11111000 '
b01101110 0
#107
b00000000000000000000000001101011 #
b001101010111 )
b11010011011011011000 *
b11110110101100100010101101101000 1
b0010101101101000 2
b1111011010110010 6
07
#108
b00000000000000000000000001101100 #
b100010 +
b111111 ,
b000000011110 4
b0000000000011110 5
#109
b00000000000000000000000001101101 #
b0111 -
b1000 .
b11001000 /
#110
b00000000000000000000000001101110 #
b00100111 $
b11000100 %
b1111011011011100 &
b11110110 '
b11011100 0
#111
b00000000000000000000000001101111 #
b011110110011 )
b00011000011101011111 *
b00001011110001010100000001101101 1
b0100000001101101 2
b0000101111000101 6
#112
b00000000000000000000000001110000 #
b110101 +
b110000 ,
b000010110000 4
b0000000010110000 5
#113
b00000000000000000000000001110001 #
b1101 -
b0101 .
b11110001 /
#114
b00000000000000000000000001110010 #
b10110110 $
b01010000 %
b1110100011100000 &
b11101000 '
b11100000 0
#115
b00000000000000000000000001110011 #
b100101110010 )
b10101000010100110110 *
b00100011111010101101100000001100 1
b1101100000001100 2
b0010001111101010 6
17
#116
b00000000000000000000000001110100 #
b110000 +
b101110 ,
b000100100000 4
b0000000100100000 5
#117
b00000000000000000000000001110101 #
b1110 -
b11110110 /
#118
b00000000000000000000000001110110 #
b10010110 $
b01111111 %
b1100101101101010 &
b11001011 '
b01101010 0
#119
b00000000000000000000000001110111 #
b001000100100 )
b11110011001110101101 *
b11111110010010101001111001010100 1
b1001111001010100 2
b1111111001001010 6
#120
b00000000000000000000000001111000 #
b011011 +
b011011 ,
b001011011001 4
b0000001011011001 5
#121
b00000000000000000000000001111001 #
b1001 -
b1110 .
b00001110 /
#122
b00000000000000000000000001111010 #
b11010001 $
b11010011 %
b0000100001000011 &
b00001000 '
b01000011 0
#123
b00000000000000000000000001111011 #
b101011111111 )
b00100000011110100010 *
b11110101110101111100111001011110 1
b1100111001011110 2
b1111010111010111 6
#124
b00000000000000000000000001111100 #
b100110 +
b011101 ,
b110100001110 4
b1111110100001110 5
#125
b00000000000000000000000001111101 #
b1111 -
b0111 .
b11111001 /
#126
b00000000000000000000000001111110 #
b10101111 $
b10000111 %
b0010011001001001 &
b00100110 '
b01001001 0
#127
b00000000000000000000000001111111 #
b010111001001 )
b11100010100010011000 *
b11110101010110001101011101011000 1
b1101011101011000 2
b1111010101011000 6
#128
b00000000000000000000000010000000 #
b101000 +
b000001 ,
b111111101000 4
b1111111111101000 5
#129
b00000000000000000000000010000001 #
b0100 -
b0011 .
b00001100 /
#130
b00000000000000000000000010000010 #
b01100001 $
b01011110 %
b0010001110011110 &
b00100011 '
b10011110 0
#131
b00000000000000000000000010000011 #
b011001010110 )
b10000111101010101111 *
b11010000010110010101000011001010 1
b0101000011001010 2
b1101000001011001 6
07
#132
b00000000000000000000000010000100 #
b100011 +
b110111 ,
b000100000101 4
b0000000100000101 5
#133
b00000000000000000000000010000101 #
b0101 -
b0101 .
b00011001 /
#134
b00000000000000000000000010000110 #
b00000011 $
b11101011 %
b1111111111000001 &
b11111111 '
b11000001 0
#135
b00000000000000000000000010000111 #
b100101110110 )
b00110101101000111101 *
b11101010000100111110110100011110 1
b1110110100011110 2
b1110101000010011 6
17
#136
b00000000000000000000000010001000 #
b111111 +
b110101 ,
b000000001011 4
b0000000000001011 5
#137
b00000000000000000000000010001001 #
b0010 -
b1100 .
b11111000 /
#138
b00000000000000000000000010001010 #
b11110001 $
b10010010 %
b0000011001110010 &
b00000110 '
b01110010 0
#139
b00000000000000000000000010001011 #
b110001110010 )
b00011110100001001000 *
b11111001001110000101000000010000 1
b0101000000010000 2
b1111100100111000 6
07
#140
b00000000000000000000000010001100 #
b110101 +
b011111 ,
b111010101011 4
b1111111010101011 5
#141
b00000000000000000000000010001101 #
b1011 -
b0000 .
b00000000 /
#142
b00000000000000000000000010001110 #
b10101011 $
b01000001 %
b1110101001101011 &
b11101010 '
b01101011 0
#143
b00000000000000000000000010001111 #
b111000010000 )
b10001111001101010010 *
b00001101101010001001000100100000 1
b1001000100100000 2
b0000110110101000 6
17
#144
b00000000000000000000000010010000 #
b100110 +
b101010 ,
b001000111100 4
b0000001000111100 5
#145
b00000000000000000000000010010001 #
b1111 -
b1110 .
b00000010 /
#146
b00000000000000000000000010010010 #
b00101110 $
b00101101 %
b0000100000010110 &
b00001000 '
b00010110 0
#147
b00000000000000000000000010010011 #
b100110001000 )
b11101010111110011001 *
b00001000100000000001101001001000 1
b0001101001001000 2
b0000100010000000 6
07
#148
b00000000000000000000000010010100 #
b111011 +
b111101 ,
b000000001111 4
b0000000000001111 5
#149
b00000000000000000000000010010101 #
b0100 -
b1001 .
b11100100 /
#150
b00000000000000000000000010010110 #
b00110111 $
b01100001 %
b0001010011010111 &
b00010100 '
b11010111 0
#151
b00000000000000000000000010010111 #
b100101101101 )
b01111110001011111100 *
b11001100001001101100000101001100 1
b1100000101001100 2
b1100110000100110 6
17
#152
b00000000000000000000000010011000 #
b110000 +
b111000 ,
b000010000000 4
b0000000010000000 5
#153
b00000000000000000000000010011001 #
b0001 -
b0101 .
b00000101 /
#154
b00000000000000000000000010011010 #
b10110111 $
b01001001 %
b1110101100101111 &
b11101011 '
b00101111 0
#155
b00000000000000000000000010011011 #
b001111011010 )
b01110000110110101111 *
b00011011001010101011010000000110 1
b1011010000000110 2
b0001101100101010 6
#156
b00000000000000000000000010011100 #
b101011 +
b101100 ,
b000110100100 4
b0000000110100100 5
#157
b00000000000000000000000010011101 #
b1111 -
b1011 .
#158
b00000000000000000000000010011110 #
b11010111 $
b10111000 %
b0000101110001000 &
b00001011 '
b10001000 0
#159
b00000000000000000000000010011111 #
b011110001110 )
b11111011011000000100 *
b11111101110100010001001000111000 1
b0001001000111000 2
b1111110111010001 6
07
#160
b00000000000000000000000010100000 #
b100110 +
b111000 ,
b000011010000 4
b0000000011010000 5
#161
b00000000000000000000000010100001 #
b0111 -
b0100 .
b00011100 /
#162
b00000000000000000000000010100010 #
b11101101 $
b00100110 %
b1111110100101110 &
b11111101 '
b00101110 0
#163
b00000000000000000000000010100011 #
b011100100101 )
b01011010001000111000 *
b00101000001111111111101000011000 1
b1111101000011000 2
b0010100000111111 6
17
#164
b00000000000000000000000010100100 #
b101000 +
b011010 ,
b110110010000 4
b1111110110010000 5
#165
b00000000000000000000000010100101 #
b1001 -
b0011 .
b11101011 /
#166
b00000000000000000000000010100110 #
b01111100 $
b01100001 %
b0010111011111100 &
b00101110 '
b11111100 0
#167
b00000000000000000000000010100111 #
b000111101100 )
b00000110110010110010 *
b00000000110100001110011000011000 1
b1110011000011000 2
b0000000011010000 6
#168
b00000000000000000000000010101000 #
b000010 +
b101110 ,
b111111011100 4
b1111111111011100 5
#169
b00000000000000000000000010101001 #
b1010 -
b0001 .
b11111010 /
#170
b00000000000000000000000010101010 #
b11110011 $
b10110110 %
b0000001111000010 &
b00000011 '
b11000010 0
#171
b00000000000000000000000010101011 #
b010011100010 )
b11010000111011110110 *
b11110001101000110000110100101100 1
b0000110100101100 2
b1111000110100011 6
07
#172
b00000000000000000000000010101100 #
b101011 +
b001100 ,
b111100000100 4
b1111111100000100 5
#173
b00000000000000000000000010101101 #
b0100 -
b1111 .
b11111100 /
#174
b00000000000000000000000010101110 #
b00001000 $
b00011101 %
b0000000011101000 &
b00000000 '
b11101000 0
#175
b00000000000000000000000010101111 #
b110011000010 )
b10010100011111110111 *
b00010101110010001010110100101110 1
b1010110100101110 2
b0001010111001000 6
17
#176
b00000000000000000000000010110000 #
b000011 +
b101110 ,
b111111001010 4
b1111111111001010 5
#177
b00000000000000000000000010110001 #
b0101 -
b0111 .
b00100011 /
#178
b00000000000000000000000010110010 #
b11011001 $
b01111000 %
b1110110110111000 &
b11101101 '
b10111000 0
#179
b00000000000000000000000010110011 #
b000111011111 )
b11101010101100110100 *
b11111101100000100101011001001100 1
b0101011001001100 2
b1111110110000010 6
07
#180
b00000000000000000000000010110100 #
b110110 +
b100010 ,
b000100101100 4
b0000000100101100 5
#181
b00000000000000000000000010110101 #
b0011 -
b1001 .
b11101011 /
#182
b00000000000000000000000010110110 #
b10110101 $
b11001100 %
b0000111100111100 &
b00001111 '
b00111100 0
#183
b00000000000000000000000010110111 #
b000000111101 )
b11111110110000100110 *
b11111111111110110100010100001110 1
b0100010100001110 2
b1111111111111011 6
#184
b00000000000000000000000010111000 #
b000100 +
b101001 ,
b111110100100 4
b1111111110100100 5
#185
b00000000000000000000000010111001 #
b1000 -
b1000 .
b01000000 /
#186
b00000000000000000000000010111010 #
b01111001 $
b00010110 %
b0000101001100110 &
b00001010 '
b01100110 0
#187
b00000000000000000000000010111011 #
b010101101001 )
b10010110110100010010 *
b11011100011011110001011001100010 1
b0001011001100010 2
b1101110001101111 6
#188
b00000000000000000000000010111100 #
b001110 +
b101110 ,
b111100000100 4
b1111111100000100 5
#189
b00000000000000000000000010111101 #
b1101 -
b0011 .
b11110111 /
#190
b00000000000000000000000010111110 #
b11011101 %
b1110111101110101 &
b11101111 '
b01110101 0
#191
b00000000000000000000000010111111 #
b000111101100 )
b11011010111011000001 *
b11111011100010111101101011101100 1
b1101101011101100 2
b1111101110001011 6
17
#192
b00000000000000000000000011000000 #
b101101 +
b001010 ,
b111101000010 4
b1111111101000010 5
#193
b00000000000000000000000011000001 #
b0011 -
b1010 .
b11101110 /
#194
b00000000000000000000000011000010 #
b01010100 $
b01000001 %
b0001010101010100 &
b00010101 '
b01010100 0
#195
b00000000000000000000000011000011 #
b110111111101 )
b01010111101011101111 *
b11110100111110011011000100110011 1
b1011000100110011 2
b1111010011111001 6
#196
b00000000000000000000000011000100 #
b110101 +
b100011 ,
b000100111111 4
b0000000100111111 5
#197
b00000000000000000000000011000101 #
b0111 .
b00010101 /
#198
b00000000000000000000000011000110 #
b00110000 $
b11100110 %
b1111101100100000 &
b11111011 '
b00100000 0
#199
b00000000000000000000000011000111 #
b110000111001 )
b11100001101110011101 *
b00000111001001011011000111110101 1
b1011000111110101 2
b0000011100100101 6
#200
b00000000000000000000000011001000 #
b100010 +
b000100 ,
b111110001000 4
b1111111110001000 5
#201
b00000000000000000000000011001001 #
b0010 -
b0010 .
b00000100 /
#202
b00000000000000000000000011001010 #
b10010110 $
b11111001 %
b0000001011100110 &
b00000010 '
b11100110 0
#203
b00000000000000000000000011001011 #
b010010001100 )
b01100011011001111001 *
b00011100001111111010111000101100 1
b1010111000101100 2
b0001110000111111 6
#204
b00000000000000000000000011001100 #
b111111 +
b010110 ,
b111111101010 4
b1111111111101010 5
#205
b00000000000000000000000011001101 #
b0100 -
b1011 .
b11101100 /
#206
b00000000000000000000000011001110 #
b00001100 $
b00000000 %
b0000000000000000 &
b00000000 '
0(
b00000000 0
#207
b00000000000000000000000011001111 #
b001111111011 )
b01000010101100101000 *
b00010000100101111100100000111000 1
b1100100000111000 2
b0001000010010111 6
#208
b00000000000000000000000011010000 #
b000000 +
b111101 ,
b000000000000 4
b0000000000000000 5
#209
b00000000000000000000000011010001 #
b1101 -
b1110 .
b00000110 /
#210
b00000000000000000000000011010010 #
b00101000 $
b10011111 %
b1111000011011000 &
b11110000 '
1(
b11011000 0
#211
b00000000000000000000000011010011 #
b001011110000 )
b10000101100010111000 *
b11101001100001001001110010000000 1
b1001110010000000 2
b1110100110000100 6
#212
b00000000000000000000000011010100 #
b100000 +
b101111 ,
b001000100000 4
b0000001000100000 5
#213
b00000000000000000000000011010101 #
b1010 -
b0111 .
b11010110 /
#214
b00000000000000000000000011010110 #
b00111000 $
b01101111 %
b0001100001001000 &
b00011000 '
b01001000 0
#215
b00000000000000000000000011010111 #
b001100011000 )
b11100110001000101010 *
b11111010111111111011000111110000 1
b1011000111110000 2
b1111101011111111 6
#216
b00000000000000000000000011011000 #
b001011 +
b010011 ,
b000011010001 4
b0000000011010001 5
#217
b00000000000000000000000011011001 #
b1100 -
b1011 .
b00010100 /
#218
b00000000000000000000000011011010 #
b01110110 $
b00000110 %
b0000001011000100 &
b00000010 '
b11000100 0
#219
b00000000000000000000000011011011 #
b110011011100 )
b11101111001010111101 *
b00000011010011011010011001101100 1
b1010011001101100 2
b0000001101001101 6
#220
b00000000000000000000000011011100 #
b110000 +
b101111 ,
b000100010000 4
b0000000100010000 5
#221
b00000000000000000000000011011101 #
b0110 .
b11101000 /
#222
b00000000000000000000000011011110 #
b00001000 $
b11000000 %
b1111111000000000 &
b11111110 '
0(
b00000000 0
#223
b00000000000000000000000011011111 #
b010110110101 )
b00000000000110011000 *
b00000000000010010001100001111000 1
b0001100001111000 2
b0000000000001001 6
07
#224
b00000000000000000000000011100000 #
b101000 +
b000100 ,
b111110100000 4
b1111111110100000 5
#225
b00000000000000000000000011100001 #
b1111 -
b1111 .
b00000001 /
#226
b00000000000000000000000011100010 #
b10000110 $
b0001111010000000 &
b00011110 '
1(
b10000000 0
#227
b00000000000000000000000011100011 #
b000001111011 )
b00000101110110000000 *
b00000000001011001110110010000000 1
b1110110010000000 2
b0000000000101100 6
17
#228
b00000000000000000000000011100100 #
b000111 +
b100101 ,
b111101000011 4
b1111111101000011 5
#229
b00000000000000000000000011100101 #
b0101 -
b0110 .
b00011110 /
#230
b00000000000000000000000011100110 #
b01101110 $
b10000101 %
b1100101100100110 &
b11001011 '
b00100110 0
#231
b00000000000000000000000011100111 #
b010000000101 )
b10001011001001010000 *
b11100010101001001011101110010000 1
b1011101110010000 2
b1110001010100100 6
#232
b00000000000000000000000011101000 #
b011100 +
b000000 ,
b000000000000 4
b0000000000000000 5
#233
b00000000000000000000000011101001 #
b1010 -
b1001 .
b00101010 /
#234
b00000000000000000000000011101010 #
b01101001 $
b11000010 %
b1110011010010010 &
b11100110 '
b10010010 0
#235
b00000000000000000000000011101011 #
b101000101111 )
b00000101001010001001 *
b11111110000111111111000100100111 1
b1111000100100111 2
b1111111000011111 6
#236
b00000000000000000000000011101100 #
b000101 +
b100111 ,
b111110000011 4
b1111111110000011 5
#237
b00000000000000000000000011101101 #
b0011 -
b11101011 /
#238
b00000000000000000000000011101110 #
b10001100 $
b10001000 %
b0011011001100000 &
b00110110 '
b01100000 0
